%!PS-Adobe-3.0 EPSF-3.0
%%Creator: MATLAB, The MathWorks, Inc. Version 8.1.0.604 (R2013a). Operating System: Darwin 15.0.0 Darwin Kernel Version 15.0.0: Sat Sep 19 15:53:46 PDT 2015; root:xnu-3247.10.11~1/RELEASE_X86_64 x86_64.
%%Title: /Users/fruzti/Dropbox/PhD/SubmodularityMVDR/figureConference/beamPatternscomparison.eps
%%CreationDate: 02/22/2017  11:31:00
%%DocumentNeededFonts: Helvetica
%%DocumentProcessColors: Cyan Magenta Yellow Black
%%LanguageLevel: 2
%%Pages: 1
%%BoundingBox:  -146   110   759   682
%%EndComments

%%BeginProlog
% MathWorks dictionary
/MathWorks 160 dict begin
% definition operators
/bdef {bind def} bind def
/ldef {load def} bind def
/xdef {exch def} bdef
/xstore {exch store} bdef
% operator abbreviations
/c  /clip ldef
/cc /concat ldef
/cp /closepath ldef
/gr /grestore ldef
/gs /gsave ldef
/mt /moveto ldef
/np /newpath ldef
/cm /currentmatrix ldef
/sm /setmatrix ldef
/rm /rmoveto ldef
/rl /rlineto ldef
/s {show newpath} bdef
/sc {setcmykcolor} bdef
/sr /setrgbcolor ldef
/sg /setgray ldef
/w /setlinewidth ldef
/j /setlinejoin ldef
/cap /setlinecap ldef
/rc {rectclip} bdef
/rf {rectfill} bdef
% page state control
/pgsv () def
/bpage {/pgsv save def} bdef
/epage {pgsv restore} bdef
/bplot /gsave ldef
/eplot {stroke grestore} bdef
% orientation switch
/portraitMode 0 def /landscapeMode 1 def /rotateMode 2 def
% coordinate system mappings
/dpi2point 0 def
% font control
/FontSize 0 def
/FMS {/FontSize xstore findfont [FontSize 0 0 FontSize neg 0 0]
  makefont setfont} bdef
/reencode {exch dup where {pop load} {pop StandardEncoding} ifelse
  exch dup 3 1 roll findfont dup length dict begin
  { 1 index /FID ne {def}{pop pop} ifelse } forall
  /Encoding exch def currentdict end definefont pop} bdef
/isroman {findfont /CharStrings get /Agrave known} bdef
/FMSR {3 1 roll 1 index dup isroman {reencode} {pop pop} ifelse
  exch FMS} bdef
/csm {1 dpi2point div -1 dpi2point div scale neg translate
 dup landscapeMode eq {pop -90 rotate}
  {rotateMode eq {90 rotate} if} ifelse} bdef
% line types: solid, dotted, dashed, dotdash
/SO { [] 0 setdash } bdef
/DO { [.5 dpi2point mul 4 dpi2point mul] 0 setdash } bdef
/DA { [6 dpi2point mul] 0 setdash } bdef
/DD { [.5 dpi2point mul 4 dpi2point mul 6 dpi2point mul 4
  dpi2point mul] 0 setdash } bdef
% macros for lines and objects
/L {lineto stroke} bdef
/MP {3 1 roll moveto 1 sub {rlineto} repeat} bdef
/AP {{rlineto} repeat} bdef
/PDlw -1 def
/W {/PDlw currentlinewidth def setlinewidth} def
/PP {closepath eofill} bdef
/DP {closepath stroke} bdef
/MR {4 -2 roll moveto dup  0 exch rlineto exch 0 rlineto
  neg 0 exch rlineto closepath} bdef
/FR {MR stroke} bdef
/PR {MR fill} bdef
/L1i {{currentfile picstr readhexstring pop} image} bdef
/tMatrix matrix def
/MakeOval {newpath tMatrix currentmatrix pop translate scale
0 0 1 0 360 arc tMatrix setmatrix} bdef
/FO {MakeOval stroke} bdef
/PO {MakeOval fill} bdef
/PD {currentlinewidth 2 div 0 360 arc fill
   PDlw -1 eq not {PDlw w /PDlw -1 def} if} def
/FA {newpath tMatrix currentmatrix pop translate scale
  0 0 1 5 -2 roll arc tMatrix setmatrix stroke} bdef
/PA {newpath tMatrix currentmatrix pop	translate 0 0 moveto scale
  0 0 1 5 -2 roll arc closepath tMatrix setmatrix fill} bdef
/FAn {newpath tMatrix currentmatrix pop translate scale
  0 0 1 5 -2 roll arcn tMatrix setmatrix stroke} bdef
/PAn {newpath tMatrix currentmatrix pop translate 0 0 moveto scale
  0 0 1 5 -2 roll arcn closepath tMatrix setmatrix fill} bdef
/vradius 0 def /hradius 0 def /lry 0 def
/lrx 0 def /uly 0 def /ulx 0 def /rad 0 def
/MRR {/vradius xdef /hradius xdef /lry xdef /lrx xdef /uly xdef
  /ulx xdef newpath tMatrix currentmatrix pop ulx hradius add uly
  vradius add translate hradius vradius scale 0 0 1 180 270 arc 
  tMatrix setmatrix lrx hradius sub uly vradius add translate
  hradius vradius scale 0 0 1 270 360 arc tMatrix setmatrix
  lrx hradius sub lry vradius sub translate hradius vradius scale
  0 0 1 0 90 arc tMatrix setmatrix ulx hradius add lry vradius sub
  translate hradius vradius scale 0 0 1 90 180 arc tMatrix setmatrix
  closepath} bdef
/FRR {MRR stroke } bdef
/PRR {MRR fill } bdef
/MlrRR {/lry xdef /lrx xdef /uly xdef /ulx xdef /rad lry uly sub 2 div def
  newpath tMatrix currentmatrix pop ulx rad add uly rad add translate
  rad rad scale 0 0 1 90 270 arc tMatrix setmatrix lrx rad sub lry rad
  sub translate rad rad scale 0 0 1 270 90 arc tMatrix setmatrix
  closepath} bdef
/FlrRR {MlrRR stroke } bdef
/PlrRR {MlrRR fill } bdef
/MtbRR {/lry xdef /lrx xdef /uly xdef /ulx xdef /rad lrx ulx sub 2 div def
  newpath tMatrix currentmatrix pop ulx rad add uly rad add translate
  rad rad scale 0 0 1 180 360 arc tMatrix setmatrix lrx rad sub lry rad
  sub translate rad rad scale 0 0 1 0 180 arc tMatrix setmatrix
  closepath} bdef
/FtbRR {MtbRR stroke } bdef
/PtbRR {MtbRR fill } bdef
/stri 6 array def /dtri 6 array def
/smat 6 array def /dmat 6 array def
/tmat1 6 array def /tmat2 6 array def /dif 3 array def
/asub {/ind2 exch def /ind1 exch def dup dup
  ind1 get exch ind2 get sub exch } bdef
/tri_to_matrix {
  2 0 asub 3 1 asub 4 0 asub 5 1 asub
  dup 0 get exch 1 get 7 -1 roll astore } bdef
/compute_transform {
  dmat dtri tri_to_matrix tmat1 invertmatrix 
  smat stri tri_to_matrix tmat2 concatmatrix } bdef
/ds {stri astore pop} bdef
/dt {dtri astore pop} bdef
/db {2 copy /cols xdef /rows xdef mul dup 3 mul string
  currentfile 
  3 index 0 eq {/ASCIIHexDecode filter}
  {/ASCII85Decode filter 3 index 2 eq {/RunLengthDecode filter} if }
  ifelse exch readstring pop
  dup 0 3 index getinterval /rbmap xdef
  dup 2 index dup getinterval /gbmap xdef
  1 index dup 2 mul exch getinterval /bbmap xdef pop pop}bdef
/it {gs np dtri aload pop moveto lineto lineto cp c
  cols rows 8 compute_transform 
  rbmap gbmap bbmap true 3 colorimage gr}bdef
/il {newpath moveto lineto stroke}bdef
currentdict end def
%%EndProlog

%%BeginSetup
MathWorks begin

0 cap

end
%%EndSetup

%%Page: 1 1
%%BeginPageSetup
%%PageBoundingBox:  -146   110   759   682
MathWorks begin
bpage
%%EndPageSetup

%%BeginObject: obj1
bplot

/dpi2point 12 def
portraitMode -1752 8184 csm

    0     0 10860  6855 rc
87 dict begin %Colortable dictionary
/c0 { 0.000000 0.000000 0.000000 sr} bdef
/c1 { 1.000000 1.000000 1.000000 sr} bdef
/c2 { 0.900000 0.000000 0.000000 sr} bdef
/c3 { 0.000000 0.820000 0.000000 sr} bdef
/c4 { 0.000000 0.000000 0.800000 sr} bdef
/c5 { 0.910000 0.820000 0.320000 sr} bdef
/c6 { 1.000000 0.260000 0.820000 sr} bdef
/c7 { 0.000000 0.820000 0.820000 sr} bdef
c0
1 j
1 sg
   0    0 10861 6856 rf
6 w
0 1479 8416 0 0 -1479 1412 1993 4 MP
PP
-8416 0 0 1479 8416 0 0 -1479 1412 1993 5 MP stroke
4 w
DO
SO
6 w
0 sg
1412 1993 mt 9828 1993 L
1412  514 mt 9828  514 L
1412 1993 mt 1412  514 L
9828 1993 mt 9828  514 L
1412 1993 mt 9828 1993 L
1412 1993 mt 1412  514 L
1412 1993 mt 1412 1908 L
1412  514 mt 1412  598 L
%%IncludeResource: font Helvetica
/Helvetica /ISOLatin1Encoding 156 FMSR

1235 2172 mt 
(-80) s
2464 1993 mt 2464 1908 L
2464  514 mt 2464  598 L
2287 2172 mt 
(-60) s
3516 1993 mt 3516 1908 L
3516  514 mt 3516  598 L
3339 2172 mt 
(-40) s
4568 1993 mt 4568 1908 L
4568  514 mt 4568  598 L
4391 2172 mt 
(-20) s
5620 1993 mt 5620 1908 L
5620  514 mt 5620  598 L
5577 2172 mt 
(0) s
6672 1993 mt 6672 1908 L
6672  514 mt 6672  598 L
6586 2172 mt 
(20) s
7724 1993 mt 7724 1908 L
7724  514 mt 7724  598 L
7638 2172 mt 
(40) s
8776 1993 mt 8776 1908 L
8776  514 mt 8776  598 L
8690 2172 mt 
(60) s
9828 1993 mt 9828 1908 L
9828  514 mt 9828  598 L
9742 2172 mt 
(80) s
1412 1993 mt 1496 1993 L
9828 1993 mt 9743 1993 L
1113 2051 mt 
(-40) s
1412 1623 mt 1496 1623 L
9828 1623 mt 9743 1623 L
1113 1681 mt 
(-30) s
1412 1253 mt 1496 1253 L
9828 1253 mt 9743 1253 L
1113 1311 mt 
(-20) s
1412  883 mt 1496  883 L
9828  883 mt 9743  883 L
1113  941 mt 
(-10) s
1412  514 mt 1496  514 L
9828  514 mt 9743  514 L
1291  572 mt 
(0) s
1412 1993 mt 9828 1993 L
1412  514 mt 9828  514 L
1412 1993 mt 1412  514 L
9828 1993 mt 9828  514 L
gs 1412 514 8417 1480 rc
DA
13.2 w
2 51 5 103 5 77 6 62 5 52 5 43 6 38 5 34 
5 30 5 27 6 25 5 23 5 20 5 20 6 17 5 17 
5 15 5 15 6 14 5 12 5 13 5 11 6 11 5 10 
5 10 5 9 6 9 5 8 5 8 6 7 5 8 5 6 
5 7 6 6 5 6 5 6 5 6 6 5 5 5 5 5 
5 4 6 5 5 4 5 4 5 4 6 4 5 4 5 3 
5 3 6 4 5 3 5 3 5 3 6 3 5 2 5 3 
6 2 5 3 5 2 5 3 6 2 5 2 5 2 5 2 
6 2 5 2 5 1 5 2 6 2 5 1 5 2 5 1 
6 2 5 1 5 2 5 1 6 1 5 1 5 1 6 1 
5 2 5 0 5 1 6 1 5 1 5 1 5 1 6 0 
5 1 5 1 5 0 6 1 5 0 5 1 5 0 6 0 
5 1 5 0 5 0 6 0 5 1 5 0 5 0 1412 1033 104 MP stroke
3 208 5 177 5 113 5 82 6 63 5 52 5 43 5 36 
6 32 5 27 5 24 6 22 5 18 5 17 5 15 6 13 
5 12 5 10 5 9 6 8 5 7 5 6 5 5 6 4 
5 3 5 3 5 1 6 2 5 0 5 0 5 -1 6 -1 
5 -2 5 -2 5 -3 6 -3 5 -4 5 -4 6 -5 5 -5 
5 -6 5 -6 6 -6 5 -7 5 -7 5 -8 6 -8 5 -7 
5 -8 5 -9 6 -8 5 -8 5 -7 5 -8 6 -7 5 -6 
5 -5 5 -5 6 -3 5 -3 5 -1 6 0 5 2 5 3 
5 3 6 5 5 6 5 7 5 7 6 7 5 8 5 9 
5 8 6 8 5 8 5 8 5 8 6 7 5 7 5 7 
5 6 6 6 5 6 5 5 5 4 6 4 5 4 5 3 
6 3 5 2 5 1 5 1 6 1 5 0 5 0 5 -1 
6 -2 5 -2 5 -2 5 -3 6 -4 5 -4 5 -5 5 -5 
6 -6 5 -7 5 -7 5 -8 6 -8 5 -10 5 -10 6 -11 
5 -11 5 -13 5 -13 6 -15 5 -16 5 -16 5 -18 6 -19 
5 -21 5 -22 5 -24 6 -25 5 -28 5 -30 5 -31 6 -34 
5 -36 5 -36 5 -34 6 -31 5 -21 5 -8 5 7 6 19 
5 28 5 31 6 33 5 32 5 30 5 28 6 26 5 24 
5 22 5 20 6 19 5 17 5 16 5 15 6 14 5 12 
5 12 5 11 6 10 5 9 5 9 5 7 6 8 5 6 
5 6 6 6 5 5 5 5 5 4 6 3 5 4 5 2 
5 3 6 2 5 2 5 1 5 1 6 1 5 0 5 0 
5 0 6 -1 5 -1 5 -1 5 -2 6 -2 5 -2 5 -2 
5 -3 6 -3 5 -4 5 -4 6 -4 5 -4 5 -5 5 -5 
6 -5 5 -6 5 -6 5 -7 6 -7 5 -7 5 -8 5 -8 
6 -9 5 -9 5 -10 5 -10 6 -11 5 -11 5 -13 5 -12 
6 -14 5 -14 5 -15 6 -17 5 -17 5 -18 5 -20 6 -21 
5 -23 5 -25 5 -26 6 -30 5 -32 5 -37 5 -41 6 -47 
5 -55 5 -66 5 -84 6 -112 1 -30 1973 1994 230 MP stroke
6 -3 5 -6 5 -7 6 -9 5 -12 5 -13 5 -16 6 -17 
5 -20 5 -23 5 -25 6 -29 5 -31 5 -35 5 -38 6 -41 
5 -44 5 -44 5 -40 6 -30 5 -14 5 4 5 19 6 27 
5 29 5 28 6 25 5 22 5 18 5 15 6 12 5 9 
5 6 5 3 6 1 5 -2 5 -3 5 -6 6 -7 5 -10 
5 -11 5 -12 6 -13 5 -15 5 -14 5 -14 6 -14 5 -12 
5 -11 5 -8 6 -5 5 -3 5 -1 6 2 5 2 5 4 
5 4 6 4 5 3 5 3 5 1 6 0 5 -1 5 -3 
5 -5 6 -6 5 -8 5 -10 5 -11 6 -14 5 -15 5 -18 
5 -20 6 -22 5 -24 5 -27 6 -30 5 -33 5 -37 5 -41 
6 -46 5 -52 5 -61 5 -71 6 -87 5 -108 5 -133 5 -97 
6 72 5 124 5 102 5 79 6 64 5 53 5 45 5 40 
6 34 5 31 5 28 5 25 6 23 5 21 5 19 6 17 
5 16 5 14 5 12 6 11 5 10 5 8 5 6 6 5 
5 4 5 3 5 1 6 -1 5 -1 5 -4 5 -4 6 -7 
5 -8 5 -9 5 -12 6 -13 5 -15 5 -17 6 -19 5 -21 
5 -24 5 -25 6 -28 5 -27 5 -27 5 -24 6 -16 5 -7 
5 7 5 17 6 26 5 31 5 32 5 32 6 30 5 29 
5 26 5 24 6 22 5 20 5 18 5 16 6 14 5 13 
5 10 6 9 5 8 5 6 5 4 6 3 5 1 5 0 
5 -2 6 -3 5 -5 5 -6 5 -9 6 -9 5 -12 5 -13 
5 -16 6 -17 5 -18 5 -21 5 -21 6 -23 5 -23 5 -21 
6 -19 5 -13 5 -7 5 0 6 9 5 14 5 19 5 21 
6 22 5 22 5 20 5 19 6 18 5 15 5 13 5 12 
6 9 5 8 5 5 5 4 6 2 5 0 5 -2 5 -4 
6 -6 5 -8 5 -10 6 -13 5 -16 5 -18 5 -22 6 -25 
5 -30 5 -36 5 -41 6 -51 5 -62 5 -80 5 -108 6 -163 
5 -264 5 101 5 229 6 140 5 98 5 74 5 59 6 48 
5 41 5 34 6 30 5 26 5 22 5 19 6 17 5 14 
5 12 5 10 6 9 5 6 5 5 5 3 6 2 5 0 
5 -1 5 -3 6 -4 5 -6 5 -7 5 -9 6 -10 5 -12 
5 -14 5 -16 6 -18 5 -20 5 -22 6 -26 5 -29 5 -32 
5 -38 6 -43 5 -51 5 -61 5 -76 6 -99 5 -144 5 -252 
2 -60 3177 1994 266 MP stroke
1 61 5 231 5 141 6 103 5 80 5 65 5 55 6 47 
5 41 5 36 5 31 6 28 5 25 5 22 5 20 6 18 
5 16 5 15 5 14 6 12 5 12 5 12 5 10 6 11 
5 9 5 9 6 9 5 8 5 7 5 7 6 6 5 5 
5 4 5 3 6 3 5 0 5 0 5 -1 6 -3 5 -4 
5 -5 5 -6 6 -7 5 -8 5 -8 5 -8 6 -8 5 -7 
5 -6 5 -4 6 -2 5 1 5 3 6 4 5 6 5 7 
5 7 6 7 5 6 5 4 5 3 6 1 5 -2 5 -5 
5 -8 6 -11 5 -16 5 -21 5 -27 6 -34 5 -43 5 -53 
5 -66 6 -76 5 -62 5 9 6 80 5 94 5 84 5 72 
6 60 5 53 5 45 5 39 6 35 5 31 5 26 5 24 
6 21 5 18 5 16 5 13 6 11 5 10 5 7 5 5 
5 3 4584 514 98 MP stroke
5 151 5 121 5 95 6 78 5 66 5 58 5 52 6 47 
5 44 5 41 5 38 6 35 5 33 5 31 5 29 6 27 
5 25 5 23 6 21 5 20 5 18 5 16 6 14 5 12 
5 11 5 9 6 8 5 5 5 4 5 2 6 0 5 -2 
5 -4 5 -6 6 -8 5 -10 5 -13 5 -16 6 -19 5 -22 
5 -25 5 -30 6 -34 5 -40 5 -46 6 -55 5 -66 5 -78 
5 -91 6 -88 5 -34 5 51 5 79 6 73 5 59 5 47 
5 37 6 30 5 22 5 16 5 11 6 7 5 2 5 -3 
5 -7 6 -11 5 -16 5 -22 6 -27 5 -33 5 -42 5 -53 
6 -66 5 -88 5 -119 5 -162 6 -73 5 157 5 145 5 105 
6 80 5 63 5 52 5 44 6 37 5 32 5 29 5 25 
6 23 5 20 5 19 5 17 6 15 5 14 5 13 6 12 
5 10 5 10 5 8 6 7 5 6 5 5 5 3 6 3 
5 0 5 -1 5 -2 6 -4 5 -6 5 -7 5 -10 6 -11 
5 -14 5 -16 5 -19 6 -21 5 -24 5 -27 6 -31 5 -34 
5 -39 5 -44 6 -49 5 -56 5 -61 5 -68 6 -69 5 -62 
5 -39 5 -6 6 18 5 24 5 21 5 12 6 2 5 -10 
5 -23 5 -40 6 -64 5 -104 5 -190 1 -39 5098 1994 143 MP stroke
3 102 5 268 6 139 5 91 5 67 5 52 6 41 5 35 
5 29 6 25 5 21 5 19 5 18 6 15 5 14 5 13 
5 12 6 12 5 10 5 10 5 9 6 8 5 7 5 7 
5 6 6 4 5 4 5 4 5 2 6 1 5 0 5 -1 
5 -2 6 -4 5 -4 5 -6 6 -6 5 -8 5 -10 5 -10 
6 -12 5 -13 5 -15 5 -16 6 -17 5 -19 5 -19 5 -22 
6 -22 5 -24 5 -25 5 -27 6 -27 5 -28 5 -29 5 -30 
6 -29 5 -30 5 -30 6 -28 5 -29 5 -27 5 -26 6 -26 
5 -24 5 -24 5 -22 6 -20 5 -17 5 -13 5 -5 6 2 
5 12 5 19 5 26 6 29 5 32 5 31 5 32 6 30 
5 29 5 27 5 26 6 24 5 23 5 20 6 20 5 17 
5 17 5 15 6 13 5 12 5 11 5 9 6 8 5 6 
5 5 5 4 6 3 5 1 5 0 5 -2 6 -2 5 -4 
5 -5 5 -6 6 -7 5 -8 5 -8 6 -9 5 -10 5 -9 
5 -10 6 -9 5 -8 5 -9 5 -7 6 -7 5 -7 5 -6 
5 -6 6 -7 5 -7 5 -8 5 -9 6 -11 5 -13 5 -15 
5 -18 6 -21 5 -24 5 -29 5 -35 6 -41 5 -50 5 -62 
6 -80 5 -107 4 -126 5852 1994 140 MP stroke
4 179 5 143 6 100 5 77 5 62 5 53 6 46 5 40 
5 36 5 32 6 29 5 27 5 25 5 23 6 21 5 19 
5 19 5 17 6 16 5 15 5 14 6 13 5 12 5 12 
5 10 6 10 5 10 5 8 5 8 6 8 5 7 5 6 
5 5 6 5 5 5 5 4 5 3 6 3 5 2 5 2 
5 1 6 0 5 0 5 -1 5 -1 6 -2 5 -2 5 -4 
6 -3 5 -5 5 -5 5 -6 6 -7 5 -7 5 -9 5 -9 
6 -10 5 -11 5 -13 5 -13 6 -14 5 -16 5 -17 5 -18 
6 -20 5 -20 5 -23 5 -23 6 -24 5 -24 5 -23 6 -20 
5 -16 5 -10 5 -1 6 7 5 14 5 20 5 24 6 26 
5 26 5 26 5 25 6 24 5 22 5 21 5 20 6 18 
5 17 5 16 5 15 6 14 5 12 5 12 5 11 6 9 
5 9 5 9 6 7 5 7 5 6 5 5 6 5 5 4 
5 3 5 3 6 2 5 2 5 2 5 0 6 1 5 0 
5 0 5 -1 6 -1 5 -1 5 -1 5 -2 6 -1 5 -2 
5 -2 6 -2 5 -2 5 -1 5 -2 6 -1 5 -1 5 -2 
5 0 6 -1 5 -1 5 0 5 0 6 0 5 0 5 0 
5 0 6 0 5 0 5 -1 5 0 6 -1 5 -1 5 -2 
5 -2 6 -3 5 -3 5 -4 6 -5 5 -6 5 -6 5 -8 
6 -8 5 -10 5 -11 5 -12 6 -14 5 -16 5 -17 5 -20 
6 -22 5 -25 5 -28 5 -32 6 -36 5 -42 5 -49 5 -58 
6 -67 5 -77 5 -76 6 -37 5 36 5 76 5 78 6 68 
5 59 5 50 5 43 6 37 5 33 5 28 5 25 6 22 
5 20 5 17 5 15 6 14 5 11 5 10 5 8 6 6 
5 6 5 3 5 3 6 0 5 0 5 -2 6 -3 5 -5 
5 -6 5 -8 6 -9 5 -11 5 -12 5 -15 6 -16 5 -19 
5 -21 5 -24 6 -27 5 -30 5 -35 5 -40 6 -45 5 -53 
5 -60 5 -68 6 -69 5 -51 5 0 6 49 5 66 5 64 
5 57 6 49 5 42 5 36 5 32 6 27 5 24 5 21 
5 18 6 16 5 13 5 12 5 10 6 8 5 6 5 6 
5 3 6 3 5 1 5 0 5 -1 6 -2 5 -3 5 -5 
6 -5 5 -7 5 -8 5 -8 6 -10 5 -10 5 -12 5 -13 
6 -13 5 -14 5 -15 5 -16 6 -16 5 -16 5 -16 5 -15 
6 -14 5 -12 5 -10 5 -7 6 -4 5 0 5 3 6 6 
5 9 5 10 5 11 6 12 5 12 5 12 5 11 6 10 
5 10 5 8 5 7 6 5 5 5 5 2 5 2 6 -1 
5 -2 5 -3 5 -6 6 -8 5 -10 5 -12 5 -15 6 -17 
5 -21 5 -25 6 -29 7702 1187 300 MP stroke
5 -34 5 -40 5 -48 6 -58 5 -69 5 -81 5 -83 6 -38 
5 46 5 85 5 82 6 70 5 58 5 49 5 40 6 35 
5 29 5 24 5 21 6 17 5 14 5 11 6 8 5 5 
5 3 5 0 6 -2 5 -5 5 -7 5 -10 6 -13 5 -14 
5 -17 5 -18 6 -18 5 -18 5 -16 5 -10 6 -4 5 5 
5 14 5 20 6 25 5 27 5 27 5 27 6 25 5 23 
5 21 6 18 5 17 5 14 5 12 6 9 5 8 5 5 
5 4 6 1 5 -1 5 -3 5 -6 6 -7 5 -11 5 -13 
5 -16 6 -19 5 -22 5 -27 5 -31 6 -37 5 -43 5 -52 
6 -63 5 -76 5 -94 5 -105 6 -64 5 50 5 99 5 89 
6 71 5 57 5 46 5 37 6 31 5 25 5 20 5 16 
6 13 5 9 5 6 5 4 6 2 5 1 5 -1 5 -2 
6 -2 5 -2 5 -1 6 1 5 3 5 6 5 7 6 11 
5 12 5 13 5 15 6 14 5 15 5 13 5 13 6 12 
5 10 5 8 5 7 6 5 5 3 5 2 5 -1 6 -2 
5 -5 5 -7 6 -9 5 -11 5 -13 5 -15 6 -17 5 -19 
5 -19 5 -20 6 -19 5 -15 5 -10 5 -3 6 5 5 13 
5 17 5 22 6 22 5 23 5 22 5 20 6 19 5 16 
5 14 5 12 6 9 5 7 5 5 6 2 5 1 5 -3 
5 -4 6 -7 5 -10 5 -13 5 -15 6 -19 5 -22 5 -25 
5 -29 6 -32 5 -35 5 -37 5 -34 6 -25 5 -10 5 11 
5 27 6 36 5 40 5 39 6 36 5 33 5 29 5 26 
6 23 5 20 5 17 5 15 6 13 5 10 5 8 5 6 
6 5 5 2 5 1 5 -1 6 -2 5 -5 5 -6 5 -8 
6 -9 5 -11 5 -13 5 -15 6 -17 5 -19 5 -21 6 -24 
5 -26 5 -29 5 -32 6 -36 5 -41 5 -46 5 -52 6 -61 
5 -74 5 -91 5 -122 6 -185 4 -326 6583 1994 214 MP stroke
1 -2 6 -15 5 -14 5 -13 6 -11 5 -8 5 -6 5 -2 
6 1 5 5 5 8 5 12 6 14 5 16 5 17 5 18 
6 18 5 19 5 18 5 18 6 18 5 18 5 17 5 16 
6 16 5 15 5 15 6 14 5 14 5 13 5 13 6 12 
5 12 5 11 5 11 6 11 5 10 5 10 5 9 6 9 
5 8 5 9 5 8 6 7 5 7 5 7 5 7 6 6 
5 6 5 6 5 5 6 5 5 5 5 4 6 4 5 4 
5 3 5 3 6 3 5 3 5 2 5 2 6 1 5 1 
5 1 5 0 6 1 5 -1 5 0 5 -1 6 -2 5 -2 
5 -2 5 -3 6 -3 5 -4 5 -4 6 -5 5 -5 5 -6 
5 -7 6 -7 5 -8 5 -9 5 -9 6 -11 5 -12 5 -12 
5 -14 6 -16 5 -17 5 -18 5 -21 6 -23 5 -25 5 -29 
5 -33 6 -38 5 -44 5 -53 5 -65 6 -84 5 -117 5 -191 
1 -37 9285 1994 106 MP stroke
SO
6 w
gr

1 sg
0 1479 8416 0 0 -1479 1412 4047 4 MP
PP
-8416 0 0 1479 8416 0 0 -1479 1412 4047 5 MP stroke
4 w
DO
SO
6 w
0 sg
1412 4047 mt 9828 4047 L
1412 2568 mt 9828 2568 L
1412 4047 mt 1412 2568 L
9828 4047 mt 9828 2568 L
1412 4047 mt 9828 4047 L
1412 4047 mt 1412 2568 L
1412 4047 mt 1412 3962 L
1412 2568 mt 1412 2652 L
1235 4226 mt 
(-80) s
2464 4047 mt 2464 3962 L
2464 2568 mt 2464 2652 L
2287 4226 mt 
(-60) s
3516 4047 mt 3516 3962 L
3516 2568 mt 3516 2652 L
3339 4226 mt 
(-40) s
4568 4047 mt 4568 3962 L
4568 2568 mt 4568 2652 L
4391 4226 mt 
(-20) s
5620 4047 mt 5620 3962 L
5620 2568 mt 5620 2652 L
5577 4226 mt 
(0) s
6672 4047 mt 6672 3962 L
6672 2568 mt 6672 2652 L
6586 4226 mt 
(20) s
7724 4047 mt 7724 3962 L
7724 2568 mt 7724 2652 L
7638 4226 mt 
(40) s
8776 4047 mt 8776 3962 L
8776 2568 mt 8776 2652 L
8690 4226 mt 
(60) s
9828 4047 mt 9828 3962 L
9828 2568 mt 9828 2652 L
9742 4226 mt 
(80) s
1412 4047 mt 1496 4047 L
9828 4047 mt 9743 4047 L
1113 4105 mt 
(-40) s
1412 3677 mt 1496 3677 L
9828 3677 mt 9743 3677 L
1113 3735 mt 
(-30) s
1412 3307 mt 1496 3307 L
9828 3307 mt 9743 3307 L
1113 3365 mt 
(-20) s
1412 2937 mt 1496 2937 L
9828 2937 mt 9743 2937 L
1113 2995 mt 
(-10) s
1412 2568 mt 1496 2568 L
9828 2568 mt 9743 2568 L
1291 2626 mt 
(0) s
1412 4047 mt 9828 4047 L
1412 2568 mt 9828 2568 L
1412 4047 mt 1412 2568 L
9828 4047 mt 9828 2568 L
gs 1412 2568 8417 1480 rc
13.2 w
/c8 { 0.000000 1.000000 0.000000 sr} bdef
c8
1 0 5 -2 6 -4 5 -6 5 -7 5 -10 6 -11 5 -13 
5 -15 5 -17 6 -19 5 -22 5 -24 5 -28 6 -30 5 -35 
5 -39 5 -44 6 -50 5 -58 5 -68 5 -81 6 -97 5 -111 
5 -89 6 13 5 83 5 81 5 65 6 50 5 37 5 28 
5 20 6 14 5 8 5 3 5 -3 6 -7 5 -13 5 -18 
5 -23 6 -30 5 -38 5 -47 5 -60 6 -78 5 -107 5 -159 
5 -244 6 85 5 217 5 135 6 93 5 69 5 53 5 42 
6 34 5 27 5 20 5 16 6 12 5 7 5 3 5 -1 
6 -4 5 -9 5 -12 5 -17 6 -21 5 -26 5 -33 5 -39 
6 -46 5 -55 5 -62 6 -59 5 -33 5 17 5 56 6 66 
5 63 5 56 5 47 6 41 5 35 5 30 5 26 6 21 
5 19 5 15 5 13 6 10 5 7 5 5 5 3 6 1 
5 -1 5 -3 5 -5 6 -7 5 -9 5 -11 6 -13 5 -16 
5 -17 5 -20 6 -22 5 -25 5 -28 5 -31 6 -33 5 -37 
5 -40 5 -43 6 -44 5 -43 5 -38 5 -27 6 -10 5 6 
5 18 5 24 6 26 5 25 5 22 6 19 5 16 5 13 
5 11 6 8 5 5 5 4 5 2 6 1 5 0 5 -2 
5 -2 6 -3 5 -3 5 -3 5 -3 6 -2 5 -1 5 -1 
5 -1 6 1 5 1 5 2 5 2 6 3 5 3 5 3 
6 4 5 3 5 3 5 4 6 3 5 3 5 3 5 3 
6 2 5 3 5 2 5 3 6 2 5 2 5 2 5 2 
6 1 5 2 5 0 5 1 6 0 5 -1 5 -1 6 -2 
5 -2 5 -3 5 -3 6 -3 5 -4 5 -3 5 -4 6 -2 
5 -2 5 0 5 0 6 3 5 5 5 7 5 8 6 10 
5 12 5 12 5 13 6 14 5 14 5 13 5 13 6 13 
5 11 5 11 6 10 5 9 5 8 5 7 6 6 5 5 
5 4 5 2 6 2 5 0 5 0 5 -2 6 -3 5 -3 
5 -4 5 -5 6 -5 5 -6 5 -6 5 -5 6 -6 5 -4 
5 -3 6 -2 5 0 5 2 5 4 6 6 5 7 5 9 
5 10 6 12 5 11 5 12 5 12 6 11 5 12 5 10 
5 10 6 9 5 8 5 8 5 6 6 5 5 5 5 3 
5 2 6 1 5 1 5 -2 6 -2 5 -3 5 -5 5 -5 
6 -7 5 -9 5 -10 5 -11 6 -13 5 -15 5 -16 5 -19 
6 -21 5 -24 5 -26 5 -30 6 -35 5 -39 5 -46 5 -53 
6 -65 5 -82 5 -107 6 -149 5 -177 5 66 5 173 6 125 
5 91 5 70 5 56 6 46 5 39 5 33 5 29 6 24 
5 22 5 19 5 17 6 14 5 13 5 11 5 9 6 8 
5 6 5 5 5 5 2990 3013 300 MP stroke
6 3 5 2 5 1 6 0 5 -1 5 -2 5 -2 6 -3 
5 -4 5 -5 5 -5 6 -6 5 -6 5 -7 5 -7 6 -8 
5 -8 5 -8 5 -8 6 -9 5 -8 5 -9 5 -8 6 -8 
5 -7 5 -7 6 -7 5 -6 5 -5 5 -4 6 -3 5 -3 
5 -2 5 -1 6 0 5 0 5 1 5 2 6 2 5 3 
5 3 5 3 6 4 5 4 5 4 5 4 6 4 5 5 
5 4 5 4 6 5 5 4 5 4 6 5 5 4 5 4 
5 4 6 3 5 4 5 3 5 4 6 3 5 2 5 3 
5 2 6 2 5 2 5 1 5 2 6 0 5 1 5 0 
5 -1 6 -1 5 -1 5 -2 6 -2 5 -2 5 -3 5 -4 
6 -4 5 -5 5 -5 5 -6 6 -6 5 -7 5 -8 5 -8 
6 -9 5 -10 5 -10 5 -12 6 -12 5 -13 5 -13 5 -15 
6 -15 5 -17 5 -18 5 -18 6 -19 5 -21 5 -21 6 -22 
5 -22 5 -22 5 -21 6 -20 5 -16 5 -13 5 -8 6 -3 
5 3 5 8 5 12 6 15 5 17 5 18 5 18 6 18 
5 18 5 16 5 16 6 15 5 14 5 13 6 12 5 11 
5 11 5 9 6 9 5 8 5 7 5 7 6 6 5 5 
5 5 5 4 6 3 5 3 5 3 5 2 6 2 5 1 
5 1 5 1 6 0 5 0 5 -1 5 0 6 -1 5 -2 
5 -1 6 -2 5 -2 5 -2 5 -2 6 -2 5 -3 5 -2 
5 -2 6 -3 5 -2 5 -3 5 -2 6 -2 5 -3 5 -2 
5 -2 6 -1 5 -2 5 -1 5 -1 6 -1 5 -1 5 -1 
6 0 5 0 5 0 5 0 6 1 5 0 5 1 5 1 
6 1 5 2 5 1 5 1 6 2 5 1 5 2 5 2 
6 1 5 2 5 2 5 1 6 2 5 2 5 1 5 2 
6 2 5 1 5 2 6 1 5 1 5 2 5 1 6 1 
5 1 5 1 5 1 6 1 5 1 5 1 5 0 6 1 
5 1 5 0 5 1 6 0 5 1 5 0 5 0 6 1 
5 0 5 0 6 0 5 0 5 0 5 0 6 0 5 0 
5 0 5 0 6 0 5 0 5 0 5 0 6 -1 5 0 
5 0 5 0 6 -1 5 0 5 -1 5 0 6 0 5 -1 
5 0 5 -1 6 0 5 0 5 -1 6 0 5 -1 5 0 
5 -1 6 0 5 -1 5 0 5 -1 6 0 5 0 5 -1 
5 0 6 -1 5 0 5 0 5 -1 6 0 5 0 5 0 
5 0 6 0 5 -1 5 0 6 0 5 1 5 0 5 0 
6 0 5 0 5 1 5 0 6 1 5 0 5 1 5 1 
6 1 5 1 5 0 5 1 6 2 5 1 5 1 5 1 
6 2 5 1 5 2 1417 3184 300 MP stroke
5 1 1412 3183 2 MP stroke
3 179 5 213 5 127 6 88 5 66 5 51 5 41 6 33 
5 26 5 20 5 15 6 11 5 7 5 3 5 0 6 -4 
5 -6 5 -9 5 -11 6 -12 5 -11 5 -10 5 -5 6 1 
5 7 5 14 6 19 5 23 5 24 5 25 6 23 5 22 
5 19 5 17 6 14 5 12 5 9 5 6 6 3 5 0 
5 -3 5 -6 6 -9 5 -13 5 -17 5 -22 6 -26 5 -33 
5 -40 5 -50 6 -62 5 -80 5 -111 6 -171 5 -313 5 121 
5 248 6 139 5 92 5 67 5 49 6 38 5 28 5 20 
5 13 6 6 5 0 5 -6 5 -14 6 -20 5 -28 5 -36 
5 -39 6 -36 5 -13 5 27 6 60 5 71 5 70 5 63 
6 58 5 51 5 45 5 41 6 36 5 33 5 29 5 26 
6 24 5 21 5 19 5 17 6 14 5 13 5 11 5 9 
6 7 5 6 5 4 5 2 4568 2568 101 MP stroke
4 139 5 138 6 101 5 80 5 66 5 56 6 49 5 43 
5 39 6 36 5 32 5 30 5 27 6 26 5 23 5 23 
5 20 6 19 5 19 5 17 5 15 6 15 5 14 5 13 
5 13 6 11 5 11 5 10 5 9 6 8 5 8 5 7 
5 6 6 6 5 5 5 5 6 3 5 4 5 2 5 2 
6 1 5 1 5 0 5 0 6 -2 5 -2 5 -2 5 -3 
6 -4 5 -4 5 -6 5 -5 6 -7 5 -7 5 -8 5 -9 
6 -9 5 -10 5 -11 6 -12 5 -13 5 -13 5 -14 6 -15 
5 -16 5 -16 5 -17 6 -17 5 -18 5 -18 5 -18 6 -18 
5 -18 5 -17 5 -16 6 -15 5 -12 5 -11 5 -9 6 -7 
5 -4 5 -3 5 -1 6 0 5 2 5 2 6 3 5 4 
5 5 5 5 6 7 5 7 5 9 5 11 6 12 5 14 
5 15 5 16 6 18 5 19 5 19 5 20 6 20 5 20 
5 20 5 20 6 19 5 18 5 18 6 17 5 16 5 16 
5 14 6 14 5 13 5 12 5 12 6 10 5 9 5 9 
5 8 6 7 5 6 5 5 5 4 6 3 5 3 5 1 
5 1 6 -1 5 -1 5 -3 5 -3 6 -4 5 -6 5 -6 
6 -8 5 -9 5 -11 5 -11 6 -13 5 -15 5 -17 5 -18 
6 -20 5 -23 5 -26 5 -28 6 -32 5 -35 5 -41 5 -47 
6 -55 5 -67 5 -82 5 -108 6 -154 5 -232 5 13 6 216 
5 139 5 94 5 70 6 55 5 43 5 35 5 29 6 24 
5 19 5 15 5 13 6 9 5 7 5 4 5 2 6 0 
5 -3 5 -4 5 -7 6 -8 5 -10 5 -12 5 -13 6 -14 
5 -15 5 -15 6 -14 5 -12 5 -10 5 -5 6 -1 5 4 
5 8 5 12 6 15 5 16 5 18 5 17 6 16 5 16 
5 14 5 13 6 12 5 10 5 9 5 7 6 6 5 4 
5 3 6 1 5 0 5 -1 5 -3 6 -4 5 -6 5 -7 
5 -9 6 -10 5 -11 5 -13 5 -14 6 -15 5 -17 5 -18 
5 -19 6 -20 5 -21 5 -22 5 -22 6 -22 5 -21 5 -19 
5 -17 6 -14 5 -11 5 -8 6 -4 5 -1 5 2 5 3 
6 4 5 5 5 5 5 4 6 5 5 3 5 3 5 2 
6 1 5 1 5 0 5 0 6 -1 5 -1 5 -1 5 0 
6 -1 5 0 5 0 6 2 5 2 5 3 5 4 6 5 
5 7 5 8 5 8 6 10 5 10 5 11 5 12 6 11 
5 12 5 12 5 11 6 11 5 10 5 10 5 9 6 7 
5 7 5 6 5 4 6 3 5 1 5 1 6 -2 5 -3 
5 -4 5 -6 6 -7 5 -9 5 -10 5 -10 6 -12 5 -10 
5 -10 5 -8 6 -4 7113 3244 300 MP stroke
5 0 5 5 5 10 6 14 5 17 5 20 5 21 6 20 
5 21 5 19 6 18 5 16 5 15 5 12 6 11 5 10 
5 7 5 5 6 4 5 1 5 0 5 -2 6 -4 5 -6 
5 -7 5 -9 6 -10 5 -11 5 -11 5 -10 6 -10 5 -7 
5 -3 5 0 6 5 5 9 5 13 6 15 5 17 5 17 
5 17 6 16 5 16 5 13 5 12 6 9 5 8 5 6 
5 3 6 0 5 -1 5 -5 5 -7 6 -11 5 -14 5 -18 
5 -22 6 -28 5 -34 5 -43 6 -54 5 -70 5 -95 5 -144 
6 -278 5 -168 5 391 5 178 6 114 5 84 5 66 5 53 
6 44 5 37 5 32 5 27 6 22 5 20 5 16 5 13 
6 10 5 8 5 5 5 2 6 1 5 -3 5 -4 6 -7 
5 -10 5 -12 5 -16 6 -18 5 -22 5 -26 5 -30 6 -36 
5 -41 5 -49 5 -57 6 -67 5 -76 5 -73 5 -35 6 29 
5 66 5 70 5 61 6 51 5 43 5 35 6 29 5 24 
5 19 5 16 6 12 5 8 5 6 5 2 6 0 5 -3 
5 -5 5 -8 6 -10 5 -13 5 -16 5 -18 6 -20 5 -22 
5 -25 5 -26 6 -28 5 -28 5 -27 5 -24 6 -20 5 -13 
5 -7 6 0 5 4 5 7 5 8 6 7 5 5 5 3 
5 0 6 -3 5 -8 5 -11 5 -15 6 -20 5 -25 5 -31 
5 -35 6 -38 5 -39 5 -31 5 -13 6 14 5 36 5 46 
6 47 5 45 5 40 5 36 6 31 5 26 5 23 5 18 
6 16 5 12 5 9 5 7 6 4 5 0 5 -1 5 -5 
6 -7 5 -11 5 -13 5 -17 6 -20 5 -25 5 -29 5 -35 
6 -41 5 -50 5 -61 6 -76 5 -98 5 -125 5 -112 6 48 
5 129 5 108 5 83 6 65 5 52 5 43 5 36 6 30 
5 24 5 21 5 16 6 14 5 10 5 8 5 4 6 3 
5 -1 5 -3 6 -6 5 -9 5 -11 5 -15 6 -18 5 -22 
5 -27 5 -31 6 -38 5 -46 5 -55 5 -68 6 -87 5 -112 
5 -129 5 -35 6 109 5 116 5 90 5 69 6 53 5 42 
5 33 5 25 6 20 5 13 5 8 6 2 5 -3 5 -8 
5 -15 6 -22 5 -29 5 -40 5 -53 6 -70 5 -92 5 -108 
5 -35 6 104 5 125 5 103 5 82 6 68 5 56 5 48 
5 41 6 36 5 30 5 27 6 23 5 19 5 16 5 14 
6 11 5 8 5 6 5 3 6 1 5 -1 5 -4 5 -7 
6 -9 5 -12 5 -15 5 -18 6 -21 5 -25 5 -30 5 -33 
6 -39 5 -44 5 -49 5 -54 6 -52 5 -39 5 -13 6 19 
5 40 5 45 5 43 6 39 5 32 5 28 5 22 6 18 
5 13 5 9 5 6 5541 3000 300 MP stroke
6 1 5 -1 5 -6 5 -9 6 -13 5 -17 5 -21 5 -27 
6 -31 5 -38 5 -44 6 -51 5 -56 5 -56 5 -37 6 2 
5 39 5 56 5 57 6 53 5 45 5 39 5 34 6 29 
5 24 5 21 5 17 6 15 5 12 5 10 5 7 6 5 
5 4 5 2 5 0 6 -1 5 -3 5 -3 6 -5 5 -7 
5 -7 5 -8 6 -9 5 -9 5 -11 5 -10 6 -12 5 -11 
5 -12 5 -12 6 -11 5 -11 5 -10 5 -9 6 -8 5 -7 
5 -5 5 -4 6 -2 5 0 5 0 6 1 5 2 5 2 
5 1 6 1 5 0 5 -1 5 -3 6 -5 5 -7 5 -9 
5 -12 6 -15 5 -19 5 -23 5 -28 6 -34 5 -41 5 -52 
5 -65 6 -85 5 -122 5 -198 3 -214 5096 4048 86 MP stroke
1 1 6 2 5 2 5 1 6 2 5 2 5 2 5 1 
6 2 5 2 5 1 5 2 6 2 5 1 5 2 5 1 
6 1 5 2 5 1 5 1 6 1 5 2 5 1 5 1 
6 1 5 1 5 1 6 0 5 1 5 1 5 1 6 0 
5 1 5 0 5 1 6 0 5 0 5 0 5 0 6 0 
5 0 5 0 5 0 6 -1 5 0 5 -1 5 0 6 -1 
5 -1 5 -1 5 -1 6 -1 5 -1 5 -1 6 -2 5 -1 
5 -2 5 -2 6 -2 5 -2 5 -2 5 -2 6 -3 5 -2 
5 -3 5 -3 6 -3 5 -3 5 -3 5 -4 6 -4 5 -3 
5 -4 5 -5 6 -4 5 -4 5 -5 6 -5 5 -5 5 -5 
5 -6 6 -5 5 -6 5 -6 5 -7 6 -6 5 -7 5 -7 
5 -7 6 -8 5 -8 5 -8 5 -8 6 -8 5 -9 5 -9 
5 -9 6 -9 5 -10 5 -10 5 -10 6 -10 5 -10 5 -11 
6 -11 5 -10 5 -11 5 -11 6 -10 5 -11 5 -10 5 -10 
6 -9 5 -9 5 -8 5 -8 6 -6 5 -6 5 -5 5 -4 
6 -3 5 -2 5 -1 5 0 6 1 5 1 5 2 6 3 
5 3 5 3 5 4 6 4 5 4 5 4 5 3 6 4 
5 4 5 3 5 3 6 2 5 3 5 2 5 2 6 1 
5 1 5 1 5 0 6 0 5 -1 5 -1 5 -1 6 -2 
5 -2 5 -3 6 -3 5 -3 5 -4 5 -4 6 -5 5 -5 
5 -5 5 -5 6 -6 5 -6 5 -6 5 -7 6 -6 5 -6 
5 -7 5 -6 6 -6 5 -6 5 -6 5 -5 6 -5 5 -4 
5 -3 6 -3 5 -3 5 -1 5 -2 6 0 5 0 5 0 
5 1 6 1 5 1 5 2 5 1 6 1 5 1 5 0 
5 0 6 -1 5 -1 5 -2 5 -3 6 -3 5 -5 5 -6 
5 -7 6 -9 5 -10 5 -12 6 -15 5 -16 5 -20 5 -23 
6 -26 5 -32 5 -38 5 -46 6 -57 5 -74 5 -102 5 -148 
1 -38 8696 4048 218 MP stroke
gr

13.2 w
c8
0 sg
1023 3894 mt  -90 rotate
(10log10\(||z) s
90 rotate
%%IncludeResource: font Helvetica
/Helvetica /ISOLatin1Encoding 120 FMSR

 945 3128 mt  -90 rotate
(H) s
90 rotate
%%IncludeResource: font Helvetica
/Helvetica /ISOLatin1Encoding 156 FMSR

1023 3042 mt  -90 rotate
(a||) s
90 rotate
%%IncludeResource: font Helvetica
/Helvetica /ISOLatin1Encoding 120 FMSR

 945 2875 mt  -90 rotate
(2) s
90 rotate
%%IncludeResource: font Helvetica
/Helvetica /ISOLatin1Encoding 156 FMSR

1023 2809 mt  -90 rotate
(\) ) s
90 rotate
%%IncludeResource: font Helvetica
/Helvetica /ISOLatin1Encoding 120 FMSR

1395 4090 mt 
( ) s
9812 2610 mt 
( ) s
6 w
1 sg
0 1479 8416 0 0 -1479 1412 6101 4 MP
PP
-8416 0 0 1479 8416 0 0 -1479 1412 6101 5 MP stroke
4 w
DO
SO
6 w
0 sg
1412 6101 mt 9828 6101 L
1412 4622 mt 9828 4622 L
1412 6101 mt 1412 4622 L
9828 6101 mt 9828 4622 L
1412 6101 mt 9828 6101 L
1412 6101 mt 1412 4622 L
1412 6101 mt 1412 6016 L
1412 4622 mt 1412 4706 L
%%IncludeResource: font Helvetica
/Helvetica /ISOLatin1Encoding 156 FMSR

1235 6280 mt 
(-80) s
2464 6101 mt 2464 6016 L
2464 4622 mt 2464 4706 L
2287 6280 mt 
(-60) s
3516 6101 mt 3516 6016 L
3516 4622 mt 3516 4706 L
3339 6280 mt 
(-40) s
4568 6101 mt 4568 6016 L
4568 4622 mt 4568 4706 L
4391 6280 mt 
(-20) s
5620 6101 mt 5620 6016 L
5620 4622 mt 5620 4706 L
5577 6280 mt 
(0) s
6672 6101 mt 6672 6016 L
6672 4622 mt 6672 4706 L
6586 6280 mt 
(20) s
7724 6101 mt 7724 6016 L
7724 4622 mt 7724 4706 L
7638 6280 mt 
(40) s
8776 6101 mt 8776 6016 L
8776 4622 mt 8776 4706 L
8690 6280 mt 
(60) s
9828 6101 mt 9828 6016 L
9828 4622 mt 9828 4706 L
9742 6280 mt 
(80) s
1412 6101 mt 1496 6101 L
9828 6101 mt 9743 6101 L
1113 6159 mt 
(-40) s
1412 5731 mt 1496 5731 L
9828 5731 mt 9743 5731 L
1113 5789 mt 
(-30) s
1412 5361 mt 1496 5361 L
9828 5361 mt 9743 5361 L
1113 5419 mt 
(-20) s
1412 4991 mt 1496 4991 L
9828 4991 mt 9743 4991 L
1113 5049 mt 
(-10) s
1412 4622 mt 1496 4622 L
9828 4622 mt 9743 4622 L
1291 4680 mt 
(0) s
1412 6101 mt 9828 6101 L
1412 4622 mt 9828 4622 L
1412 6101 mt 1412 4622 L
9828 6101 mt 9828 4622 L
gs 1412 4622 8417 1480 rc
DD
13.2 w
/c9 { 1.000000 0.000000 1.000000 sr} bdef
c9
3 238 5 202 5 122 6 87 5 66 5 52 5 43 6 35 
5 29 5 24 5 19 6 16 5 11 5 9 5 5 6 3 
5 -1 5 -4 5 -7 6 -10 5 -14 5 -18 5 -22 6 -27 
5 -33 5 -40 6 -49 5 -61 5 -76 5 -94 6 -98 5 -24 
5 86 5 107 6 90 5 75 5 61 5 51 6 44 5 37 
5 33 5 29 6 25 5 22 5 20 5 17 6 15 5 14 
5 11 5 10 6 9 5 7 5 6 6 5 5 4 5 2 
5 2 6 1 5 0 5 -1 5 -2 6 -3 5 -3 5 -4 
5 -5 6 -5 5 -7 5 -7 5 -8 6 -8 5 -10 5 -10 
5 -11 6 -12 5 -13 5 -15 6 -15 5 -16 5 -18 5 -19 
6 -21 5 -21 5 -23 5 -24 6 -25 5 -25 5 -25 5 -22 
6 -18 5 -12 5 -5 5 3 6 10 5 16 5 19 5 22 
6 21 5 22 5 20 5 19 6 18 5 16 5 15 6 12 
5 12 5 10 5 8 6 7 5 6 5 4 5 3 6 2 
5 1 5 0 5 -2 6 -2 5 -3 5 -4 5 -5 6 -6 
5 -7 5 -7 5 -7 6 -8 5 -8 5 -8 6 -9 5 -7 
5 -7 5 -7 6 -6 5 -5 5 -4 5 -3 6 -2 5 -1 
5 0 5 0 6 1 5 1 5 0 5 1 6 1 5 0 
5 -1 5 -1 6 -2 5 -3 5 -4 5 -4 6 -6 5 -7 
5 -8 6 -9 5 -10 5 -11 5 -11 6 -13 5 -12 5 -12 
5 -11 6 -10 5 -7 5 -4 5 0 6 5 5 8 5 12 
5 16 6 17 5 19 5 20 5 19 6 20 5 19 5 19 
6 18 5 17 5 16 5 15 6 14 5 13 5 12 5 12 
6 10 5 10 5 9 5 8 6 8 5 7 5 6 5 5 
6 5 5 4 5 4 5 3 6 2 5 2 5 2 5 1 
6 0 5 0 5 -1 6 -1 5 -1 5 -2 5 -2 6 -3 
5 -3 5 -4 5 -4 6 -4 5 -5 5 -5 5 -5 6 -6 
5 -6 5 -6 5 -7 6 -7 5 -7 5 -8 5 -8 6 -7 
5 -9 5 -8 6 -8 5 -8 5 -9 5 -8 6 -8 5 -8 
5 -8 5 -7 6 -7 5 -6 5 -6 5 -5 6 -5 5 -3 
5 -3 5 -2 6 -1 5 -1 5 1 5 1 6 1 5 3 
5 3 5 3 6 4 5 3 5 5 6 4 5 4 5 4 
5 4 6 4 5 4 5 4 5 3 6 3 5 3 5 3 
5 2 6 2 5 2 5 2 5 1 6 0 5 1 5 0 
5 -1 6 0 5 -1 5 -2 6 -2 5 -2 5 -3 5 -3 
6 -3 5 -4 5 -4 5 -4 6 -5 5 -5 5 -6 5 -6 
6 -6 5 -7 5 -7 5 -7 6 -8 5 -9 5 -8 5 -9 
6 -10 5 -9 5 -10 2469 5255 300 MP stroke
5 -11 6 -11 5 -11 5 -12 6 -12 5 -12 5 -13 5 -13 
6 -14 5 -14 5 -14 5 -15 6 -15 5 -15 5 -16 5 -16 
6 -17 5 -17 5 -18 5 -18 6 -19 5 -20 5 -20 5 -21 
6 -21 5 -23 5 -24 6 -25 5 -27 5 -28 5 -30 6 -31 
5 -33 5 -35 5 -35 6 -33 5 -29 5 -19 5 -6 6 11 
5 24 5 33 5 37 6 37 5 37 5 35 5 33 6 31 
5 29 5 28 5 25 6 24 5 23 5 21 6 20 5 19 
5 18 5 17 6 17 5 15 5 15 5 13 6 14 5 12 
5 12 5 12 6 10 5 11 5 10 5 9 6 9 5 8 
5 8 5 8 6 7 5 7 5 7 6 6 5 6 5 6 
5 5 6 5 5 5 5 4 5 5 6 4 5 4 5 3 
5 4 6 3 5 3 5 3 5 2 6 3 5 2 5 2 
5 2 6 2 5 2 5 2 5 2 6 1 5 2 5 1 
6 1 5 2 5 1 5 1 6 1 5 1 5 2 5 1 
6 1 5 1 5 1 5 1 6 1 5 1 5 2 5 1 
6 1 5 1 5 1 5 2 6 1 5 1 5 1 6 2 
5 1 5 2 5 1 6 1 5 2 5 1 5 2 6 1 
5 2 5 1 5 1 6 2 5 1 5 2 5 1 6 1 
5 2 5 1 5 1 6 1 5 2 5 1 5 1 6 1 
5 1 5 1 6 1 5 0 5 1 5 1 6 1 5 0 
5 1 5 0 6 1 5 0 5 0 5 0 6 0 5 1 
5 0 5 -1 6 0 5 0 5 0 5 -1 6 0 5 -1 
5 0 6 -1 5 0 5 -1 5 -1 6 -1 5 -1 5 -1 
5 -1 6 -1 5 -2 5 -1 5 -1 6 -2 5 -1 5 -2 
5 -2 6 -1 5 -2 5 -2 5 -2 6 -2 5 -2 5 -2 
5 -2 1412 5190 202 MP stroke
5 -1 5 -3 6 -4 5 -7 5 -8 5 -10 6 -11 5 -14 
5 -16 5 -17 6 -20 5 -23 5 -25 5 -28 6 -32 5 -35 
5 -40 5 -45 6 -51 5 -59 5 -66 5 -76 6 -78 5 -63 
5 -14 6 38 5 58 5 56 5 48 6 40 5 32 5 26 
5 20 6 16 5 12 5 8 5 4 6 2 5 -1 5 -3 
5 -6 6 -8 5 -9 5 -12 5 -14 6 -15 5 -16 5 -18 
5 -18 6 -19 5 -20 5 -19 6 -19 5 -19 5 -17 5 -15 
6 -14 5 -12 5 -9 5 -8 6 -5 5 -4 5 -1 5 1 
6 3 5 5 5 7 5 10 6 10 5 12 5 13 5 13 
6 13 5 13 5 12 6 11 5 9 5 8 5 7 6 5 
5 2 5 1 5 -1 6 -4 5 -7 5 -9 5 -12 6 -16 
5 -19 5 -24 5 -28 6 -35 5 -43 5 -53 5 -68 6 -90 
5 -130 5 -226 3 -183 4044 6102 100 MP stroke
1 62 5 213 5 132 6 95 5 75 5 60 5 51 6 42 
5 35 5 31 5 25 6 21 5 17 5 14 5 10 6 7 
5 4 5 0 5 -2 6 -6 5 -8 5 -12 5 -16 6 -18 
5 -23 5 -27 6 -31 5 -36 5 -41 5 -47 6 -53 5 -57 
5 -60 5 -55 6 -40 5 -14 5 7 5 20 6 20 5 15 
5 9 5 4 6 0 5 1 5 8 5 22 6 38 5 49 
5 56 5 55 6 53 5 50 5 44 6 41 5 35 5 32 
5 28 6 24 5 21 5 17 5 13 6 10 5 7 5 3 
5 0 6 -4 5 -8 5 -13 5 -17 6 -22 5 -27 5 -32 
5 -33 6 -30 5 -16 5 10 6 37 5 52 5 58 5 56 
6 52 5 48 5 42 5 39 6 35 5 31 5 28 5 26 
6 23 5 20 5 18 5 16 6 14 5 12 5 10 5 8 
6 7 5 5 5 4 5 1 4568 4622 101 MP stroke
4 56 5 116 6 89 5 64 5 47 5 34 6 26 5 19 
5 14 5 12 6 13 5 14 5 19 5 24 6 29 5 33 
5 35 5 36 6 36 5 35 5 33 6 31 5 29 5 26 
5 24 6 21 5 19 5 17 5 14 6 13 5 10 5 8 
5 5 6 4 5 1 5 -1 5 -4 6 -6 5 -9 5 -11 
5 -15 6 -18 5 -22 5 -26 6 -31 5 -37 5 -41 5 -48 
6 -51 5 -46 5 -26 5 10 6 43 5 56 5 58 5 54 
6 48 5 43 5 38 5 33 6 30 5 26 5 24 5 21 
6 19 5 16 5 15 5 13 6 11 5 10 5 8 6 7 
5 6 5 4 5 3 6 2 5 1 5 -1 5 -2 6 -3 
5 -4 5 -6 5 -7 6 -8 5 -9 5 -11 5 -13 6 -14 
5 -15 5 -17 5 -19 6 -21 5 -23 5 -24 6 -27 5 -29 
5 -31 5 -33 6 -35 5 -37 5 -39 5 -38 6 -39 5 -36 
5 -34 5 -29 6 -24 5 -21 5 -20 5 -20 6 -23 5 -29 
5 -39 5 -54 6 -78 5 -120 4 -181 5100 6102 118 MP stroke
1 2 6 10 5 10 5 9 6 9 5 9 5 9 5 9 
6 8 5 8 5 8 5 7 6 7 5 8 5 6 5 7 
6 7 5 6 5 6 5 6 6 5 5 6 5 5 5 5 
6 4 5 5 5 4 6 4 5 4 5 4 5 4 6 3 
5 3 5 3 5 3 6 2 5 2 5 2 5 2 6 2 
5 1 5 1 5 1 6 1 5 0 5 0 5 0 6 -1 
5 0 5 -1 5 -1 6 -2 5 -2 5 -2 6 -2 5 -3 
5 -3 5 -4 6 -4 5 -4 5 -5 5 -5 6 -5 5 -6 
5 -7 5 -7 6 -7 5 -8 5 -8 5 -10 6 -9 5 -10 
5 -11 5 -11 6 -12 5 -13 5 -12 6 -14 5 -13 5 -14 
5 -13 6 -13 5 -11 5 -10 5 -8 6 -5 5 -2 5 2 
5 6 6 9 5 12 5 15 5 17 6 18 5 19 5 19 
5 20 6 20 5 19 5 19 5 18 6 18 5 17 5 16 
6 16 5 15 5 15 5 14 6 13 5 13 5 13 5 11 
6 12 5 11 5 10 5 10 6 9 5 9 5 8 5 8 
6 8 5 7 5 7 5 6 6 6 5 5 5 5 6 5 
5 4 5 4 5 3 6 4 5 2 5 3 5 1 6 2 
5 1 5 1 5 0 6 0 5 -1 5 -1 5 -2 6 -2 
5 -2 5 -3 5 -3 6 -4 5 -5 5 -5 5 -5 6 -6 
5 -7 5 -7 6 -8 5 -8 5 -9 5 -10 6 -10 5 -10 
5 -12 5 -12 6 -12 5 -12 5 -13 5 -13 6 -13 5 -12 
5 -12 5 -10 6 -9 5 -6 5 -4 5 -1 6 2 5 5 
5 7 6 10 5 11 5 13 5 14 6 15 5 15 5 14 
5 15 6 14 5 14 5 13 5 12 6 12 5 11 5 11 
5 9 6 9 5 9 5 7 5 7 6 6 5 6 5 5 
5 4 6 3 5 3 5 2 6 2 5 0 5 0 5 0 
6 -1 5 -2 5 -3 5 -4 6 -4 5 -5 5 -5 5 -7 
6 -7 5 -8 5 -9 5 -10 6 -11 5 -11 5 -13 5 -13 
6 -14 5 -15 5 -16 6 -17 5 -18 5 -18 5 -18 6 -18 
5 -17 5 -16 5 -15 6 -12 5 -9 5 -5 5 -2 6 3 
5 5 5 9 5 10 6 11 5 12 5 13 5 12 6 12 
5 10 5 11 5 9 6 8 5 7 5 7 6 5 5 4 
5 4 5 3 6 2 5 1 5 1 5 0 6 0 5 0 
5 0 5 0 6 0 5 1 5 2 5 2 6 4 5 4 
5 6 5 7 6 8 5 8 5 10 6 10 5 11 5 11 
5 12 6 11 5 11 5 11 5 11 6 10 5 9 5 9 
5 9 6 7 5 7 5 7 5 5 6 5 5 4 5 3 
5 2 6 2 5 0 8260 4930 300 MP stroke
5 0 5 -1 6 -2 5 -3 5 -3 6 -5 5 -6 5 -6 
5 -8 6 -9 5 -10 5 -11 5 -12 6 -14 5 -14 5 -16 
5 -18 6 -19 5 -20 5 -22 5 -24 6 -25 5 -26 5 -28 
5 -28 6 -28 5 -26 5 -24 6 -18 5 -12 5 -3 5 5 
6 12 5 17 5 19 5 21 6 21 5 21 5 20 5 18 
6 18 5 16 5 15 5 14 6 14 5 12 5 12 5 11 
6 10 5 10 5 9 5 8 6 8 5 8 5 7 6 7 
5 5 5 6 5 5 6 4 5 3 5 2 5 2 6 1 
5 0 5 -1 5 -3 6 -3 5 -5 5 -6 5 -8 6 -9 
5 -12 5 -13 5 -15 6 -19 5 -21 5 -24 6 -28 5 -33 
5 -39 5 -45 6 -54 5 -64 5 -73 5 -74 6 -41 5 31 
5 74 5 80 6 70 5 60 5 51 5 44 6 38 5 33 
5 29 5 25 6 22 5 19 5 17 5 14 6 12 5 10 
5 8 6 7 5 4 5 3 5 1 6 -1 5 -2 5 -4 
5 -6 6 -7 5 -9 5 -11 5 -13 6 -14 5 -17 5 -19 
5 -21 6 -23 5 -26 5 -28 5 -32 6 -34 5 -37 5 -40 
6 -42 5 -42 5 -42 5 -36 6 -28 5 -16 5 -4 5 5 
6 9 5 9 5 8 5 3 6 -2 5 -8 5 -16 5 -24 
6 -36 5 -50 5 -71 5 -104 6 -154 5 -103 5 176 5 169 
6 122 5 93 5 74 6 62 5 53 5 45 5 40 6 34 
5 31 5 26 5 24 6 20 5 18 5 15 5 13 6 10 
5 9 5 6 5 4 6 3 5 0 5 -1 5 -4 6 -5 
5 -8 5 -10 6 -11 5 -14 5 -16 5 -18 6 -20 5 -22 
5 -24 5 -26 6 -27 5 -26 5 -25 5 -21 6 -16 5 -7 
5 0 5 7 6 13 5 15 5 16 5 16 6 14 5 12 
5 10 5 8 6 5 5 2 5 0 6 -2 5 -5 5 -8 
5 -10 6 -12 5 -13 5 -15 5 -16 6 -15 5 -14 5 -11 
5 -7 6 -2 5 4 5 8 5 11 6 14 5 14 5 14 
5 12 6 11 5 8 5 6 6 3 5 -1 5 -4 5 -8 
6 -12 5 -17 5 -24 5 -30 6 -38 5 -51 5 -67 5 -92 
6 -139 5 -221 5 5 5 237 6 154 5 107 5 82 5 66 
6 54 5 46 5 39 5 33 6 29 5 25 5 21 6 18 
5 16 5 13 5 10 6 8 5 5 5 3 5 1 6 -1 
5 -4 5 -6 5 -8 6 -11 5 -14 5 -16 5 -20 6 -23 
5 -26 5 -31 5 -36 6 -42 5 -48 5 -53 6 -59 5 -55 
5 -35 5 2 6 38 5 54 5 54 5 49 6 43 5 38 
5 31 5 27 6 23 5 19 5 16 5 12 6 10 5 8 
5 5 5 2 6 0 6687 4986 300 MP stroke
5 -2 5 -4 5 -7 6 -9 5 -11 5 -13 6 -17 5 -18 
5 -22 5 -26 6 -29 5 -33 5 -39 5 -45 6 -53 5 -64 
5 -79 5 -99 6 -125 5 -122 5 28 5 126 6 108 5 82 
5 65 5 52 6 42 5 36 5 29 6 26 5 21 5 19 
5 16 6 14 5 11 5 11 5 9 6 7 5 7 5 6 
5 5 6 4 5 4 5 3 5 4 6 2 5 3 5 2 
5 2 6 2 5 2 5 1 5 1 6 0 5 1 5 -1 
6 0 5 -2 5 -1 5 -3 6 -3 5 -4 5 -4 5 -5 
6 -6 5 -6 5 -7 5 -8 6 -9 5 -9 5 -10 5 -11 
6 -11 5 -12 5 -12 5 -13 6 -13 5 -14 5 -13 6 -14 
5 -13 5 -13 5 -13 6 -12 5 -11 5 -11 5 -9 6 -8 
5 -6 5 -5 5 -3 6 -1 5 0 5 2 5 3 6 5 
5 6 5 8 5 8 6 9 5 10 5 11 5 11 6 11 
5 12 5 11 6 12 5 11 5 12 5 11 6 11 5 11 
5 10 5 11 6 9 5 10 5 9 5 8 6 8 5 8 
5 7 5 6 6 6 5 5 5 4 5 4 6 3 5 2 
5 1 6 1 5 0 5 -1 5 -2 6 -2 5 -3 5 -4 
5 -5 6 -5 5 -6 5 -7 5 -7 6 -7 5 -8 5 -8 
5 -7 6 -8 5 -7 5 -6 5 -5 6 -5 5 -4 5 -3 
5 -2 6 -1 5 -1 5 0 6 0 5 0 5 0 5 -1 
6 -2 5 -2 5 -4 5 -4 6 -6 5 -8 5 -9 5 -11 
6 -12 5 -15 5 -18 5 -20 6 -22 5 -26 5 -30 5 -34 
6 -39 5 -44 5 -52 6 -62 5 -73 5 -91 5 -115 6 -141 
4 -86 5715 6102 186 MP stroke
gr

13.2 w
c9
DD
0 sg
5133 6493 mt 
(DOA Angle [) s
%%IncludeResource: font Helvetica
/Helvetica /ISOLatin1Encoding 120 FMSR

5996 6415 mt 
(o) s
%%IncludeResource: font Helvetica
/Helvetica /ISOLatin1Encoding 156 FMSR

6062 6493 mt 
(]) s
SO
6 w
1 sg
0 671 1929 0 0 -671 7813 1330 4 MP
PP
-1929 0 0 671 1929 0 0 -671 7813 1330 5 MP stroke
4 w
DO
SO
6 w
0 sg
7813 1330 mt 9742 1330 L
7813  659 mt 9742  659 L
7813 1330 mt 7813  659 L
9742 1330 mt 9742  659 L
7813 1330 mt 9742 1330 L
7813 1330 mt 7813  659 L
7813 1330 mt 9742 1330 L
7813  659 mt 9742  659 L
7813 1330 mt 7813  659 L
9742 1330 mt 9742  659 L
8281  840 mt 
(Convex Method) s
gs 7813 659 1930 672 rc
13.2 w
c8
360 0 7884 784 2 MP stroke
gr

13.2 w
c8
0 sg
8281 1050 mt 
(Submodular Method) s
gs 7813 659 1930 672 rc
DA
360 0 7884 994 2 MP stroke
SO
gr

8281 1260 mt 
(Output SNR Greedy) s
gs 7813 659 1930 672 rc
DD
c9
360 0 7884 1204 2 MP stroke
SO
6 w
gr

6 w
c9

end %%Color Dict

eplot
%%EndObject

epage
end

showpage

%%Trailer
%%EOF
