%!PS-Adobe-3.0 EPSF-3.0
%%Creator: MATLAB, The MathWorks, Inc. Version 8.1.0.604 (R2013a). Operating System: Darwin 15.0.0 Darwin Kernel Version 15.0.0: Sat Sep 19 15:53:46 PDT 2015; root:xnu-3247.10.11~1/RELEASE_X86_64 x86_64.
%%Title: /Users/fruzti/Dropbox/PhD/SubmodularityMVDR/figureConference/beamPattern.eps
%%CreationDate: 02/10/2017  13:25:37
%%DocumentNeededFonts: Helvetica
%%DocumentProcessColors: Cyan Magenta Yellow Black
%%LanguageLevel: 2
%%Pages: 1
%%BoundingBox:    26   186   585   606
%%EndComments

%%BeginProlog
% MathWorks dictionary
/MathWorks 160 dict begin
% definition operators
/bdef {bind def} bind def
/ldef {load def} bind def
/xdef {exch def} bdef
/xstore {exch store} bdef
% operator abbreviations
/c  /clip ldef
/cc /concat ldef
/cp /closepath ldef
/gr /grestore ldef
/gs /gsave ldef
/mt /moveto ldef
/np /newpath ldef
/cm /currentmatrix ldef
/sm /setmatrix ldef
/rm /rmoveto ldef
/rl /rlineto ldef
/s {show newpath} bdef
/sc {setcmykcolor} bdef
/sr /setrgbcolor ldef
/sg /setgray ldef
/w /setlinewidth ldef
/j /setlinejoin ldef
/cap /setlinecap ldef
/rc {rectclip} bdef
/rf {rectfill} bdef
% page state control
/pgsv () def
/bpage {/pgsv save def} bdef
/epage {pgsv restore} bdef
/bplot /gsave ldef
/eplot {stroke grestore} bdef
% orientation switch
/portraitMode 0 def /landscapeMode 1 def /rotateMode 2 def
% coordinate system mappings
/dpi2point 0 def
% font control
/FontSize 0 def
/FMS {/FontSize xstore findfont [FontSize 0 0 FontSize neg 0 0]
  makefont setfont} bdef
/reencode {exch dup where {pop load} {pop StandardEncoding} ifelse
  exch dup 3 1 roll findfont dup length dict begin
  { 1 index /FID ne {def}{pop pop} ifelse } forall
  /Encoding exch def currentdict end definefont pop} bdef
/isroman {findfont /CharStrings get /Agrave known} bdef
/FMSR {3 1 roll 1 index dup isroman {reencode} {pop pop} ifelse
  exch FMS} bdef
/csm {1 dpi2point div -1 dpi2point div scale neg translate
 dup landscapeMode eq {pop -90 rotate}
  {rotateMode eq {90 rotate} if} ifelse} bdef
% line types: solid, dotted, dashed, dotdash
/SO { [] 0 setdash } bdef
/DO { [.5 dpi2point mul 4 dpi2point mul] 0 setdash } bdef
/DA { [6 dpi2point mul] 0 setdash } bdef
/DD { [.5 dpi2point mul 4 dpi2point mul 6 dpi2point mul 4
  dpi2point mul] 0 setdash } bdef
% macros for lines and objects
/L {lineto stroke} bdef
/MP {3 1 roll moveto 1 sub {rlineto} repeat} bdef
/AP {{rlineto} repeat} bdef
/PDlw -1 def
/W {/PDlw currentlinewidth def setlinewidth} def
/PP {closepath eofill} bdef
/DP {closepath stroke} bdef
/MR {4 -2 roll moveto dup  0 exch rlineto exch 0 rlineto
  neg 0 exch rlineto closepath} bdef
/FR {MR stroke} bdef
/PR {MR fill} bdef
/L1i {{currentfile picstr readhexstring pop} image} bdef
/tMatrix matrix def
/MakeOval {newpath tMatrix currentmatrix pop translate scale
0 0 1 0 360 arc tMatrix setmatrix} bdef
/FO {MakeOval stroke} bdef
/PO {MakeOval fill} bdef
/PD {currentlinewidth 2 div 0 360 arc fill
   PDlw -1 eq not {PDlw w /PDlw -1 def} if} def
/FA {newpath tMatrix currentmatrix pop translate scale
  0 0 1 5 -2 roll arc tMatrix setmatrix stroke} bdef
/PA {newpath tMatrix currentmatrix pop	translate 0 0 moveto scale
  0 0 1 5 -2 roll arc closepath tMatrix setmatrix fill} bdef
/FAn {newpath tMatrix currentmatrix pop translate scale
  0 0 1 5 -2 roll arcn tMatrix setmatrix stroke} bdef
/PAn {newpath tMatrix currentmatrix pop translate 0 0 moveto scale
  0 0 1 5 -2 roll arcn closepath tMatrix setmatrix fill} bdef
/vradius 0 def /hradius 0 def /lry 0 def
/lrx 0 def /uly 0 def /ulx 0 def /rad 0 def
/MRR {/vradius xdef /hradius xdef /lry xdef /lrx xdef /uly xdef
  /ulx xdef newpath tMatrix currentmatrix pop ulx hradius add uly
  vradius add translate hradius vradius scale 0 0 1 180 270 arc 
  tMatrix setmatrix lrx hradius sub uly vradius add translate
  hradius vradius scale 0 0 1 270 360 arc tMatrix setmatrix
  lrx hradius sub lry vradius sub translate hradius vradius scale
  0 0 1 0 90 arc tMatrix setmatrix ulx hradius add lry vradius sub
  translate hradius vradius scale 0 0 1 90 180 arc tMatrix setmatrix
  closepath} bdef
/FRR {MRR stroke } bdef
/PRR {MRR fill } bdef
/MlrRR {/lry xdef /lrx xdef /uly xdef /ulx xdef /rad lry uly sub 2 div def
  newpath tMatrix currentmatrix pop ulx rad add uly rad add translate
  rad rad scale 0 0 1 90 270 arc tMatrix setmatrix lrx rad sub lry rad
  sub translate rad rad scale 0 0 1 270 90 arc tMatrix setmatrix
  closepath} bdef
/FlrRR {MlrRR stroke } bdef
/PlrRR {MlrRR fill } bdef
/MtbRR {/lry xdef /lrx xdef /uly xdef /ulx xdef /rad lrx ulx sub 2 div def
  newpath tMatrix currentmatrix pop ulx rad add uly rad add translate
  rad rad scale 0 0 1 180 360 arc tMatrix setmatrix lrx rad sub lry rad
  sub translate rad rad scale 0 0 1 0 180 arc tMatrix setmatrix
  closepath} bdef
/FtbRR {MtbRR stroke } bdef
/PtbRR {MtbRR fill } bdef
/stri 6 array def /dtri 6 array def
/smat 6 array def /dmat 6 array def
/tmat1 6 array def /tmat2 6 array def /dif 3 array def
/asub {/ind2 exch def /ind1 exch def dup dup
  ind1 get exch ind2 get sub exch } bdef
/tri_to_matrix {
  2 0 asub 3 1 asub 4 0 asub 5 1 asub
  dup 0 get exch 1 get 7 -1 roll astore } bdef
/compute_transform {
  dmat dtri tri_to_matrix tmat1 invertmatrix 
  smat stri tri_to_matrix tmat2 concatmatrix } bdef
/ds {stri astore pop} bdef
/dt {dtri astore pop} bdef
/db {2 copy /cols xdef /rows xdef mul dup 3 mul string
  currentfile 
  3 index 0 eq {/ASCIIHexDecode filter}
  {/ASCII85Decode filter 3 index 2 eq {/RunLengthDecode filter} if }
  ifelse exch readstring pop
  dup 0 3 index getinterval /rbmap xdef
  dup 2 index dup getinterval /gbmap xdef
  1 index dup 2 mul exch getinterval /bbmap xdef pop pop}bdef
/it {gs np dtri aload pop moveto lineto lineto cp c
  cols rows 8 compute_transform 
  rbmap gbmap bbmap true 3 colorimage gr}bdef
/il {newpath moveto lineto stroke}bdef
currentdict end def
%%EndProlog

%%BeginSetup
MathWorks begin

0 cap

end
%%EndSetup

%%Page: 1 1
%%BeginPageSetup
%%PageBoundingBox:    26   186   585   606
MathWorks begin
bpage
%%EndPageSetup

%%BeginObject: obj1
bplot

/dpi2point 12 def
portraitMode 0312 7272 csm

    0     0  6719  5033 rc
87 dict begin %Colortable dictionary
/c0 { 0.000000 0.000000 0.000000 sr} bdef
/c1 { 1.000000 1.000000 1.000000 sr} bdef
/c2 { 0.900000 0.000000 0.000000 sr} bdef
/c3 { 0.000000 0.820000 0.000000 sr} bdef
/c4 { 0.000000 0.000000 0.800000 sr} bdef
/c5 { 0.910000 0.820000 0.320000 sr} bdef
/c6 { 1.000000 0.260000 0.820000 sr} bdef
/c7 { 0.000000 0.820000 0.820000 sr} bdef
c0
1 j
1 sg
   0    0 6720 5034 rf
6 w
0 4102 5208 0 0 -4102 873 4479 4 MP
PP
-5208 0 0 4102 5208 0 0 -4102 873 4479 5 MP stroke
4 w
DO
0 sg
 873 4479 mt  873  377 L
 873  377 mt  873  377 L
1393 4479 mt 1393  377 L
1393  377 mt 1393  377 L
1914 4479 mt 1914  377 L
1914  377 mt 1914  377 L
2435 4479 mt 2435  377 L
2435  377 mt 2435  377 L
2956 4479 mt 2956  377 L
2956  377 mt 2956  377 L
3477 4479 mt 3477  377 L
3477  377 mt 3477  377 L
3997 4479 mt 3997  377 L
3997  377 mt 3997  377 L
4518 4479 mt 4518  377 L
4518  377 mt 4518  377 L
5039 4479 mt 5039  377 L
5039  377 mt 5039  377 L
5560 4479 mt 5560  377 L
5560  377 mt 5560  377 L
6081 4479 mt 6081  377 L
6081  377 mt 6081  377 L
 873 4479 mt 6081 4479 L
6081 4479 mt 6081 4479 L
 873 4068 mt 6081 4068 L
6081 4068 mt 6081 4068 L
 873 3658 mt 6081 3658 L
6081 3658 mt 6081 3658 L
 873 3248 mt 6081 3248 L
6081 3248 mt 6081 3248 L
 873 2838 mt 6081 2838 L
6081 2838 mt 6081 2838 L
 873 2428 mt 6081 2428 L
6081 2428 mt 6081 2428 L
 873 2017 mt 6081 2017 L
6081 2017 mt 6081 2017 L
 873 1607 mt 6081 1607 L
6081 1607 mt 6081 1607 L
 873 1197 mt 6081 1197 L
6081 1197 mt 6081 1197 L
 873  787 mt 6081  787 L
6081  787 mt 6081  787 L
 873  377 mt 6081  377 L
6081  377 mt 6081  377 L
SO
6 w
 873 4479 mt 6081 4479 L
 873 4479 mt  873  377 L
 873 4479 mt  873 4426 L
%%IncludeResource: font Helvetica
/Helvetica /ISOLatin1Encoding 144 FMSR

 669 4647 mt 
(-100) s
1393 4479 mt 1393 4426 L
1229 4647 mt 
(-80) s
1914 4479 mt 1914 4426 L
1750 4647 mt 
(-60) s
2435 4479 mt 2435 4426 L
2271 4647 mt 
(-40) s
2956 4479 mt 2956 4426 L
2792 4647 mt 
(-20) s
3477 4479 mt 3477 4426 L
3437 4647 mt 
(0) s
3997 4479 mt 3997 4426 L
3917 4647 mt 
(20) s
4518 4479 mt 4518 4426 L
4438 4647 mt 
(40) s
5039 4479 mt 5039 4426 L
4959 4647 mt 
(60) s
5560 4479 mt 5560 4426 L
5480 4647 mt 
(80) s
6081 4479 mt 6081 4426 L
5961 4647 mt 
(100) s
 873 4479 mt  925 4479 L
 594 4532 mt 
(-20) s
 873 4068 mt  925 4068 L
 594 4121 mt 
(-18) s
 873 3658 mt  925 3658 L
 594 3711 mt 
(-16) s
 873 3248 mt  925 3248 L
 594 3301 mt 
(-14) s
 873 2838 mt  925 2838 L
 594 2891 mt 
(-12) s
 873 2428 mt  925 2428 L
 594 2481 mt 
(-10) s
 873 2017 mt  925 2017 L
 674 2070 mt 
(-8) s
 873 1607 mt  925 1607 L
 674 1660 mt 
(-6) s
 873 1197 mt  925 1197 L
 674 1250 mt 
(-4) s
 873  787 mt  925  787 L
 674  840 mt 
(-2) s
 873  377 mt  925  377 L
 758  430 mt 
(0) s
gs 873 377 5209 4103 rc
DA
13.2 w
2 99 3 113 2 107 3 99 2 93 3 86 3 80 2 75 
3 69 2 64 3 60 3 54 2 51 3 47 2 43 3 39 
3 37 2 32 3 30 2 27 3 25 3 21 2 19 3 17 
2 14 3 13 3 10 2 8 3 6 2 4 3 3 3 0 
2 0 3 -3 2 -4 3 -5 3 -7 2 -7 3 -9 2 -10 
3 -12 3 -12 2 -12 3 -14 2 -14 3 -15 3 -15 2 -16 
3 -16 3 -16 2 -16 3 -16 2 -16 3 -16 3 -16 2 -14 
3 -15 2 -13 3 -13 3 -13 2 -11 3 -10 2 -9 3 -8 
3 -7 2 -5 3 -5 2 -3 3 -2 3 -1 2 1 3 2 
2 2 3 4 3 5 2 6 3 6 2 8 3 8 3 8 
2 10 3 10 2 10 3 11 3 11 2 11 3 11 2 12 
3 11 3 12 2 12 3 11 2 12 3 11 3 11 2 11 
3 11 2 10 3 10 3 10 2 10 3 9 3 9 2 9 
3 8 2 8 3 8 3 7 2 7 3 7 2 6 3 6 
3 6 2 6 3 5 2 5 3 4 3 4 2 4 3 4 
2 3 3 3 3 3 2 3 3 2 2 2 3 2 3 1 
2 2 3 1 2 1 3 1 3 1 2 0 3 0 2 0 
3 0 3 0 2 0 3 0 2 -1 3 -1 3 -1 2 0 
3 -1 2 -2 3 -1 3 -1 2 -2 3 -1 3 -2 2 -1 
3 -2 2 -2 3 -1 3 -2 2 -2 3 -2 2 -2 3 -2 
3 -2 2 -2 3 -2 2 -3 3 -2 3 -2 2 -2 3 -2 
2 -3 3 -2 3 -2 2 -3 3 -2 2 -2 3 -3 3 -2 
2 -3 3 -2 2 -2 3 -3 3 -2 2 -2 3 -3 2 -2 
3 -3 3 -2 2 -2 3 -3 2 -2 3 -2 3 -3 2 -2 
3 -2 2 -2 3 -3 3 -2 2 -2 3 -2 3 -2 2 -3 
3 -2 2 -2 3 -2 3 -2 2 -2 3 -2 2 -2 3 -2 
3 -2 2 -2 3 -2 2 -1 3 -2 3 -2 2 -2 3 -1 
2 -2 3 -1 3 -2 2 -1 3 -2 2 -1 3 -2 3 -1 
2 -1 3 -1 2 -2 3 -1 3 -1 2 -1 3 -1 2 -1 
3 -1 3 0 2 -1 3 -1 2 0 3 -1 3 -1 2 0 
3 0 2 -1 3 0 3 0 2 -1 3 0 2 0 3 0 
1133 3185 249 MP stroke
1 30 3 57 2 61 3 65 2 67 3 69 3 70 2 70 
3 71 2 69 3 69 3 68 2 65 3 64 2 62 3 59 
3 57 2 55 3 52 2 49 3 46 3 44 2 40 3 38 
2 35 3 32 3 29 2 26 3 23 3 20 2 17 3 14 
2 11 3 8 3 4 2 2 3 -1 2 -5 3 -8 3 -11 
2 -15 3 -17 2 -22 3 -24 3 -29 2 -32 3 -36 2 -40 
3 -44 3 -48 2 -52 3 -58 2 -61 3 -67 3 -73 2 -77 
3 -84 2 -90 3 -96 3 -103 2 -110 3 -118 2 -125 3 -132 
1 -40 1822 4480 66 MP stroke
2 194 2 245 3 210 2 178 3 150 3 124 2 102 3 82 
2 64 3 46 3 31 2 17 3 2 2 -10 3 -21 3 -32 
2 -41 3 -46 2 -50 3 -49 3 -43 2 -31 3 -14 2 8 
3 32 3 56 2 76 3 91 2 102 3 107 3 108 2 105 
3 100 2 94 3 86 3 79 2 70 3 61 2 52 3 44 
3 36 2 27 3 18 2 10 3 1 3 -6 2 -15 3 -23 
2 -32 3 -40 3 -48 2 -56 3 -64 3 -72 2 -80 3 -88 
2 -93 3 -99 3 -103 2 -104 3 -103 2 -96 3 -86 3 -70 
2 -50 3 -26 2 -2 3 20 3 38 2 52 3 61 2 65 
3 65 3 63 2 59 3 53 2 46 3 39 3 32 2 25 
3 17 2 9 3 2 3 -6 2 -12 3 -19 2 -27 3 -32 
3 -39 2 -44 3 -50 2 -54 3 -58 3 -61 2 -63 3 -63 
2 -62 3 -58 3 -54 2 -47 3 -38 3 -28 2 -17 3 -6 
2 5 3 14 3 21 2 28 3 33 2 34 3 36 3 35 
2 33 3 31 2 28 3 24 3 20 2 16 3 11 2 7 
3 2 3 -2 2 -8 3 -11 2 -16 3 -20 3 -24 2 -27 
3 -31 2 -33 3 -36 3 -37 2 -38 3 -38 2 -36 3 -34 
3 -30 2 -26 3 -19 2 -13 3 -4 3 4 2 13 3 21 
2 29 3 36 3 41 2 47 3 50 2 52 3 53 3 54 
2 54 3 52 3 51 2 49 3 47 2 44 3 41 3 38 
2 35 3 32 2 28 3 25 3 22 2 19 3 15 2 11 
3 9 3 5 2 2 3 -2 2 -5 3 -8 3 -12 2 -14 
3 -18 2 -21 3 -25 3 -27 2 -31 3 -34 2 -37 3 -39 
3 -43 2 -46 3 -49 2 -51 3 -54 3 -57 2 -60 3 -61 
2 -64 3 -66 3 -68 2 -70 3 -70 2 -72 3 -73 3 -73 
2 -72 3 -72 3 -71 2 -70 3 -66 2 -64 3 -60 3 -56 
0 -16 2023 4480 210 MP stroke
2 260 3 262 3 215 2 177 3 144 2 117 3 93 3 71 
2 51 3 32 2 14 3 -5 3 -23 2 -41 3 -60 2 -80 
3 -101 3 -125 2 -151 3 -179 2 -212 3 -249 2 -210 2584 4480 24 MP stroke
1 106 3 216 3 198 2 177 3 155 2 135 3 116 3 96 
2 79 3 62 2 45 3 29 3 13 2 -5 3 -21 3 -38 
2 -58 3 -77 2 -99 3 -124 3 -152 2 -186 3 -225 2 -276 
2 -166 2665 4480 26 MP stroke
2 173 3 226 2 184 3 144 3 107 2 74 3 47 2 21 
3 0 3 -20 2 -38 3 -54 2 -68 3 -79 3 -89 2 -95 
3 -98 2 -97 3 -90 3 -79 2 -64 3 -44 2 -24 3 -5 
3 13 2 28 3 37 3 45 2 50 3 52 2 53 3 53 
3 51 2 49 3 46 2 43 3 38 3 32 2 26 3 19 
2 10 3 1 3 -10 2 -22 3 -35 2 -49 3 -66 3 -82 
2 -101 3 -121 2 -141 1 -51 2752 4480 53 MP stroke
3 -10 3 -20 2 -31 3 -41 2 -51 3 -62 3 -73 2 -85 
3 -96 2 -109 3 -122 3 -136 2 -152 3 -168 2 -187 3 -207 
3 -231 2 -258 3 -289 2 -324 3 -365 3 -406 2 -428 2 -252 
2894 4480 25 MP stroke
2 612 3 608 2 483 3 390 3 323 2 272 3 233 2 200 
3 174 3 151 2 131 3 113 2 97 3 82 3 69 2 56 
3 44 2 33 3 21 3 11 2 0 2956 377 22 MP stroke
1 142 3 215 3 194 2 170 3 149 2 129 3 108 3 90 
2 71 3 55 2 38 3 22 3 9 2 -4 3 -14 2 -21 
3 -23 3 -20 2 -9 3 7 2 30 3 57 3 81 2 102 
3 117 3 123 2 126 3 121 2 114 3 104 3 93 2 79 
3 66 2 50 3 35 3 19 2 2 3 -16 2 -37 3 -57 
3 -82 2 -109 3 -141 2 -181 3 -229 3 -292 2 -379 3 -496 
2 -608 3016 4480 50 MP stroke
2 105 2 106 3 76 2 49 3 21 3 -6 2 -31 3 -58 
3 -86 2 -115 1 -61 3210 4480 12 MP stroke
1 143 3 237 2 191 3 153 3 121 2 91 3 66 2 42 
3 18 3 -4 2 -26 3 -48 2 -71 3 -95 3 -120 2 -147 
3 -176 2 -206 2 -169 3264 4480 20 MP stroke
1 89 2 259 3 230 2 193 3 158 3 124 2 95 3 68 
2 43 3 20 3 -2 2 -23 3 -43 2 -63 3 -82 3 -101 
2 -118 3 -132 2 -143 3 -147 3 -141 2 -120 3 -85 2 -40 
3 7 3 45 2 68 3 75 2 71 3 59 3 41 2 20 
3 -6 2 -32 3 -62 3 -97 2 -135 2 -93 3342 4480 39 MP stroke
2 350 3 385 2 316 3 265 3 225 2 193 3 165 2 143 
3 123 3 104 2 87 3 71 2 57 3 42 3 28 2 16 
3 1 2 -11 3 -25 3 -39 2 -54 3 -68 2 -84 3 -101 
3 -120 2 -140 3 -162 3 -188 2 -215 3 -248 2 -283 3 -317 
3 -340 1 -176 3449 4480 35 MP stroke
1 49 2 186 3 165 2 143 3 120 3 100 2 80 3 58 
2 39 3 17 3 -5 2 -28 3 -52 2 -81 3 -114 3 -152 
2 -200 3 -263 0 -62 3557 4480 20 MP stroke
1 118 3 193 2 166 3 145 2 126 3 111 3 96 2 84 
3 73 3 62 2 52 3 43 2 34 3 27 3 18 2 12 
3 5 2 -1 3 -6 3 -11 2 -14 3 -17 2 -18 3 -18 
3 -17 2 -14 3 -11 2 -6 3 -2 3 4 2 8 3 13 
2 14 3 17 3 16 2 15 3 12 2 7 3 2 3 -5 
2 -13 3 -22 2 -31 3 -42 3 -52 2 -63 3 -74 2 -85 
3 -94 3 -101 2 -106 3 -103 2 -92 3 -72 3 -42 2 -3 
3 37 3 71 2 95 3 110 2 115 3 112 3 106 2 95 
3 84 2 71 3 57 3 45 2 30 3 17 2 4 3 -10 
3 -23 2 -37 3 -49 2 -63 3 -76 3 -88 2 -98 3 -107 
2 -112 3 -113 3 -106 2 -90 3 -66 2 -34 3 2 3 35 
2 61 3 78 2 87 3 89 3 85 2 79 3 70 2 61 
3 51 3 42 2 33 3 25 2 18 3 12 3 7 2 5 
3 1 3 1 2 2 3 2 2 3 3 6 3 7 2 8 
3 8 2 8 3 6 3 3 2 0 3 -7 2 -12 3 -20 
3 -27 2 -37 3 -46 2 -56 3 -66 3 -78 2 -88 3 -98 
2 -109 3 -118 3 -124 2 -128 3 -126 1 -70 3793 4480 135 MP stroke
1 84 3 227 2 204 3 182 3 164 2 146 3 130 2 115 
3 101 3 89 2 76 3 65 2 54 3 44 3 33 2 24 
3 13 2 5 3 -6 3 -15 2 -25 3 -34 2 -45 3 -55 
3 -65 2 -77 3 -88 2 -102 3 -115 3 -131 2 -148 3 -168 
2 -191 3 -220 3 -255 0 -16 4174 4480 37 MP stroke
2 67 2 124 3 120 2 114 3 109 3 104 2 97 3 91 
2 85 3 78 3 73 2 66 3 60 2 54 3 48 3 42 
2 37 3 31 2 26 3 20 3 15 2 10 3 5 3 1 
2 -5 3 -8 2 -13 3 -17 3 -21 2 -25 3 -28 2 -31 
3 -34 3 -36 2 -38 3 -40 2 -41 3 -42 3 -41 2 -42 
3 -39 2 -38 3 -34 3 -31 2 -25 3 -19 2 -13 3 -4 
3 5 2 13 3 23 2 32 3 41 3 49 2 56 3 61 
2 66 3 68 3 71 2 72 3 71 2 70 3 68 3 65 
2 63 3 58 2 55 3 50 3 45 2 41 3 36 2 30 
3 25 3 20 2 14 3 8 3 3 2 -3 3 -9 2 -14 
3 -20 3 -26 2 -32 3 -37 2 -43 3 -48 3 -54 2 -58 
3 -64 2 -69 3 -72 3 -77 2 -80 3 -83 2 -85 3 -88 
3 -89 2 -91 3 -92 2 -93 3 -96 3 -98 2 -102 3 -108 
2 -114 3 -125 2 -121 4300 4480 108 MP stroke
2 123 3 155 2 148 3 139 2 130 3 121 3 112 2 103 
3 95 2 87 3 79 3 72 2 65 3 58 2 51 3 46 
3 39 2 33 3 27 2 22 3 16 3 11 2 5 3 0 
2 -6 3 -10 3 -16 2 -21 3 -27 2 -31 3 -37 3 -41 
2 -47 3 -52 2 -57 3 -63 3 -67 2 -72 3 -78 2 -82 
3 -87 3 -92 2 -97 3 -100 3 -105 2 -108 3 -112 2 -114 
3 -116 2 -99 4628 4480 51 MP stroke
1 90 3 116 3 107 2 99 3 91 2 85 3 78 3 73 
2 67 3 62 2 58 3 53 3 48 2 45 3 40 2 37 
3 34 3 29 2 27 3 23 2 21 3 17 3 14 2 12 
3 9 2 7 3 4 3 2 2 0 3 -3 3 -4 2 -6 
3 -7 2 -9 3 -11 3 -11 2 -13 3 -14 2 -14 3 -14 
3 -15 2 -16 3 -15 2 -15 3 -15 3 -15 2 -15 3 -15 
2 -14 3 -15 3 -14 2 -15 3 -15 2 -16 3 -17 3 -18 
2 -20 3 -21 2 -24 3 -27 3 -29 2 -33 3 -38 2 -41 
3 -47 3 -51 2 -58 3 -64 2 -71 3 -79 3 -86 2 -95 
3 -103 2 -110 4792 4480 75 MP stroke
1 43 3 78 3 74 2 71 3 68 2 65 3 62 3 60 
2 58 3 55 2 53 3 50 3 49 2 46 3 45 2 42 
3 41 3 39 2 37 3 35 2 34 3 32 3 30 2 28 
3 27 2 26 3 24 3 22 2 21 3 19 2 18 3 16 
3 15 2 13 3 12 3 11 2 9 3 7 2 6 3 4 
3 3 2 2 3 0 2 -1 3 -3 3 -5 2 -6 3 -8 
2 -9 3 -10 3 -13 2 -13 3 -16 2 -17 3 -19 3 -20 
2 -22 3 -23 2 -26 3 -26 3 -29 2 -30 3 -32 2 -34 
3 -35 3 -36 2 -38 3 -40 2 -41 3 -42 3 -44 2 -45 
3 -45 2 -46 3 -47 3 -47 2 -46 3 -47 2 -45 3 -44 
3 -43 2 -40 3 -38 3 -34 2 -31 3 -27 2 -23 3 -18 
3 -14 2 -9 3 -4 2 0 3 3 3 8 2 10 3 13 
2 15 3 16 3 18 2 18 3 18 2 17 3 17 3 16 
2 14 3 12 2 11 3 8 3 5 2 3 3 0 2 -4 
3 -7 3 -10 2 -14 3 -17 2 -22 3 -27 3 -31 2 -35 
3 -41 2 -47 3 -53 2 -33 5063 4480 125 MP stroke
3 0 2 0 3 0 2 0 3 -1 3 0 2 0 3 -1 
2 0 3 -1 3 0 2 -1 3 -1 2 -1 3 0 3 -1 
2 -1 3 -1 2 -1 3 -2 3 -1 2 -1 3 -1 2 -2 
3 -1 3 -2 2 -2 3 -1 2 -2 3 -2 3 -2 2 -2 
3 -2 2 -2 3 -3 3 -2 2 -2 3 -3 2 -2 3 -3 
3 -3 2 -3 3 -3 2 -3 3 -3 3 -4 2 -3 3 -3 
2 -4 3 -4 3 -4 2 -4 3 -4 3 -4 2 -5 3 -4 
2 -5 3 -5 3 -5 2 -5 3 -6 2 -5 3 -6 3 -6 
2 -6 3 -6 2 -7 3 -7 3 -7 2 -7 3 -7 2 -8 
3 -8 3 -8 2 -8 3 -9 2 -9 3 -10 3 -9 2 -10 
3 -11 2 -10 3 -11 3 -12 2 -11 3 -13 2 -12 3 -13 
3 -14 2 -14 3 -14 2 -16 3 -15 3 -16 2 -17 3 -17 
2 -18 3 -19 3 -19 2 -20 3 -21 3 -22 2 -22 3 -23 
2 -24 3 -25 3 -27 2 -27 3 -28 2 -29 3 -31 3 -31 
2 -33 3 -35 2 -35 3 -38 3 -39 2 -40 3 -43 2 -44 
3 -46 3 -49 0 -14 5502 4480 124 MP stroke
SO
/c8 { 0.000000 1.000000 0.000000 sr} bdef
c8
2 58 3 56 3 56 2 53 3 52 2 51 3 48 3 47 
2 45 3 43 2 41 3 40 3 38 2 36 3 34 2 33 
3 32 3 30 2 28 3 27 2 25 3 24 3 23 2 22 
3 20 2 19 3 17 3 17 2 15 3 15 2 13 3 12 
3 11 2 10 3 9 3 8 2 7 3 6 2 6 3 4 
3 3 2 3 3 2 2 1 3 0 3 -1 2 -1 3 -2 
2 -3 3 -4 3 -4 2 -6 3 -5 2 -7 3 -7 3 -8 
2 -9 3 -9 2 -10 3 -10 3 -12 2 -11 3 -13 2 -13 
3 -13 3 -14 2 -15 3 -16 2 -15 3 -17 3 -17 2 -18 
3 -18 2 -18 3 -20 3 -19 2 -21 3 -20 2 -22 3 -22 
3 -22 2 -23 3 -23 3 -24 2 -24 3 -25 2 -26 3 -25 
3 -27 2 -27 3 -27 2 -28 3 -28 3 -29 2 -29 3 -30 
2 -30 3 -30 3 -31 2 -32 3 -32 2 -32 3 -33 3 -34 
2 -33 1 -16 1330 4480 107 MP stroke
2 67 3 76 2 70 3 65 3 60 2 56 3 51 2 48 
3 44 3 41 2 38 3 34 2 32 3 28 3 26 2 24 
3 20 3 19 2 15 3 14 2 11 3 9 3 7 2 4 
3 2 2 1 3 -2 3 -4 2 -7 3 -8 2 -10 3 -13 
3 -14 2 -17 3 -19 2 -20 3 -23 3 -25 2 -27 3 -30 
2 -31 3 -34 3 -36 2 -38 3 -40 2 -43 3 -44 3 -47 
2 -49 3 -51 2 -53 3 -54 3 -57 2 -58 1 -8 1679 4480 56 MP stroke
2 118 3 157 2 143 3 129 3 115 2 102 3 91 2 81 
3 71 3 62 2 55 3 46 2 40 3 34 3 28 2 23 
3 17 2 13 3 9 3 5 2 2 3 -1 2 -4 3 -7 
3 -8 2 -9 3 -11 2 -12 3 -11 3 -12 2 -11 3 -10 
2 -9 3 -8 3 -6 2 -3 3 -2 3 0 2 3 3 4 
2 7 3 8 3 10 2 11 3 12 2 12 3 13 3 13 
2 13 3 13 2 12 3 11 3 9 2 9 3 7 2 5 
3 4 3 1 2 0 3 -2 2 -5 3 -7 3 -9 2 -12 
3 -14 2 -17 3 -19 3 -22 2 -25 3 -27 2 -30 3 -34 
3 -36 2 -39 3 -43 2 -46 3 -50 3 -53 2 -57 3 -61 
2 -65 3 -69 3 -75 2 -79 3 -85 3 -91 2 -97 3 -105 
2 -112 0 -8 1904 4480 91 MP stroke
2 125 3 151 3 136 2 121 3 108 2 96 3 85 3 75 
2 66 3 59 2 52 3 47 3 43 2 40 3 38 2 36 
3 36 3 36 2 38 3 40 3 41 2 44 3 47 2 49 
3 51 3 52 2 54 3 55 2 55 3 55 3 54 2 53 
3 51 2 49 3 46 3 44 2 41 3 37 2 34 3 31 
3 26 2 23 3 19 2 14 3 11 3 6 2 1 3 -2 
2 -7 3 -12 3 -17 2 -21 3 -26 2 -32 3 -36 3 -42 
2 -48 3 -53 2 -60 3 -66 3 -72 2 -80 3 -87 2 -95 
3 -104 3 -113 2 -124 3 -134 2 -146 3 -158 3 -173 2 -187 
3 -202 3 -215 1 -159 2160 4480 76 MP stroke
2 180 3 184 2 171 3 159 3 145 2 134 3 122 2 110 
3 101 3 91 2 81 3 72 2 64 3 55 3 47 2 39 
3 32 2 23 3 16 3 9 2 0 3 -6 3 -15 2 -22 
3 -31 2 -38 3 -47 3 -56 2 -65 3 -75 2 -85 3 -95 
3 -108 2 -120 3 -133 2 -147 3 -163 3 -178 2 -195 3 -207 
0 -49 2380 4480 42 MP stroke
2 143 2 204 3 180 2 160 3 141 3 126 2 112 3 100 
2 89 3 79 3 68 2 61 3 51 2 44 3 37 3 29 
2 23 3 16 2 9 3 3 3 -2 2 -9 3 -14 2 -19 
3 -25 3 -30 2 -35 3 -40 2 -44 3 -49 3 -52 2 -57 
3 -59 3 -63 2 -66 3 -67 2 -70 3 -72 3 -73 2 -74 
3 -76 2 -78 3 -79 3 -82 2 -84 3 -88 2 -93 3 -99 
2 -76 2524 4480 50 MP stroke
0 18 2 158 3 136 3 116 2 98 3 82 2 66 3 52 
3 38 2 25 3 12 2 0 3 -13 3 -26 2 -38 3 -52 
2 -67 3 -81 3 -98 2 -116 3 -137 3 -161 0 -12 2687 4480 24 MP stroke
2 152 2 230 3 181 2 142 3 111 3 85 2 64 3 46 
2 31 3 19 3 9 2 2 3 -4 2 -8 3 -10 3 -11 
2 -12 3 -10 2 -10 3 -9 3 -9 2 -9 3 -10 3 -13 
2 -17 3 -21 2 -28 3 -36 3 -44 2 -54 3 -65 2 -79 
3 -92 3 -108 2 -127 3 -145 2 -141 2779 4480 38 MP stroke
3 -15 3 -23 2 -30 3 -39 2 -46 3 -55 3 -63 2 -72 
3 -81 2 -90 3 -101 3 -111 2 -122 3 -134 2 -148 3 -162 
3 -179 2 -196 3 -218 2 -241 3 -271 3 -305 2 -347 3 -399 
2 -460 1 -195 2890 4480 27 MP stroke
0 21 3 527 2 454 3 388 2 335 3 292 3 256 2 229 
3 203 2 183 3 165 3 148 2 134 3 120 2 108 3 96 
3 86 2 76 3 66 2 57 3 48 3 40 2 32 3 23 
2 16 1 0 2963 377 27 MP stroke
3 248 3 214 2 174 3 140 2 109 3 82 3 54 2 28 
3 1 2 -28 3 -58 3 -94 2 -133 3 -181 2 -239 3 -311 
0 -6 3039 4480 18 MP stroke
1 54 3 76 2 56 3 39 2 22 3 9 3 -3 2 -13 
3 -20 2 -24 3 -25 3 -23 2 -17 3 -10 2 1 3 11 
3 21 2 28 3 32 2 33 3 30 3 23 2 15 3 2 
2 -13 3 -31 3 -51 2 -75 3 -102 1 -45 3116 4480 31 MP stroke
2 38 2 73 3 77 3 78 2 79 3 77 2 75 3 72 
3 68 2 63 3 58 2 53 3 48 3 43 2 38 3 32 
2 28 3 23 3 19 2 13 3 9 2 4 3 -1 3 -6 
2 -12 3 -19 2 -25 3 -32 3 -40 2 -50 3 -59 2 -71 
3 -83 3 -97 2 -114 3 -132 2 -155 3 -172 3237 4480 39 MP stroke
1 114 2 242 3 204 3 171 2 142 3 116 2 94 3 73 
3 54 2 36 3 19 2 3 3 -14 3 -30 2 -46 3 -63 
2 -80 3 -99 3 -117 2 -139 3 -163 2 -189 3 -220 1 -108 
3400 4480 25 MP stroke
1 52 2 219 3 217 2 211 3 200 3 187 2 174 3 159 
3 146 2 132 3 118 2 106 3 93 3 82 2 69 3 59 
2 48 3 38 3 28 2 18 3 9 2 0 3 -8 3 -17 
2 -24 3 -31 2 -37 3 -43 3 -48 2 -52 3 -55 2 -56 
3 -56 3 -56 2 -54 3 -52 2 -48 3 -45 3 -43 2 -40 
3 -40 2 -41 3 -44 3 -48 2 -55 3 -63 2 -75 3 -87 
3 -104 2 -122 3 -143 2 -169 3 -199 3 -234 1 -176 3483 4480 56 MP stroke
1 184 3 338 2 280 3 235 3 198 2 166 3 140 3 117 
2 97 3 77 2 61 3 43 3 29 2 14 3 -1 2 -16 
3 -29 3 -44 2 -58 3 -73 2 -89 3 -105 3 -121 2 -140 
3 -160 2 -180 3 -204 3 -229 2 -256 3 -274 3669 4480 31 MP stroke
0 46 3 288 3 243 2 209 3 179 2 155 3 134 3 115 
2 98 3 84 2 69 3 55 3 44 2 31 3 20 2 8 
3 -2 3 -13 2 -23 3 -34 2 -43 3 -53 3 -62 2 -71 
3 -78 2 -84 3 -89 3 -91 2 -90 3 -85 2 -77 3 -65 
3 -49 2 -33 3 -16 2 -1 3 10 3 18 2 20 3 19 
3 15 2 9 3 0 2 -9 3 -19 3 -30 2 -40 3 -48 
2 -55 3 -58 3 -56 2 -49 3 -35 2 -14 3 12 3 39 
2 63 3 83 2 94 3 100 3 99 2 93 3 86 2 75 
3 62 3 49 2 34 3 19 2 2 3 -14 3 -33 2 -53 
3 -74 2 -99 3 -126 3 -157 2 -196 3 -242 2 -301 1 -12 
3765 4480 81 MP stroke
1 85 2 175 3 148 2 125 3 106 3 90 2 78 3 67 
2 59 3 52 3 47 2 43 3 40 2 38 3 37 3 37 
2 36 3 37 2 37 3 38 3 37 2 36 3 35 2 33 
3 32 3 28 2 26 3 22 2 17 3 14 3 8 2 4 
3 -2 2 -7 3 -12 3 -18 2 -24 3 -29 2 -34 3 -39 
3 -45 2 -49 3 -53 3 -57 2 -60 3 -61 2 -63 3 -63 
3 -62 2 -59 3 -57 2 -52 3 -48 3 -43 2 -39 3 -34 
2 -32 3 -30 3 -28 2 -29 3 -31 2 -33 3 -35 3 -39 
2 -41 3 -42 2 -42 3 -37 3 -31 2 -18 3 -2 2 19 
3 42 3 65 2 86 3 102 2 114 3 121 3 124 2 123 
3 121 2 115 3 110 3 103 2 96 3 89 2 82 3 74 
3 68 2 60 3 54 2 47 3 41 3 35 2 29 3 24 
3 18 2 14 3 8 2 4 3 -1 3 -4 2 -9 3 -12 
2 -15 3 -18 3 -21 2 -23 3 -25 2 -27 3 -28 3 -29 
2 -30 3 -30 2 -31 3 -31 3 -30 2 -30 3 -30 2 -29 
3 -29 3 -29 2 -29 3 -30 2 -30 3 -32 3 -34 2 -36 
3 -40 2 -44 3 -50 3 -55 2 -63 3 -71 2 -81 3 -93 
3 -107 2 -123 3 -143 2 -167 3 -196 3 -233 0 -7 3997 4480 144 MP stroke
1 109 3 206 3 222 2 218 3 202 2 184 3 165 3 147 
2 131 3 115 2 101 3 88 3 75 2 64 3 53 2 43 
3 33 3 23 2 13 3 5 2 -5 3 -13 3 -23 2 -33 
3 -41 2 -52 3 -62 3 -72 2 -84 3 -95 2 -109 3 -123 
3 -140 2 -157 3 -177 2 -202 3 -231 3 -266 2 -311 0 -1 
4396 4480 41 MP stroke
2 225 2 298 3 249 3 212 2 182 3 157 2 136 3 118 
3 103 2 88 3 76 2 63 3 53 3 41 2 32 3 22 
2 12 3 2 3 -7 2 -16 3 -26 2 -37 3 -47 3 -58 
2 -69 3 -82 2 -94 3 -109 3 -125 2 -141 3 -159 3 -178 
2 -196 3 -210 2 -217 3 -200 2 -98 4503 4480 38 MP stroke
2 104 2 196 3 183 3 170 2 158 3 146 2 136 3 126 
3 117 2 108 3 100 2 93 3 86 3 79 2 73 3 67 
2 61 3 55 3 50 2 44 3 39 2 34 3 28 3 23 
2 18 3 13 2 7 3 2 3 -3 2 -10 3 -15 2 -21 
3 -28 3 -34 2 -41 3 -49 2 -57 3 -65 3 -75 2 -85 
3 -96 3 -109 2 -124 3 -140 2 -160 3 -183 3 -212 2 -248 
3 -295 2 -266 4620 4480 51 MP stroke
2 59 3 85 2 80 3 75 3 71 2 67 3 62 2 58 
3 54 3 50 2 47 3 43 2 40 3 36 3 34 2 30 
3 28 2 24 3 23 3 19 2 18 3 14 2 13 3 11 
3 8 2 7 3 5 2 3 3 2 3 0 2 -1 3 -2 
3 -4 2 -4 3 -4 2 -6 3 -5 3 -6 2 -7 3 -6 
2 -6 3 -6 3 -5 2 -5 3 -5 2 -4 3 -4 3 -3 
2 -4 3 -2 2 -3 3 -3 3 -2 2 -4 3 -3 2 -5 
3 -6 3 -6 2 -9 3 -10 2 -13 3 -15 3 -18 2 -21 
3 -25 2 -28 3 -33 3 -38 2 -42 3 -49 2 -55 3 -62 
3 -69 2 -78 3 -87 2 -98 3 -108 2 -87 4787 4480 79 MP stroke
1 23 3 43 2 41 3 41 2 40 3 40 3 38 2 38 
3 38 2 37 3 36 3 36 2 35 3 34 3 34 2 33 
3 33 2 32 3 31 3 31 2 31 3 29 2 30 3 29 
3 28 2 28 3 27 2 27 3 26 3 26 2 25 3 25 
2 24 3 24 3 23 2 23 3 23 2 22 3 21 3 22 
2 20 3 21 2 19 3 20 3 19 2 19 3 18 2 18 
3 17 3 17 2 17 3 16 2 16 3 16 3 15 2 15 
3 14 2 15 3 13 3 14 2 13 3 13 2 13 3 12 
3 12 2 12 3 12 3 11 2 11 3 11 2 11 3 10 
3 10 2 10 3 10 2 10 3 10 3 9 2 9 3 9 
2 9 3 9 3 9 2 8 3 9 2 8 3 9 3 8 
2 9 3 8 2 8 3 8 3 9 2 8 3 8 2 8 
3 8 3 8 2 8 3 9 2 8 3 8 3 8 2 8 
3 8 2 8 3 9 3 8 2 8 3 8 2 8 3 8 
3 8 2 8 3 8 3 7 2 8 3 8 2 7 3 7 
3 8 2 7 3 6 2 7 3 7 3 6 2 6 3 6 
2 5 3 6 3 5 2 4 3 5 2 4 3 4 3 3 
2 3 3 3 2 2 3 2 3 1 2 1 3 0 2 0 
3 0 3 -1 2 -2 3 -2 2 -2 3 -4 3 -3 2 -5 
3 -5 2 -5 3 -6 3 -7 2 -8 3 -8 2 -9 3 -9 
3 -11 2 -11 3 -12 3 -12 2 -14 3 -14 2 -15 3 -16 
3 -17 2 -18 3 -19 2 -19 3 -21 3 -22 2 -23 3 -24 
2 -24 3 -27 3 -27 2 -29 3 -30 2 -31 3 -32 3 -34 
2 -36 3 -37 2 -39 3 -40 3 -43 2 -44 3 -46 2 -48 
3 -50 3 -53 2 -55 3 -58 2 -60 3 -63 3 -66 2 -69 
3 -72 2 -76 3 -80 3 -83 2 -87 3 -92 2 -96 3 -100 
3 -104 1 -36 5048 4480 211 MP stroke
DD
/c9 { 1.000000 0.000000 1.000000 sr} bdef
c9
1 51 3 81 3 74 2 69 3 64 2 59 3 55 3 51 
2 48 3 44 2 41 3 38 3 36 2 33 3 30 2 28 
3 26 3 24 2 22 3 19 3 18 2 17 3 14 2 13 
3 12 3 9 2 9 3 7 2 5 3 5 3 3 2 1 
3 1 2 -1 3 -2 3 -2 2 -4 3 -5 2 -7 3 -7 
3 -8 2 -9 3 -9 2 -11 3 -12 3 -12 2 -13 3 -14 
2 -15 3 -15 3 -16 2 -17 3 -17 2 -17 3 -18 3 -19 
2 -18 3 -20 2 -19 3 -19 3 -20 2 -19 3 -20 2 -19 
3 -19 3 -19 2 -18 3 -18 2 -17 3 -16 3 -16 2 -14 
3 -14 3 -12 2 -11 3 -10 2 -9 3 -7 3 -6 2 -4 
3 -2 2 -1 3 0 3 2 2 4 3 5 2 7 3 9 
3 9 2 11 3 13 2 13 3 15 3 15 2 17 3 17 
2 19 3 18 3 20 2 20 3 20 2 21 3 21 3 21 
2 21 3 21 2 22 3 21 3 22 2 21 3 21 2 21 
3 21 3 21 2 20 3 20 2 20 3 19 3 20 2 18 
3 19 3 18 2 18 3 17 2 18 3 16 3 17 2 16 
3 15 2 16 3 15 3 14 2 14 3 14 2 14 3 13 
3 12 2 13 3 12 2 12 3 11 3 11 2 11 3 10 
2 11 3 9 3 10 2 9 3 9 2 9 3 8 3 9 
2 7 3 8 2 7 3 8 3 7 2 6 3 7 2 6 
3 6 3 6 2 5 3 6 2 5 3 5 3 5 2 4 
3 5 3 4 2 4 3 4 2 4 3 3 3 4 2 3 
3 3 2 4 3 3 3 2 2 3 3 3 2 2 3 2 
3 3 2 2 3 2 2 2 3 2 3 1 2 2 3 2 
2 1 3 2 3 1 2 1 3 2 2 1 3 1 3 1 
2 1 3 1 2 0 3 1 3 1 2 0 3 1 2 1 
3 0 3 1 2 0 3 0 2 1 3 0 3 0 2 0 
3 0 2 0 3 0 1133 2859 220 MP stroke
1 53 3 108 2 111 3 111 2 110 3 107 3 103 2 98 
3 92 2 88 3 82 3 78 2 72 3 68 3 63 2 58 
3 54 2 50 3 46 3 42 2 38 3 35 2 31 3 27 
3 25 2 21 3 18 2 15 3 13 3 9 2 6 3 4 
2 0 3 -2 3 -4 2 -8 3 -10 2 -13 3 -15 3 -18 
2 -21 3 -24 2 -26 3 -29 3 -32 2 -34 3 -38 2 -40 
3 -43 3 -47 2 -50 3 -53 2 -56 3 -60 3 -64 2 -68 
3 -71 2 -77 3 -81 3 -86 2 -91 3 -98 2 -104 3 -110 
3 -119 2 -128 3 -116 1776 4480 68 MP stroke
2 42 2 77 3 77 2 76 3 74 3 72 2 70 3 67 
2 65 3 61 3 58 2 55 3 52 2 47 3 45 3 40 
2 37 3 34 2 29 3 25 3 22 2 18 3 13 3 10 
2 6 3 1 2 -3 3 -7 3 -12 2 -16 3 -21 2 -25 
3 -30 3 -35 2 -40 3 -46 2 -51 3 -56 3 -62 2 -67 
3 -73 2 -78 3 -84 3 -88 2 -93 3 -94 2 -96 3 -92 
0 -4 1974 4480 50 MP stroke
0 34 3 131 2 122 3 114 3 105 2 97 3 90 2 82 
3 75 3 70 2 63 3 57 2 52 3 47 3 42 2 37 
3 33 2 29 3 25 3 20 2 17 3 13 2 9 3 6 
3 2 2 -1 3 -5 3 -8 2 -11 3 -13 2 -17 3 -20 
3 -22 2 -24 3 -27 2 -29 3 -31 3 -33 2 -34 3 -35 
2 -36 3 -37 3 -37 2 -38 3 -37 2 -37 3 -36 3 -36 
2 -34 3 -34 2 -32 3 -31 3 -30 2 -29 3 -28 2 -27 
3 -27 3 -26 2 -26 3 -27 2 -27 3 -28 3 -29 2 -29 
3 -31 2 -33 3 -34 3 -36 2 -37 3 -39 2 -40 3 -42 
1 -12 2184 4480 74 MP stroke
2 280 3 279 2 229 3 190 3 158 2 133 3 110 2 92 
3 74 3 59 2 45 3 31 2 19 3 7 3 -4 2 -15 
3 -26 2 -36 3 -47 3 -56 2 -67 3 -76 2 -86 3 -95 
3 -104 2 -113 3 -119 3 -125 2 -129 3 -128 2 -122 3 -113 
3 -95 2 -72 3 -44 2 -15 3 12 3 35 2 52 3 63 
2 69 3 72 3 71 2 69 3 66 2 63 3 59 3 57 
2 53 3 51 2 48 3 46 3 45 2 42 3 41 2 39 
3 38 3 35 2 33 3 31 2 27 3 25 3 22 2 18 
3 13 2 10 3 5 3 1 2 -5 3 -9 2 -16 3 -20 
3 -27 2 -33 3 -40 2 -46 3 -53 3 -60 2 -68 3 -76 
3 -85 2 -93 3 -102 2 -112 3 -121 3 -132 2 -140 2 -92 
2407 4480 89 MP stroke
1 104 2 301 3 246 2 204 3 171 3 142 2 118 3 96 
2 77 3 58 3 42 2 25 3 9 3 -6 2 -23 3 -39 
2 -56 3 -75 3 -95 2 -117 3 -142 2 -172 3 -208 3 -254 
2 -314 1 -92 2658 4480 27 MP stroke
1 36 3 112 2 111 3 109 2 107 3 104 3 100 2 97 
3 93 3 87 2 82 3 77 2 71 3 64 3 58 2 51 
3 44 2 36 3 29 3 20 2 11 3 1 2 -8 3 -19 
3 -30 2 -43 3 -56 2 -72 3 -88 3 -107 2 -128 3 -155 
2 -186 3 -225 3 -274 0 -109 2747 4480 37 MP stroke
0 19 3 653 3 509 2 412 3 345 2 294 3 255 3 224 
2 198 3 175 2 155 3 139 3 123 2 109 3 97 2 84 
3 73 3 62 2 53 3 43 2 33 3 25 3 16 2 7 
3 0 3 -9 2 -18 3 -25 2 -33 3 -42 3 -50 2 -57 
3 -66 2 -75 3 -83 3 -92 2 -101 3 -110 2 -121 3 -130 
3 -141 2 -152 3 -165 2 -177 3 -191 3 -206 2 -223 3 -242 
2 -263 3 -287 3 -315 2 -349 3 -380 2880 4480 54 MP stroke
2 157 2 202 3 188 3 173 2 159 3 142 2 125 3 109 
3 92 2 74 3 56 2 37 3 17 3 -4 2 -28 3 -53 
2 -83 3 -119 3 -160 2 -216 3 -287 2 -392 1 -189 3028 4480 24 MP stroke
0 15 2 179 3 166 3 149 2 129 3 108 2 87 3 67 
3 48 2 29 3 10 2 -8 3 -25 3 -44 2 -61 3 -79 
2 -97 3 -116 3 -134 2 -154 3 -174 1 -95 3129 4480 23 MP stroke
1 81 2 127 3 90 3 56 2 24 3 -6 3 -34 2 -62 
3 -87 2 -112 2 -77 3204 4480 12 MP stroke
1 42 3 160 2 171 3 175 3 173 2 168 3 158 2 148 
3 136 3 122 2 110 3 96 2 82 3 69 3 55 2 42 
3 27 2 14 3 -1 3 -15 2 -31 3 -46 2 -62 3 -80 
3 -98 2 -119 3 -141 2 -165 3 -193 3 -225 2 -260 3 -299 
1 -213 3254 4480 34 MP stroke
3 339 2 276 3 221 2 177 3 141 3 108 2 81 3 57 
2 35 3 15 3 -4 2 -22 3 -39 2 -54 3 -70 3 -85 
2 -98 3 -110 2 -123 3 -131 3 -139 2 -143 3 -144 2 -140 
3 -132 0 -16 3362 4480 27 MP stroke
1 287 3 349 3 292 2 247 3 212 2 181 3 156 3 132 
2 112 3 93 2 75 3 58 3 42 2 25 3 10 2 -6 
3 -22 3 -39 2 -56 3 -75 3 -94 2 -115 3 -140 2 -167 
3 -198 3 -235 2 -280 3 -335 2 -400 1 -109 3442 4480 31 MP stroke
2 107 2 184 3 180 2 168 3 153 3 137 2 119 3 103 
2 86 3 71 3 55 2 40 3 26 3 13 2 -1 3 -14 
2 -26 3 -38 3 -49 2 -60 3 -68 2 -74 3 -79 3 -80 
2 -76 3 -69 2 -55 3 -38 3 -19 2 1 3 18 2 33 
3 41 3 45 2 45 3 43 2 38 3 30 3 23 2 15 
3 8 2 -1 3 -6 3 -13 2 -16 3 -19 2 -20 3 -19 
3 -17 2 -13 3 -9 2 -4 3 0 3 3 2 5 3 6 
2 5 3 1 3 -2 2 -8 3 -15 3 -21 2 -29 3 -36 
2 -42 3 -48 3 -51 2 -54 3 -52 2 -50 3 -44 3 -36 
2 -28 3 -19 2 -13 3 -9 3 -10 2 -14 3 -25 2 -38 
3 -58 3 -84 2 -116 0 -17 3547 4480 85 MP stroke
0 14 3 87 3 84 2 74 3 62 2 47 3 31 3 13 
2 -6 3 -24 2 -43 3 -62 3 -81 2 -97 3 -99 3781 4480 16 MP stroke
3 155 2 135 3 114 2 94 3 77 3 59 2 43 3 26 
3 11 2 -4 3 -19 2 -35 3 -49 3 -63 2 -77 3 -90 
2 -99 3 -106 3 -107 1 -65 3837 4480 21 MP stroke
1 65 3 131 3 142 2 147 3 146 2 143 3 139 3 133 
2 126 3 119 2 111 3 105 3 97 2 89 3 82 3 74 
2 67 3 59 2 52 3 44 3 37 2 28 3 21 2 13 
3 4 3 -3 2 -12 3 -21 2 -29 3 -39 3 -48 2 -57 
3 -66 2 -76 3 -85 3 -94 2 -102 3 -108 2 -112 3 -110 
3 -105 2 -91 3 -70 2 -42 3 -9 3 23 2 51 3 72 
2 84 3 90 3 89 2 86 3 78 2 69 3 60 3 50 
2 39 3 28 2 17 3 7 3 -4 2 -15 3 -26 3 -37 
2 -48 3 -60 2 -70 3 -82 3 -94 2 -106 3 -118 2 -130 
3 -143 3 -156 2 -169 3 -181 2 -192 2 -107 3954 4480 79 MP stroke
3 366 2 327 3 270 2 228 3 195 3 168 2 146 3 127 
3 110 2 97 3 83 2 71 3 61 3 50 2 42 3 32 
2 25 3 17 3 9 2 2 3 -4 2 -11 3 -18 3 -23 
2 -29 3 -35 2 -41 3 -46 3 -51 2 -57 3 -61 2 -66 
3 -72 3 -76 2 -80 3 -86 2 -89 3 -95 3 -99 2 -103 
3 -107 2 -111 3 -113 3 -115 2 -114 3 -111 2 -105 3 -93 
3 -76 2 -55 3 -30 2 -1 3 24 3 48 2 65 3 78 
3 84 2 87 3 86 2 82 3 77 3 71 2 64 3 55 
2 48 3 39 3 31 2 23 3 14 2 6 3 -3 3 -11 
2 -20 3 -28 2 -36 3 -45 3 -54 2 -62 3 -71 2 -79 
3 -87 3 -95 2 -103 3 -109 2 -113 3 -115 3 -112 2 -92 
4172 4480 89 MP stroke
2 62 2 111 3 109 2 107 3 104 3 101 2 99 3 97 
3 94 2 93 3 90 2 87 3 85 3 82 2 78 3 75 
2 71 3 67 3 62 2 57 3 53 2 46 3 41 3 35 
2 28 3 22 2 15 3 7 3 0 2 -9 3 -17 2 -26 
3 -36 3 -47 2 -58 3 -71 2 -84 3 -101 3 -118 2 -139 
3 -165 2 -194 3 -233 3 -284 2 -355 0 -41 4422 4480 47 MP stroke
0 47 3 171 2 151 3 134 3 118 2 105 3 92 3 80 
2 71 3 60 2 51 3 42 3 33 2 26 3 17 2 9 
3 1 3 -7 2 -14 3 -22 2 -30 3 -38 3 -46 2 -54 
3 -62 2 -70 3 -79 3 -88 2 -96 3 -105 2 -113 3 -120 
3 -126 2 -129 0 -9 4573 4480 36 MP stroke
2 83 3 118 2 114 3 110 3 105 2 102 3 97 2 94 
3 90 3 86 2 83 3 79 2 75 3 72 3 69 2 65 
3 62 2 58 3 56 3 52 2 49 3 46 2 42 3 40 
3 37 2 34 3 30 3 28 2 25 3 22 2 20 3 16 
3 14 2 11 3 9 2 6 3 3 3 1 2 -2 3 -4 
2 -7 3 -9 3 -11 2 -14 3 -15 2 -18 3 -20 3 -21 
2 -24 3 -25 2 -26 3 -28 3 -29 2 -31 3 -31 2 -32 
3 -32 3 -33 2 -33 3 -32 2 -33 3 -32 3 -31 2 -31 
3 -30 2 -28 3 -28 3 -26 2 -25 3 -23 2 -22 3 -21 
3 -19 2 -18 3 -18 2 -17 3 -16 3 -15 2 -15 3 -16 
3 -16 2 -16 3 -17 2 -18 3 -20 3 -21 2 -23 3 -26 
2 -28 3 -32 3 -35 2 -38 3 -44 2 -48 3 -53 3 -60 
2 -67 3 -75 2 -83 3 -94 3 -105 2 -119 3 -124 4708 4480 104 MP stroke
1 72 3 94 3 88 2 81 3 76 2 71 3 66 3 61 
2 57 3 52 3 49 2 44 3 41 2 37 3 34 3 30 
2 27 3 24 2 21 3 17 3 14 2 12 3 8 2 5 
3 2 3 0 2 -4 3 -7 2 -9 3 -13 3 -15 2 -19 
3 -21 2 -25 3 -28 3 -30 2 -34 3 -37 2 -41 3 -43 
3 -47 2 -50 3 -54 2 -57 3 -61 3 -65 2 -68 3 -73 
2 -76 3 -80 3 -84 1 -42 5061 4480 53 MP stroke
3 0 2 0 3 1 2 0 3 0 3 0 2 0 3 1 
2 0 3 1 3 0 2 1 3 0 2 1 3 0 3 1 
2 0 3 1 2 1 3 1 3 0 2 1 3 1 2 1 
3 1 3 1 2 0 3 1 2 1 3 1 3 1 2 1 
3 1 2 0 3 1 3 1 2 1 3 1 2 0 3 1 
3 1 2 0 3 1 2 0 3 1 3 0 2 1 3 0 
2 0 3 0 3 0 2 0 3 0 3 -1 2 0 3 -1 
2 0 3 -1 3 -1 2 -1 3 -1 2 -2 3 -1 3 -2 
2 -2 3 -2 2 -3 3 -2 3 -3 2 -3 3 -3 2 -3 
3 -4 3 -4 2 -4 3 -5 2 -5 3 -5 3 -5 2 -6 
3 -6 2 -6 3 -7 3 -7 2 -8 3 -8 2 -8 3 -9 
3 -9 2 -10 3 -10 2 -11 3 -11 3 -11 2 -13 3 -12 
2 -14 3 -13 3 -15 2 -15 3 -16 3 -17 2 -17 3 -18 
2 -18 3 -20 3 -20 2 -21 3 -22 2 -23 3 -24 3 -25 
2 -26 3 -27 2 -28 3 -29 3 -31 2 -31 3 -33 2 -35 
3 -36 3 -37 2 -39 3 -41 2 -42 3 -44 3 -46 2 -48 
3 -51 2 -52 3 -56 3 -57 2 -61 3 -63 2 -67 3 -70 
3 -74 0 -12 5463 4480 139 MP stroke
gr

13.2 w
c9
DD
0 sg
3027 4845 mt 
(DOA Angle [) s
%%IncludeResource: font Helvetica
/Helvetica /ISOLatin1Encoding 108 FMSR

3824 4773 mt 
(o) s
%%IncludeResource: font Helvetica
/Helvetica /ISOLatin1Encoding 144 FMSR

3884 4845 mt 
(]) s
 507 2970 mt  -90 rotate
(10log10\(||z) s
90 rotate
%%IncludeResource: font Helvetica
/Helvetica /ISOLatin1Encoding 108 FMSR

 435 2263 mt  -90 rotate
(H) s
90 rotate
%%IncludeResource: font Helvetica
/Helvetica /ISOLatin1Encoding 144 FMSR

 507 2186 mt  -90 rotate
(a||) s
90 rotate
%%IncludeResource: font Helvetica
/Helvetica /ISOLatin1Encoding 108 FMSR

 435 2032 mt  -90 rotate
(2) s
90 rotate
%%IncludeResource: font Helvetica
/Helvetica /ISOLatin1Encoding 144 FMSR

 507 1972 mt  -90 rotate
(\) ) s
90 rotate
%%IncludeResource: font Helvetica
/Helvetica /ISOLatin1Encoding 120 FMSR

 856 4522 mt 
( ) s
6065  419 mt 
( ) s
SO
6 w
1 sg
0 564 1802 0 0 -564 4220 1001 4 MP
PP
-1802 0 0 564 1802 0 0 -564 4220 1001 5 MP stroke
4 w
DO
SO
6 w
0 sg
4220 1001 mt 6022 1001 L
4220  437 mt 6022  437 L
4220 1001 mt 4220  437 L
6022 1001 mt 6022  437 L
4220 1001 mt 6022 1001 L
4220 1001 mt 4220  437 L
4220 1001 mt 6022 1001 L
4220  437 mt 6022  437 L
4220 1001 mt 4220  437 L
6022 1001 mt 6022  437 L
%%IncludeResource: font Helvetica
/Helvetica /ISOLatin1Encoding 144 FMSR

4671  595 mt 
(Convex Method) s
gs 4220 437 1803 565 rc
13.2 w
c8
347 0 4289 543 2 MP stroke
gr

13.2 w
c8
0 sg
4671  771 mt 
(Submodular Method) s
gs 4220 437 1803 565 rc
DA
347 0 4289 719 2 MP stroke
SO
gr

4671  946 mt 
(Output SNR Greedy) s
gs 4220 437 1803 565 rc
DD
c9
347 0 4289 894 2 MP stroke
SO
6 w
gr

6 w
c9

end %%Color Dict

eplot
%%EndObject

epage
end

showpage

%%Trailer
%%EOF
