%!PS-Adobe-3.0 EPSF-3.0
%%Creator: MATLAB, The MathWorks, Inc. Version 8.1.0.604 (R2013a). Operating System: Darwin 15.0.0 Darwin Kernel Version 15.0.0: Sat Sep 19 15:53:46 PDT 2015; root:xnu-3247.10.11~1/RELEASE_X86_64 x86_64.
%%Title: /Users/fruzti/Dropbox/PhD/SubmodularityMVDR/figureConference/budgetConsumption.eps
%%CreationDate: 02/10/2017  11:56:30
%%DocumentNeededFonts: Helvetica
%%DocumentProcessColors: Cyan Magenta Yellow Black
%%LanguageLevel: 2
%%Pages: 1
%%BoundingBox:    26   186   585   606
%%EndComments

%%BeginProlog
% MathWorks dictionary
/MathWorks 160 dict begin
% definition operators
/bdef {bind def} bind def
/ldef {load def} bind def
/xdef {exch def} bdef
/xstore {exch store} bdef
% operator abbreviations
/c  /clip ldef
/cc /concat ldef
/cp /closepath ldef
/gr /grestore ldef
/gs /gsave ldef
/mt /moveto ldef
/np /newpath ldef
/cm /currentmatrix ldef
/sm /setmatrix ldef
/rm /rmoveto ldef
/rl /rlineto ldef
/s {show newpath} bdef
/sc {setcmykcolor} bdef
/sr /setrgbcolor ldef
/sg /setgray ldef
/w /setlinewidth ldef
/j /setlinejoin ldef
/cap /setlinecap ldef
/rc {rectclip} bdef
/rf {rectfill} bdef
% page state control
/pgsv () def
/bpage {/pgsv save def} bdef
/epage {pgsv restore} bdef
/bplot /gsave ldef
/eplot {stroke grestore} bdef
% orientation switch
/portraitMode 0 def /landscapeMode 1 def /rotateMode 2 def
% coordinate system mappings
/dpi2point 0 def
% font control
/FontSize 0 def
/FMS {/FontSize xstore findfont [FontSize 0 0 FontSize neg 0 0]
  makefont setfont} bdef
/reencode {exch dup where {pop load} {pop StandardEncoding} ifelse
  exch dup 3 1 roll findfont dup length dict begin
  { 1 index /FID ne {def}{pop pop} ifelse } forall
  /Encoding exch def currentdict end definefont pop} bdef
/isroman {findfont /CharStrings get /Agrave known} bdef
/FMSR {3 1 roll 1 index dup isroman {reencode} {pop pop} ifelse
  exch FMS} bdef
/csm {1 dpi2point div -1 dpi2point div scale neg translate
 dup landscapeMode eq {pop -90 rotate}
  {rotateMode eq {90 rotate} if} ifelse} bdef
% line types: solid, dotted, dashed, dotdash
/SO { [] 0 setdash } bdef
/DO { [.5 dpi2point mul 4 dpi2point mul] 0 setdash } bdef
/DA { [6 dpi2point mul] 0 setdash } bdef
/DD { [.5 dpi2point mul 4 dpi2point mul 6 dpi2point mul 4
  dpi2point mul] 0 setdash } bdef
% macros for lines and objects
/L {lineto stroke} bdef
/MP {3 1 roll moveto 1 sub {rlineto} repeat} bdef
/AP {{rlineto} repeat} bdef
/PDlw -1 def
/W {/PDlw currentlinewidth def setlinewidth} def
/PP {closepath eofill} bdef
/DP {closepath stroke} bdef
/MR {4 -2 roll moveto dup  0 exch rlineto exch 0 rlineto
  neg 0 exch rlineto closepath} bdef
/FR {MR stroke} bdef
/PR {MR fill} bdef
/L1i {{currentfile picstr readhexstring pop} image} bdef
/tMatrix matrix def
/MakeOval {newpath tMatrix currentmatrix pop translate scale
0 0 1 0 360 arc tMatrix setmatrix} bdef
/FO {MakeOval stroke} bdef
/PO {MakeOval fill} bdef
/PD {currentlinewidth 2 div 0 360 arc fill
   PDlw -1 eq not {PDlw w /PDlw -1 def} if} def
/FA {newpath tMatrix currentmatrix pop translate scale
  0 0 1 5 -2 roll arc tMatrix setmatrix stroke} bdef
/PA {newpath tMatrix currentmatrix pop	translate 0 0 moveto scale
  0 0 1 5 -2 roll arc closepath tMatrix setmatrix fill} bdef
/FAn {newpath tMatrix currentmatrix pop translate scale
  0 0 1 5 -2 roll arcn tMatrix setmatrix stroke} bdef
/PAn {newpath tMatrix currentmatrix pop translate 0 0 moveto scale
  0 0 1 5 -2 roll arcn closepath tMatrix setmatrix fill} bdef
/vradius 0 def /hradius 0 def /lry 0 def
/lrx 0 def /uly 0 def /ulx 0 def /rad 0 def
/MRR {/vradius xdef /hradius xdef /lry xdef /lrx xdef /uly xdef
  /ulx xdef newpath tMatrix currentmatrix pop ulx hradius add uly
  vradius add translate hradius vradius scale 0 0 1 180 270 arc 
  tMatrix setmatrix lrx hradius sub uly vradius add translate
  hradius vradius scale 0 0 1 270 360 arc tMatrix setmatrix
  lrx hradius sub lry vradius sub translate hradius vradius scale
  0 0 1 0 90 arc tMatrix setmatrix ulx hradius add lry vradius sub
  translate hradius vradius scale 0 0 1 90 180 arc tMatrix setmatrix
  closepath} bdef
/FRR {MRR stroke } bdef
/PRR {MRR fill } bdef
/MlrRR {/lry xdef /lrx xdef /uly xdef /ulx xdef /rad lry uly sub 2 div def
  newpath tMatrix currentmatrix pop ulx rad add uly rad add translate
  rad rad scale 0 0 1 90 270 arc tMatrix setmatrix lrx rad sub lry rad
  sub translate rad rad scale 0 0 1 270 90 arc tMatrix setmatrix
  closepath} bdef
/FlrRR {MlrRR stroke } bdef
/PlrRR {MlrRR fill } bdef
/MtbRR {/lry xdef /lrx xdef /uly xdef /ulx xdef /rad lrx ulx sub 2 div def
  newpath tMatrix currentmatrix pop ulx rad add uly rad add translate
  rad rad scale 0 0 1 180 360 arc tMatrix setmatrix lrx rad sub lry rad
  sub translate rad rad scale 0 0 1 0 180 arc tMatrix setmatrix
  closepath} bdef
/FtbRR {MtbRR stroke } bdef
/PtbRR {MtbRR fill } bdef
/stri 6 array def /dtri 6 array def
/smat 6 array def /dmat 6 array def
/tmat1 6 array def /tmat2 6 array def /dif 3 array def
/asub {/ind2 exch def /ind1 exch def dup dup
  ind1 get exch ind2 get sub exch } bdef
/tri_to_matrix {
  2 0 asub 3 1 asub 4 0 asub 5 1 asub
  dup 0 get exch 1 get 7 -1 roll astore } bdef
/compute_transform {
  dmat dtri tri_to_matrix tmat1 invertmatrix 
  smat stri tri_to_matrix tmat2 concatmatrix } bdef
/ds {stri astore pop} bdef
/dt {dtri astore pop} bdef
/db {2 copy /cols xdef /rows xdef mul dup 3 mul string
  currentfile 
  3 index 0 eq {/ASCIIHexDecode filter}
  {/ASCII85Decode filter 3 index 2 eq {/RunLengthDecode filter} if }
  ifelse exch readstring pop
  dup 0 3 index getinterval /rbmap xdef
  dup 2 index dup getinterval /gbmap xdef
  1 index dup 2 mul exch getinterval /bbmap xdef pop pop}bdef
/it {gs np dtri aload pop moveto lineto lineto cp c
  cols rows 8 compute_transform 
  rbmap gbmap bbmap true 3 colorimage gr}bdef
/il {newpath moveto lineto stroke}bdef
currentdict end def
%%EndProlog

%%BeginSetup
MathWorks begin

0 cap

end
%%EndSetup

%%Page: 1 1
%%BeginPageSetup
%%PageBoundingBox:    26   186   585   606
MathWorks begin
bpage
%%EndPageSetup

%%BeginObject: obj1
bplot

/dpi2point 12 def
portraitMode 0312 7272 csm

    0     0  6719  5033 rc
87 dict begin %Colortable dictionary
/c0 { 0.000000 0.000000 0.000000 sr} bdef
/c1 { 1.000000 1.000000 1.000000 sr} bdef
/c2 { 0.900000 0.000000 0.000000 sr} bdef
/c3 { 0.000000 0.820000 0.000000 sr} bdef
/c4 { 0.000000 0.000000 0.800000 sr} bdef
/c5 { 0.910000 0.820000 0.320000 sr} bdef
/c6 { 1.000000 0.260000 0.820000 sr} bdef
/c7 { 0.000000 0.820000 0.820000 sr} bdef
c0
1 j
1 sg
   0    0 6720 5034 rf
6 w
0 4102 5208 0 0 -4102 873 4479 4 MP
PP
-5208 0 0 4102 5208 0 0 -4102 873 4479 5 MP stroke
4 w
DO
0 sg
 873 4479 mt  873  377 L
 873  377 mt  873  377 L
1393 4479 mt 1393  377 L
1393  377 mt 1393  377 L
1914 4479 mt 1914  377 L
1914  377 mt 1914  377 L
2435 4479 mt 2435  377 L
2435  377 mt 2435  377 L
2956 4479 mt 2956  377 L
2956  377 mt 2956  377 L
3477 4479 mt 3477  377 L
3477  377 mt 3477  377 L
3997 4479 mt 3997  377 L
3997  377 mt 3997  377 L
4518 4479 mt 4518  377 L
4518  377 mt 4518  377 L
5039 4479 mt 5039  377 L
5039  377 mt 5039  377 L
5560 4479 mt 5560  377 L
5560  377 mt 5560  377 L
6081 4479 mt 6081  377 L
6081  377 mt 6081  377 L
 873 4479 mt 6081 4479 L
6081 4479 mt 6081 4479 L
 873 3966 mt 6081 3966 L
6081 3966 mt 6081 3966 L
 873 3453 mt 6081 3453 L
6081 3453 mt 6081 3453 L
 873 2940 mt 6081 2940 L
6081 2940 mt 6081 2940 L
 873 2428 mt 6081 2428 L
6081 2428 mt 6081 2428 L
 873 1915 mt 6081 1915 L
6081 1915 mt 6081 1915 L
 873 1402 mt 6081 1402 L
6081 1402 mt 6081 1402 L
 873  889 mt 6081  889 L
6081  889 mt 6081  889 L
 873  377 mt 6081  377 L
6081  377 mt 6081  377 L
SO
6 w
 873 4479 mt 6081 4479 L
 873 4479 mt  873  377 L
 873 4479 mt  873 4426 L
%%IncludeResource: font Helvetica
/Helvetica /ISOLatin1Encoding 144 FMSR

 833 4647 mt 
(0) s
1393 4479 mt 1393 4426 L
1353 4647 mt 
(5) s
1914 4479 mt 1914 4426 L
1834 4647 mt 
(10) s
2435 4479 mt 2435 4426 L
2355 4647 mt 
(15) s
2956 4479 mt 2956 4426 L
2876 4647 mt 
(20) s
3477 4479 mt 3477 4426 L
3397 4647 mt 
(25) s
3997 4479 mt 3997 4426 L
3917 4647 mt 
(30) s
4518 4479 mt 4518 4426 L
4438 4647 mt 
(35) s
5039 4479 mt 5039 4426 L
4959 4647 mt 
(40) s
5560 4479 mt 5560 4426 L
5480 4647 mt 
(45) s
6081 4479 mt 6081 4426 L
6001 4647 mt 
(50) s
 873 4479 mt  925 4479 L
 758 4532 mt 
(0) s
 873 3966 mt  925 3966 L
 678 4019 mt 
(20) s
 873 3453 mt  925 3453 L
 678 3506 mt 
(40) s
 873 2940 mt  925 2940 L
 678 2993 mt 
(60) s
 873 2428 mt  925 2428 L
 678 2481 mt 
(80) s
 873 1915 mt  925 1915 L
 598 1968 mt 
(100) s
 873 1402 mt  925 1402 L
 598 1455 mt 
(120) s
 873  889 mt  925  889 L
 598  942 mt 
(140) s
 873  377 mt  925  377 L
 598  430 mt 
(160) s
gs 873 377 5209 4103 rc
13.2 w
/c8 { 0.000000 1.000000 0.000000 sr} bdef
c8
1042 -468 1041 -1022 1042 -1578 1041 -903 977 4380 5 MP stroke
gr

13.2 w
c8
0 j
-41 71 -41 -71 82 0 936 4404 4 MP
DP
-41 71 -41 -71 82 0 1977 3501 4 MP
DP
-41 71 -41 -71 82 0 3019 1923 4 MP
DP
-41 71 -41 -71 82 0 4060 901 4 MP
DP
-41 71 -41 -71 82 0 5102 433 4 MP
DP
gs 873 377 5209 4103 rc
/c9 { 1.000000 0.000000 1.000000 sr} bdef
c9
105 0 104 0 104 0 104 0 104 0 104 0 105 0 104 0 
104 0 104 0 104 0 104 -219 105 -52 104 -123 104 -205 104 -154 
104 -107 104 -28 105 -179 104 -148 104 -168 104 -108 104 -198 104 -230 
104 -151 105 -142 104 -169 104 -134 104 -76 104 -104 104 -117 105 -167 
104 -115 104 -52 104 -98 104 -193 104 -94 105 -55 104 -66 104 -79 
104 -43 104 -63 104 -31 105 -49 104 -25 104 -15 104 -18 104 -15 
104 -15 977 4465 50 MP stroke
gr

c9
  36   36  977 4465 FO
  36   36 1081 4450 FO
  36   36 1185 4435 FO
  36   36 1289 4417 FO
  36   36 1393 4402 FO
  36   36 1497 4377 FO
  36   36 1602 4328 FO
  36   36 1706 4297 FO
  36   36 1810 4234 FO
  36   36 1914 4191 FO
  36   36 2018 4112 FO
  36   36 2122 4046 FO
  36   36 2227 3991 FO
  36   36 2331 3897 FO
  36   36 2435 3704 FO
  36   36 2539 3606 FO
  36   36 2643 3554 FO
  36   36 2747 3439 FO
  36   36 2852 3272 FO
  36   36 2956 3155 FO
  36   36 3060 3051 FO
  36   36 3164 2975 FO
  36   36 3268 2841 FO
  36   36 3372 2672 FO
  36   36 3477 2530 FO
  36   36 3581 2379 FO
  36   36 3685 2149 FO
  36   36 3789 1951 FO
  36   36 3893 1843 FO
  36   36 3997 1675 FO
  36   36 4101 1527 FO
  36   36 4206 1348 FO
  36   36 4310 1320 FO
  36   36 4414 1213 FO
  36   36 4518 1059 FO
  36   36 4622  854 FO
  36   36 4726  731 FO
  36   36 4831  679 FO
  36   36 4935  460 FO
  36   36 5039  460 FO
  36   36 5143  460 FO
  36   36 5247  460 FO
  36   36 5351  460 FO
  36   36 5456  460 FO
  36   36 5560  460 FO
  36   36 5664  460 FO
  36   36 5768  460 FO
  36   36 5872  460 FO
  36   36 5976  460 FO
  36   36 6081  460 FO
gs 873 377 5209 4103 rc
0 sg
105 0 104 0 104 0 104 0 104 0 104 0 105 0 104 0 
104 0 104 -179 104 -169 104 -168 105 -167 104 -163 104 -154 104 -153 
104 -151 104 -150 105 -148 104 -145 104 -142 104 -136 104 -135 104 -123 
104 -117 105 -116 104 -108 104 -107 104 -105 104 -104 104 -98 105 -94 
104 -94 104 -78 104 -76 104 -66 104 -63 105 -55 104 -52 104 -52 
104 -49 104 -43 104 -32 105 -27 104 -25 104 -17 104 -16 104 -15 
104 -15 977 4465 50 MP stroke
gr

0 sg
0 -58 -58 0 0 58 58 0 948 4436 5 MP
DP
0 -58 -58 0 0 58 58 0 1052 4421 5 MP
DP
0 -58 -58 0 0 58 58 0 1156 4406 5 MP
DP
0 -58 -58 0 0 58 58 0 1260 4390 5 MP
DP
0 -58 -58 0 0 58 58 0 1364 4373 5 MP
DP
0 -58 -58 0 0 58 58 0 1468 4348 5 MP
DP
0 -58 -58 0 0 58 58 0 1573 4321 5 MP
DP
0 -58 -58 0 0 58 58 0 1677 4289 5 MP
DP
0 -58 -58 0 0 58 58 0 1781 4246 5 MP
DP
0 -58 -58 0 0 58 58 0 1885 4197 5 MP
DP
0 -58 -58 0 0 58 58 0 1989 4145 5 MP
DP
0 -58 -58 0 0 58 58 0 2093 4093 5 MP
DP
0 -58 -58 0 0 58 58 0 2198 4038 5 MP
DP
0 -58 -58 0 0 58 58 0 2302 3975 5 MP
DP
0 -58 -58 0 0 58 58 0 2406 3909 5 MP
DP
0 -58 -58 0 0 58 58 0 2510 3833 5 MP
DP
0 -58 -58 0 0 58 58 0 2614 3755 5 MP
DP
0 -58 -58 0 0 58 58 0 2718 3661 5 MP
DP
0 -58 -58 0 0 58 58 0 2823 3567 5 MP
DP
0 -58 -58 0 0 58 58 0 2927 3469 5 MP
DP
0 -58 -58 0 0 58 58 0 3031 3365 5 MP
DP
0 -58 -58 0 0 58 58 0 3135 3260 5 MP
DP
0 -58 -58 0 0 58 58 0 3239 3153 5 MP
DP
0 -58 -58 0 0 58 58 0 3343 3045 5 MP
DP
0 -58 -58 0 0 58 58 0 3448 2929 5 MP
DP
0 -58 -58 0 0 58 58 0 3552 2812 5 MP
DP
0 -58 -58 0 0 58 58 0 3656 2689 5 MP
DP
0 -58 -58 0 0 58 58 0 3760 2554 5 MP
DP
0 -58 -58 0 0 58 58 0 3864 2418 5 MP
DP
0 -58 -58 0 0 58 58 0 3968 2276 5 MP
DP
0 -58 -58 0 0 58 58 0 4072 2131 5 MP
DP
0 -58 -58 0 0 58 58 0 4177 1983 5 MP
DP
0 -58 -58 0 0 58 58 0 4281 1833 5 MP
DP
0 -58 -58 0 0 58 58 0 4385 1682 5 MP
DP
0 -58 -58 0 0 58 58 0 4489 1529 5 MP
DP
0 -58 -58 0 0 58 58 0 4593 1375 5 MP
DP
0 -58 -58 0 0 58 58 0 4697 1212 5 MP
DP
0 -58 -58 0 0 58 58 0 4802 1045 5 MP
DP
0 -58 -58 0 0 58 58 0 4906 877 5 MP
DP
0 -58 -58 0 0 58 58 0 5010 708 5 MP
DP
0 -58 -58 0 0 58 58 0 5114 529 5 MP
DP
0 -58 -58 0 0 58 58 0 5218 529 5 MP
DP
0 -58 -58 0 0 58 58 0 5322 529 5 MP
DP
0 -58 -58 0 0 58 58 0 5427 529 5 MP
DP
0 -58 -58 0 0 58 58 0 5531 529 5 MP
DP
0 -58 -58 0 0 58 58 0 5635 529 5 MP
DP
0 -58 -58 0 0 58 58 0 5739 529 5 MP
DP
0 -58 -58 0 0 58 58 0 5843 529 5 MP
DP
0 -58 -58 0 0 58 58 0 5947 529 5 MP
DP
0 -58 -58 0 0 58 58 0 6052 529 5 MP
DP
gs 873 377 5209 4103 rc
DA
/c10 { 1.000000 0.000000 0.000000 sr} bdef
c10
1042 0 1041 0 1042 0 1041 0 977 385 5 MP stroke
gr

c10
DA
0 sg
2760 4808 mt 
(Number of Sensors [k]) s
 511 3025 mt  -90 rotate
(Budget Consumed) s
90 rotate
%%IncludeResource: font Helvetica
/Helvetica /ISOLatin1Encoding 120 FMSR

 856 4522 mt 
( ) s
6065  419 mt 
( ) s
SO
6 w
1 sg
0 738 1802 0 0 -738 4220 4420 4 MP
PP
-1802 0 0 738 1802 0 0 -738 4220 4420 5 MP stroke
4 w
DO
SO
6 w
0 sg
4220 4420 mt 6022 4420 L
4220 3682 mt 6022 3682 L
4220 4420 mt 4220 3682 L
6022 4420 mt 6022 3682 L
4220 4420 mt 6022 4420 L
4220 4420 mt 4220 3682 L
4220 4420 mt 6022 4420 L
4220 3682 mt 6022 3682 L
4220 4420 mt 4220 3682 L
6022 4420 mt 6022 3682 L
%%IncludeResource: font Helvetica
/Helvetica /ISOLatin1Encoding 144 FMSR

4671 3839 mt 
(Convex Method) s
gs 4220 3682 1803 739 rc
13.2 w
c8
347 0 4289 3788 2 MP stroke
gs 4375 3701 176 175 rc
-41 71 -41 -71 82 0 4421 3812 4 MP
DP
gr

gr

13.2 w
c8
0 sg
4671 4015 mt 
(Submodular Method) s
gs 4220 3682 1803 739 rc
347 0 4289 3963 2 MP stroke
gs 4375 3876 176 175 rc
0 -58 -58 0 0 58 58 0 4433 3934 5 MP
DP
gr

gr

4671 4190 mt 
(Output SNR Greedy) s
gs 4220 3682 1803 739 rc
c9
347 0 4289 4138 2 MP stroke
gs 4375 4051 176 175 rc
  36   36 4462 4138 FO
gr

gr

c9
0 sg
4671 4366 mt 
(Budget Constraint) s
gs 4220 3682 1803 739 rc
DA
c10
347 0 4289 4313 2 MP stroke
SO
6 w
gr

6 w
c10

end %%Color Dict

eplot
%%EndObject

epage
end

showpage

%%Trailer
%%EOF
