%!PS-Adobe-3.0 EPSF-3.0
%%Creator: MATLAB, The MathWorks, Inc. Version 8.1.0.604 (R2013a). Operating System: Darwin 15.0.0 Darwin Kernel Version 15.0.0: Sat Sep 19 15:53:46 PDT 2015; root:xnu-3247.10.11~1/RELEASE_X86_64 x86_64.
%%Title: /Users/fruzti/Dropbox/PhD/SubmodularityMVDR/figureConference/budget15Sen.eps
%%CreationDate: 02/10/2017  16:09:19
%%DocumentNeededFonts: Helvetica
%%DocumentProcessColors: Cyan Magenta Yellow Black
%%LanguageLevel: 2
%%Pages: 1
%%BoundingBox:    25   186   586   606
%%EndComments

%%BeginProlog
% MathWorks dictionary
/MathWorks 160 dict begin
% definition operators
/bdef {bind def} bind def
/ldef {load def} bind def
/xdef {exch def} bdef
/xstore {exch store} bdef
% operator abbreviations
/c  /clip ldef
/cc /concat ldef
/cp /closepath ldef
/gr /grestore ldef
/gs /gsave ldef
/mt /moveto ldef
/np /newpath ldef
/cm /currentmatrix ldef
/sm /setmatrix ldef
/rm /rmoveto ldef
/rl /rlineto ldef
/s {show newpath} bdef
/sc {setcmykcolor} bdef
/sr /setrgbcolor ldef
/sg /setgray ldef
/w /setlinewidth ldef
/j /setlinejoin ldef
/cap /setlinecap ldef
/rc {rectclip} bdef
/rf {rectfill} bdef
% page state control
/pgsv () def
/bpage {/pgsv save def} bdef
/epage {pgsv restore} bdef
/bplot /gsave ldef
/eplot {stroke grestore} bdef
% orientation switch
/portraitMode 0 def /landscapeMode 1 def /rotateMode 2 def
% coordinate system mappings
/dpi2point 0 def
% font control
/FontSize 0 def
/FMS {/FontSize xstore findfont [FontSize 0 0 FontSize neg 0 0]
  makefont setfont} bdef
/reencode {exch dup where {pop load} {pop StandardEncoding} ifelse
  exch dup 3 1 roll findfont dup length dict begin
  { 1 index /FID ne {def}{pop pop} ifelse } forall
  /Encoding exch def currentdict end definefont pop} bdef
/isroman {findfont /CharStrings get /Agrave known} bdef
/FMSR {3 1 roll 1 index dup isroman {reencode} {pop pop} ifelse
  exch FMS} bdef
/csm {1 dpi2point div -1 dpi2point div scale neg translate
 dup landscapeMode eq {pop -90 rotate}
  {rotateMode eq {90 rotate} if} ifelse} bdef
% line types: solid, dotted, dashed, dotdash
/SO { [] 0 setdash } bdef
/DO { [.5 dpi2point mul 4 dpi2point mul] 0 setdash } bdef
/DA { [6 dpi2point mul] 0 setdash } bdef
/DD { [.5 dpi2point mul 4 dpi2point mul 6 dpi2point mul 4
  dpi2point mul] 0 setdash } bdef
% macros for lines and objects
/L {lineto stroke} bdef
/MP {3 1 roll moveto 1 sub {rlineto} repeat} bdef
/AP {{rlineto} repeat} bdef
/PDlw -1 def
/W {/PDlw currentlinewidth def setlinewidth} def
/PP {closepath eofill} bdef
/DP {closepath stroke} bdef
/MR {4 -2 roll moveto dup  0 exch rlineto exch 0 rlineto
  neg 0 exch rlineto closepath} bdef
/FR {MR stroke} bdef
/PR {MR fill} bdef
/L1i {{currentfile picstr readhexstring pop} image} bdef
/tMatrix matrix def
/MakeOval {newpath tMatrix currentmatrix pop translate scale
0 0 1 0 360 arc tMatrix setmatrix} bdef
/FO {MakeOval stroke} bdef
/PO {MakeOval fill} bdef
/PD {currentlinewidth 2 div 0 360 arc fill
   PDlw -1 eq not {PDlw w /PDlw -1 def} if} def
/FA {newpath tMatrix currentmatrix pop translate scale
  0 0 1 5 -2 roll arc tMatrix setmatrix stroke} bdef
/PA {newpath tMatrix currentmatrix pop	translate 0 0 moveto scale
  0 0 1 5 -2 roll arc closepath tMatrix setmatrix fill} bdef
/FAn {newpath tMatrix currentmatrix pop translate scale
  0 0 1 5 -2 roll arcn tMatrix setmatrix stroke} bdef
/PAn {newpath tMatrix currentmatrix pop translate 0 0 moveto scale
  0 0 1 5 -2 roll arcn closepath tMatrix setmatrix fill} bdef
/vradius 0 def /hradius 0 def /lry 0 def
/lrx 0 def /uly 0 def /ulx 0 def /rad 0 def
/MRR {/vradius xdef /hradius xdef /lry xdef /lrx xdef /uly xdef
  /ulx xdef newpath tMatrix currentmatrix pop ulx hradius add uly
  vradius add translate hradius vradius scale 0 0 1 180 270 arc 
  tMatrix setmatrix lrx hradius sub uly vradius add translate
  hradius vradius scale 0 0 1 270 360 arc tMatrix setmatrix
  lrx hradius sub lry vradius sub translate hradius vradius scale
  0 0 1 0 90 arc tMatrix setmatrix ulx hradius add lry vradius sub
  translate hradius vradius scale 0 0 1 90 180 arc tMatrix setmatrix
  closepath} bdef
/FRR {MRR stroke } bdef
/PRR {MRR fill } bdef
/MlrRR {/lry xdef /lrx xdef /uly xdef /ulx xdef /rad lry uly sub 2 div def
  newpath tMatrix currentmatrix pop ulx rad add uly rad add translate
  rad rad scale 0 0 1 90 270 arc tMatrix setmatrix lrx rad sub lry rad
  sub translate rad rad scale 0 0 1 270 90 arc tMatrix setmatrix
  closepath} bdef
/FlrRR {MlrRR stroke } bdef
/PlrRR {MlrRR fill } bdef
/MtbRR {/lry xdef /lrx xdef /uly xdef /ulx xdef /rad lrx ulx sub 2 div def
  newpath tMatrix currentmatrix pop ulx rad add uly rad add translate
  rad rad scale 0 0 1 180 360 arc tMatrix setmatrix lrx rad sub lry rad
  sub translate rad rad scale 0 0 1 0 180 arc tMatrix setmatrix
  closepath} bdef
/FtbRR {MtbRR stroke } bdef
/PtbRR {MtbRR fill } bdef
/stri 6 array def /dtri 6 array def
/smat 6 array def /dmat 6 array def
/tmat1 6 array def /tmat2 6 array def /dif 3 array def
/asub {/ind2 exch def /ind1 exch def dup dup
  ind1 get exch ind2 get sub exch } bdef
/tri_to_matrix {
  2 0 asub 3 1 asub 4 0 asub 5 1 asub
  dup 0 get exch 1 get 7 -1 roll astore } bdef
/compute_transform {
  dmat dtri tri_to_matrix tmat1 invertmatrix 
  smat stri tri_to_matrix tmat2 concatmatrix } bdef
/ds {stri astore pop} bdef
/dt {dtri astore pop} bdef
/db {2 copy /cols xdef /rows xdef mul dup 3 mul string
  currentfile 
  3 index 0 eq {/ASCIIHexDecode filter}
  {/ASCII85Decode filter 3 index 2 eq {/RunLengthDecode filter} if }
  ifelse exch readstring pop
  dup 0 3 index getinterval /rbmap xdef
  dup 2 index dup getinterval /gbmap xdef
  1 index dup 2 mul exch getinterval /bbmap xdef pop pop}bdef
/it {gs np dtri aload pop moveto lineto lineto cp c
  cols rows 8 compute_transform 
  rbmap gbmap bbmap true 3 colorimage gr}bdef
/il {newpath moveto lineto stroke}bdef
currentdict end def
%%EndProlog

%%BeginSetup
MathWorks begin

0 cap

end
%%EndSetup

%%Page: 1 1
%%BeginPageSetup
%%PageBoundingBox:    25   186   586   606
MathWorks begin
bpage
%%EndPageSetup

%%BeginObject: obj1
bplot

/dpi2point 12 def
portraitMode 0300 7272 csm

    0     0  6732  5033 rc
87 dict begin %Colortable dictionary
/c0 { 0.000000 0.000000 0.000000 sr} bdef
/c1 { 1.000000 1.000000 1.000000 sr} bdef
/c2 { 0.900000 0.000000 0.000000 sr} bdef
/c3 { 0.000000 0.820000 0.000000 sr} bdef
/c4 { 0.000000 0.000000 0.800000 sr} bdef
/c5 { 0.910000 0.820000 0.320000 sr} bdef
/c6 { 1.000000 0.260000 0.820000 sr} bdef
/c7 { 0.000000 0.820000 0.820000 sr} bdef
c0
1 j
1 sg
   0    0 6733 5034 rf
6 w
0 4102 5217 0 0 -4102 875 4479 4 MP
PP
-5217 0 0 4102 5217 0 0 -4102 875 4479 5 MP stroke
4 w
DO
0 sg
 875 4479 mt  875  377 L
 875  377 mt  875  377 L
1396 4479 mt 1396  377 L
1396  377 mt 1396  377 L
1918 4479 mt 1918  377 L
1918  377 mt 1918  377 L
2440 4479 mt 2440  377 L
2440  377 mt 2440  377 L
2961 4479 mt 2961  377 L
2961  377 mt 2961  377 L
3483 4479 mt 3483  377 L
3483  377 mt 3483  377 L
4005 4479 mt 4005  377 L
4005  377 mt 4005  377 L
4526 4479 mt 4526  377 L
4526  377 mt 4526  377 L
5048 4479 mt 5048  377 L
5048  377 mt 5048  377 L
5570 4479 mt 5570  377 L
5570  377 mt 5570  377 L
6092 4479 mt 6092  377 L
6092  377 mt 6092  377 L
 875 4479 mt 6092 4479 L
6092 4479 mt 6092 4479 L
 875 4068 mt 6092 4068 L
6092 4068 mt 6092 4068 L
 875 3658 mt 6092 3658 L
6092 3658 mt 6092 3658 L
 875 3248 mt 6092 3248 L
6092 3248 mt 6092 3248 L
 875 2838 mt 6092 2838 L
6092 2838 mt 6092 2838 L
 875 2428 mt 6092 2428 L
6092 2428 mt 6092 2428 L
 875 2017 mt 6092 2017 L
6092 2017 mt 6092 2017 L
 875 1607 mt 6092 1607 L
6092 1607 mt 6092 1607 L
 875 1197 mt 6092 1197 L
6092 1197 mt 6092 1197 L
 875  787 mt 6092  787 L
6092  787 mt 6092  787 L
 875  377 mt 6092  377 L
6092  377 mt 6092  377 L
SO
6 w
 875 4479 mt 6092 4479 L
 875 4479 mt  875  377 L
 875 4479 mt  875 4426 L
%%IncludeResource: font Helvetica
/Helvetica /ISOLatin1Encoding 144 FMSR

 835 4647 mt 
(0) s
1396 4479 mt 1396 4426 L
1356 4647 mt 
(2) s
1918 4479 mt 1918 4426 L
1878 4647 mt 
(4) s
2440 4479 mt 2440 4426 L
2400 4647 mt 
(6) s
2961 4479 mt 2961 4426 L
2921 4647 mt 
(8) s
3483 4479 mt 3483 4426 L
3403 4647 mt 
(10) s
4005 4479 mt 4005 4426 L
3925 4647 mt 
(12) s
4526 4479 mt 4526 4426 L
4446 4647 mt 
(14) s
5048 4479 mt 5048 4426 L
4968 4647 mt 
(16) s
5570 4479 mt 5570 4426 L
5490 4647 mt 
(18) s
6092 4479 mt 6092 4426 L
6012 4647 mt 
(20) s
 875 4479 mt  927 4479 L
 760 4532 mt 
(0) s
 875 4068 mt  927 4068 L
 760 4121 mt 
(2) s
 875 3658 mt  927 3658 L
 760 3711 mt 
(4) s
 875 3248 mt  927 3248 L
 760 3301 mt 
(6) s
 875 2838 mt  927 2838 L
 760 2891 mt 
(8) s
 875 2428 mt  927 2428 L
 680 2481 mt 
(10) s
 875 2017 mt  927 2017 L
 680 2070 mt 
(12) s
 875 1607 mt  927 1607 L
 680 1660 mt 
(14) s
 875 1197 mt  927 1197 L
 680 1250 mt 
(16) s
 875  787 mt  927  787 L
 680  840 mt 
(18) s
 875  377 mt  927  377 L
 680  430 mt 
(20) s
gs 875 377 5218 4103 rc
13.2 w
/c8 { 0.000000 1.000000 0.000000 sr} bdef
c8
261 0 261 0 261 0 261 0 261 0 261 0 260 0 261 0 
261 -231 261 -426 261 -50 261 711 261 -325 260 -1678 261 1644 261 -1571 
261 -1583 261 767 261 -951 1135 4241 20 MP stroke
gr

13.2 w
c8
0 j
-41 71 -41 -71 82 0 1094 4265 4 MP
DP
-41 71 -41 -71 82 0 1355 3314 4 MP
DP
-41 71 -41 -71 82 0 1616 4081 4 MP
DP
-41 71 -41 -71 82 0 1877 2498 4 MP
DP
-41 71 -41 -71 82 0 2138 927 4 MP
DP
-41 71 -41 -71 82 0 2399 2571 4 MP
DP
-41 71 -41 -71 82 0 2659 893 4 MP
DP
-41 71 -41 -71 82 0 2920 568 4 MP
DP
-41 71 -41 -71 82 0 3181 1279 4 MP
DP
-41 71 -41 -71 82 0 3442 1229 4 MP
DP
-41 71 -41 -71 82 0 3703 803 4 MP
DP
-41 71 -41 -71 82 0 3964 572 4 MP
DP
-41 71 -41 -71 82 0 4225 572 4 MP
DP
-41 71 -41 -71 82 0 4485 572 4 MP
DP
-41 71 -41 -71 82 0 4746 572 4 MP
DP
-41 71 -41 -71 82 0 5007 572 4 MP
DP
-41 71 -41 -71 82 0 5268 572 4 MP
DP
-41 71 -41 -71 82 0 5529 572 4 MP
DP
-41 71 -41 -71 82 0 5790 572 4 MP
DP
-41 71 -41 -71 82 0 6051 572 4 MP
DP
gs 875 377 5218 4103 rc
/c9 { 1.000000 0.000000 1.000000 sr} bdef
c9
261 0 261 0 261 0 261 0 261 0 261 0 260 0 261 0 
261 -1146 261 -161 261 -667 261 -277 261 -380 260 -373 261 -268 261 -238 
261 -156 261 -149 261 -81 1135 4444 20 MP stroke
gr

c9
  36   36 1135 4444 FO
  36   36 1396 4363 FO
  36   36 1657 4214 FO
  36   36 1918 4058 FO
  36   36 2179 3820 FO
  36   36 2440 3552 FO
  36   36 2700 3179 FO
  36   36 2961 2799 FO
  36   36 3222 2522 FO
  36   36 3483 1855 FO
  36   36 3744 1694 FO
  36   36 4005  548 FO
  36   36 4266  548 FO
  36   36 4526  548 FO
  36   36 4787  548 FO
  36   36 5048  548 FO
  36   36 5309  548 FO
  36   36 5570  548 FO
  36   36 5831  548 FO
  36   36 6092  548 FO
gs 875 377 5218 4103 rc
0 sg
261 0 261 0 261 0 261 0 261 0 261 0 260 0 261 0 
261 -958 261 -666 261 -380 261 -373 261 -277 260 -268 261 -238 261 -162 
261 -156 261 -149 261 -81 1135 4444 20 MP stroke
gr

0 sg
0 -58 -58 0 0 58 58 0 1106 4415 5 MP
DP
0 -58 -58 0 0 58 58 0 1367 4334 5 MP
DP
0 -58 -58 0 0 58 58 0 1628 4185 5 MP
DP
0 -58 -58 0 0 58 58 0 1889 4029 5 MP
DP
0 -58 -58 0 0 58 58 0 2150 3867 5 MP
DP
0 -58 -58 0 0 58 58 0 2411 3629 5 MP
DP
0 -58 -58 0 0 58 58 0 2671 3361 5 MP
DP
0 -58 -58 0 0 58 58 0 2932 3084 5 MP
DP
0 -58 -58 0 0 58 58 0 3193 2711 5 MP
DP
0 -58 -58 0 0 58 58 0 3454 2331 5 MP
DP
0 -58 -58 0 0 58 58 0 3715 1665 5 MP
DP
0 -58 -58 0 0 58 58 0 3976 707 5 MP
DP
0 -58 -58 0 0 58 58 0 4237 707 5 MP
DP
0 -58 -58 0 0 58 58 0 4497 707 5 MP
DP
0 -58 -58 0 0 58 58 0 4758 707 5 MP
DP
0 -58 -58 0 0 58 58 0 5019 707 5 MP
DP
0 -58 -58 0 0 58 58 0 5280 707 5 MP
DP
0 -58 -58 0 0 58 58 0 5541 707 5 MP
DP
0 -58 -58 0 0 58 58 0 5802 707 5 MP
DP
0 -58 -58 0 0 58 58 0 6063 707 5 MP
DP
gs 875 377 5218 4103 rc
/c10 { 1.000000 0.000000 0.000000 sr} bdef
c10
261 0 261 0 261 0 261 0 261 0 261 0 260 0 261 0 
261 159 261 -162 261 -82 261 -373 261 -34 260 -381 261 1003 261 -462 
261 -1453 261 102 261 -2010 1135 4241 20 MP stroke
gr

c10
36 47 -36 47 -36 -47 36 -47 1135 4288 5 MP
DP
36 47 -36 47 -36 -47 36 -47 1396 2278 5 MP
DP
36 47 -36 47 -36 -47 36 -47 1657 2380 5 MP
DP
36 47 -36 47 -36 -47 36 -47 1918 927 5 MP
DP
36 47 -36 47 -36 -47 36 -47 2179 465 5 MP
DP
36 47 -36 47 -36 -47 36 -47 2440 1468 5 MP
DP
36 47 -36 47 -36 -47 36 -47 2700 1087 5 MP
DP
36 47 -36 47 -36 -47 36 -47 2961 1053 5 MP
DP
36 47 -36 47 -36 -47 36 -47 3222 680 5 MP
DP
36 47 -36 47 -36 -47 36 -47 3483 598 5 MP
DP
36 47 -36 47 -36 -47 36 -47 3744 436 5 MP
DP
36 47 -36 47 -36 -47 36 -47 4005 595 5 MP
DP
36 47 -36 47 -36 -47 36 -47 4266 595 5 MP
DP
36 47 -36 47 -36 -47 36 -47 4526 595 5 MP
DP
36 47 -36 47 -36 -47 36 -47 4787 595 5 MP
DP
36 47 -36 47 -36 -47 36 -47 5048 595 5 MP
DP
36 47 -36 47 -36 -47 36 -47 5309 595 5 MP
DP
36 47 -36 47 -36 -47 36 -47 5570 595 5 MP
DP
36 47 -36 47 -36 -47 36 -47 5831 595 5 MP
DP
36 47 -36 47 -36 -47 36 -47 6092 595 5 MP
DP
gs 875 377 5218 4103 rc
DA
261 0 261 0 261 0 261 0 261 0 261 0 260 0 261 0 
261 0 261 0 261 0 261 0 261 0 260 0 261 0 261 0 
261 0 261 0 261 0 1135 377 20 MP stroke
gr

DA
0 sg
2766 4808 mt 
(Number of Sensors [k]) s
 593 3025 mt  -90 rotate
(Budget Consumed) s
90 rotate
%%IncludeResource: font Helvetica
/Helvetica /ISOLatin1Encoding 120 FMSR

 858 4522 mt 
( ) s
6076  419 mt 
( ) s
SO
6 w
1 sg
0 912 1802 0 0 -912 4230 4420 4 MP
PP
-1802 0 0 912 1802 0 0 -912 4230 4420 5 MP stroke
4 w
DO
SO
6 w
0 sg
4230 4420 mt 6032 4420 L
4230 3508 mt 6032 3508 L
4230 4420 mt 4230 3508 L
6032 4420 mt 6032 3508 L
4230 4420 mt 6032 4420 L
4230 4420 mt 4230 3508 L
4230 4420 mt 6032 4420 L
4230 3508 mt 6032 3508 L
4230 4420 mt 4230 3508 L
6032 4420 mt 6032 3508 L
%%IncludeResource: font Helvetica
/Helvetica /ISOLatin1Encoding 144 FMSR

4681 3665 mt 
(Convex Method) s
gs 4230 3508 1803 913 rc
13.2 w
c8
347 0 4299 3614 2 MP stroke
gs 4385 3526 176 176 rc
-41 71 -41 -71 82 0 4431 3638 4 MP
DP
gr

gr

13.2 w
c8
0 sg
4681 3840 mt 
(Submodular Method) s
gs 4230 3508 1803 913 rc
347 0 4299 3789 2 MP stroke
gs 4385 3701 176 176 rc
0 -58 -58 0 0 58 58 0 4443 3760 5 MP
DP
gr

gr

4681 4015 mt 
(Output SNR Greedy) s
gs 4230 3508 1803 913 rc
c9
347 0 4299 3964 2 MP stroke
gs 4385 3876 176 176 rc
  36   36 4472 3964 FO
gr

gr

c9
0 sg
4681 4191 mt 
(Budget Constraint) s
gs 4230 3508 1803 913 rc
DA
c10
347 0 4299 4138 2 MP stroke
SO
gr

c10
0 sg
4681 4366 mt 
(Exhaustive Search) s
gs 4230 3508 1803 913 rc
c10
347 0 4299 4313 2 MP stroke
gs 4385 4226 176 176 rc
36 47 -36 47 -36 -47 36 -47 4472 4360 5 MP
DP
gr

6 w
gr

6 w
c10

end %%Color Dict

eplot
%%EndObject

epage
end

showpage

%%Trailer
%%EOF
