%!PS-Adobe-3.0 EPSF-3.0
%%Creator: MATLAB, The MathWorks, Inc. Version 8.1.0.604 (R2013a). Operating System: Darwin 15.0.0 Darwin Kernel Version 15.0.0: Sat Sep 19 15:53:46 PDT 2015; root:xnu-3247.10.11~1/RELEASE_X86_64 x86_64.
%%Title: /Users/fruzti/Dropbox/PhD/SubmodularityMVDR/figureConference/comp15Sensors.eps
%%CreationDate: 02/10/2017  16:09:05
%%DocumentNeededFonts: Helvetica
%%DocumentProcessColors: Cyan Magenta Yellow Black
%%LanguageLevel: 2
%%Pages: 1
%%BoundingBox:    25   186   586   606
%%EndComments

%%BeginProlog
% MathWorks dictionary
/MathWorks 160 dict begin
% definition operators
/bdef {bind def} bind def
/ldef {load def} bind def
/xdef {exch def} bdef
/xstore {exch store} bdef
% operator abbreviations
/c  /clip ldef
/cc /concat ldef
/cp /closepath ldef
/gr /grestore ldef
/gs /gsave ldef
/mt /moveto ldef
/np /newpath ldef
/cm /currentmatrix ldef
/sm /setmatrix ldef
/rm /rmoveto ldef
/rl /rlineto ldef
/s {show newpath} bdef
/sc {setcmykcolor} bdef
/sr /setrgbcolor ldef
/sg /setgray ldef
/w /setlinewidth ldef
/j /setlinejoin ldef
/cap /setlinecap ldef
/rc {rectclip} bdef
/rf {rectfill} bdef
% page state control
/pgsv () def
/bpage {/pgsv save def} bdef
/epage {pgsv restore} bdef
/bplot /gsave ldef
/eplot {stroke grestore} bdef
% orientation switch
/portraitMode 0 def /landscapeMode 1 def /rotateMode 2 def
% coordinate system mappings
/dpi2point 0 def
% font control
/FontSize 0 def
/FMS {/FontSize xstore findfont [FontSize 0 0 FontSize neg 0 0]
  makefont setfont} bdef
/reencode {exch dup where {pop load} {pop StandardEncoding} ifelse
  exch dup 3 1 roll findfont dup length dict begin
  { 1 index /FID ne {def}{pop pop} ifelse } forall
  /Encoding exch def currentdict end definefont pop} bdef
/isroman {findfont /CharStrings get /Agrave known} bdef
/FMSR {3 1 roll 1 index dup isroman {reencode} {pop pop} ifelse
  exch FMS} bdef
/csm {1 dpi2point div -1 dpi2point div scale neg translate
 dup landscapeMode eq {pop -90 rotate}
  {rotateMode eq {90 rotate} if} ifelse} bdef
% line types: solid, dotted, dashed, dotdash
/SO { [] 0 setdash } bdef
/DO { [.5 dpi2point mul 4 dpi2point mul] 0 setdash } bdef
/DA { [6 dpi2point mul] 0 setdash } bdef
/DD { [.5 dpi2point mul 4 dpi2point mul 6 dpi2point mul 4
  dpi2point mul] 0 setdash } bdef
% macros for lines and objects
/L {lineto stroke} bdef
/MP {3 1 roll moveto 1 sub {rlineto} repeat} bdef
/AP {{rlineto} repeat} bdef
/PDlw -1 def
/W {/PDlw currentlinewidth def setlinewidth} def
/PP {closepath eofill} bdef
/DP {closepath stroke} bdef
/MR {4 -2 roll moveto dup  0 exch rlineto exch 0 rlineto
  neg 0 exch rlineto closepath} bdef
/FR {MR stroke} bdef
/PR {MR fill} bdef
/L1i {{currentfile picstr readhexstring pop} image} bdef
/tMatrix matrix def
/MakeOval {newpath tMatrix currentmatrix pop translate scale
0 0 1 0 360 arc tMatrix setmatrix} bdef
/FO {MakeOval stroke} bdef
/PO {MakeOval fill} bdef
/PD {currentlinewidth 2 div 0 360 arc fill
   PDlw -1 eq not {PDlw w /PDlw -1 def} if} def
/FA {newpath tMatrix currentmatrix pop translate scale
  0 0 1 5 -2 roll arc tMatrix setmatrix stroke} bdef
/PA {newpath tMatrix currentmatrix pop	translate 0 0 moveto scale
  0 0 1 5 -2 roll arc closepath tMatrix setmatrix fill} bdef
/FAn {newpath tMatrix currentmatrix pop translate scale
  0 0 1 5 -2 roll arcn tMatrix setmatrix stroke} bdef
/PAn {newpath tMatrix currentmatrix pop translate 0 0 moveto scale
  0 0 1 5 -2 roll arcn closepath tMatrix setmatrix fill} bdef
/vradius 0 def /hradius 0 def /lry 0 def
/lrx 0 def /uly 0 def /ulx 0 def /rad 0 def
/MRR {/vradius xdef /hradius xdef /lry xdef /lrx xdef /uly xdef
  /ulx xdef newpath tMatrix currentmatrix pop ulx hradius add uly
  vradius add translate hradius vradius scale 0 0 1 180 270 arc 
  tMatrix setmatrix lrx hradius sub uly vradius add translate
  hradius vradius scale 0 0 1 270 360 arc tMatrix setmatrix
  lrx hradius sub lry vradius sub translate hradius vradius scale
  0 0 1 0 90 arc tMatrix setmatrix ulx hradius add lry vradius sub
  translate hradius vradius scale 0 0 1 90 180 arc tMatrix setmatrix
  closepath} bdef
/FRR {MRR stroke } bdef
/PRR {MRR fill } bdef
/MlrRR {/lry xdef /lrx xdef /uly xdef /ulx xdef /rad lry uly sub 2 div def
  newpath tMatrix currentmatrix pop ulx rad add uly rad add translate
  rad rad scale 0 0 1 90 270 arc tMatrix setmatrix lrx rad sub lry rad
  sub translate rad rad scale 0 0 1 270 90 arc tMatrix setmatrix
  closepath} bdef
/FlrRR {MlrRR stroke } bdef
/PlrRR {MlrRR fill } bdef
/MtbRR {/lry xdef /lrx xdef /uly xdef /ulx xdef /rad lrx ulx sub 2 div def
  newpath tMatrix currentmatrix pop ulx rad add uly rad add translate
  rad rad scale 0 0 1 180 360 arc tMatrix setmatrix lrx rad sub lry rad
  sub translate rad rad scale 0 0 1 0 180 arc tMatrix setmatrix
  closepath} bdef
/FtbRR {MtbRR stroke } bdef
/PtbRR {MtbRR fill } bdef
/stri 6 array def /dtri 6 array def
/smat 6 array def /dmat 6 array def
/tmat1 6 array def /tmat2 6 array def /dif 3 array def
/asub {/ind2 exch def /ind1 exch def dup dup
  ind1 get exch ind2 get sub exch } bdef
/tri_to_matrix {
  2 0 asub 3 1 asub 4 0 asub 5 1 asub
  dup 0 get exch 1 get 7 -1 roll astore } bdef
/compute_transform {
  dmat dtri tri_to_matrix tmat1 invertmatrix 
  smat stri tri_to_matrix tmat2 concatmatrix } bdef
/ds {stri astore pop} bdef
/dt {dtri astore pop} bdef
/db {2 copy /cols xdef /rows xdef mul dup 3 mul string
  currentfile 
  3 index 0 eq {/ASCIIHexDecode filter}
  {/ASCII85Decode filter 3 index 2 eq {/RunLengthDecode filter} if }
  ifelse exch readstring pop
  dup 0 3 index getinterval /rbmap xdef
  dup 2 index dup getinterval /gbmap xdef
  1 index dup 2 mul exch getinterval /bbmap xdef pop pop}bdef
/it {gs np dtri aload pop moveto lineto lineto cp c
  cols rows 8 compute_transform 
  rbmap gbmap bbmap true 3 colorimage gr}bdef
/il {newpath moveto lineto stroke}bdef
currentdict end def
%%EndProlog

%%BeginSetup
MathWorks begin

0 cap

end
%%EndSetup

%%Page: 1 1
%%BeginPageSetup
%%PageBoundingBox:    25   186   586   606
MathWorks begin
bpage
%%EndPageSetup

%%BeginObject: obj1
bplot

/dpi2point 12 def
portraitMode 0300 7272 csm

    0     0  6732  5033 rc
87 dict begin %Colortable dictionary
/c0 { 0.000000 0.000000 0.000000 sr} bdef
/c1 { 1.000000 1.000000 1.000000 sr} bdef
/c2 { 0.900000 0.000000 0.000000 sr} bdef
/c3 { 0.000000 0.820000 0.000000 sr} bdef
/c4 { 0.000000 0.000000 0.800000 sr} bdef
/c5 { 0.910000 0.820000 0.320000 sr} bdef
/c6 { 1.000000 0.260000 0.820000 sr} bdef
/c7 { 0.000000 0.820000 0.820000 sr} bdef
c0
1 j
1 sg
   0    0 6733 5034 rf
6 w
0 4102 5217 0 0 -4102 875 4479 4 MP
PP
-5217 0 0 4102 5217 0 0 -4102 875 4479 5 MP stroke
4 w
DO
0 sg
 875 4479 mt  875  377 L
 875  377 mt  875  377 L
1396 4479 mt 1396  377 L
1396  377 mt 1396  377 L
1918 4479 mt 1918  377 L
1918  377 mt 1918  377 L
2440 4479 mt 2440  377 L
2440  377 mt 2440  377 L
2961 4479 mt 2961  377 L
2961  377 mt 2961  377 L
3483 4479 mt 3483  377 L
3483  377 mt 3483  377 L
4005 4479 mt 4005  377 L
4005  377 mt 4005  377 L
4526 4479 mt 4526  377 L
4526  377 mt 4526  377 L
5048 4479 mt 5048  377 L
5048  377 mt 5048  377 L
5570 4479 mt 5570  377 L
5570  377 mt 5570  377 L
6092 4479 mt 6092  377 L
6092  377 mt 6092  377 L
 875 4479 mt 6092 4479 L
6092 4479 mt 6092 4479 L
 875 2428 mt 6092 2428 L
6092 2428 mt 6092 2428 L
 875  377 mt 6092  377 L
6092  377 mt 6092  377 L
SO
6 w
 875 4479 mt 6092 4479 L
 875 4479 mt  875  377 L
 875 4479 mt  875 4426 L
%%IncludeResource: font Helvetica
/Helvetica /ISOLatin1Encoding 144 FMSR

 835 4647 mt 
(0) s
1396 4479 mt 1396 4426 L
1356 4647 mt 
(2) s
1918 4479 mt 1918 4426 L
1878 4647 mt 
(4) s
2440 4479 mt 2440 4426 L
2400 4647 mt 
(6) s
2961 4479 mt 2961 4426 L
2921 4647 mt 
(8) s
3483 4479 mt 3483 4426 L
3403 4647 mt 
(10) s
4005 4479 mt 4005 4426 L
3925 4647 mt 
(12) s
4526 4479 mt 4526 4426 L
4446 4647 mt 
(14) s
5048 4479 mt 5048 4426 L
4968 4647 mt 
(16) s
5570 4479 mt 5570 4426 L
5490 4647 mt 
(18) s
6092 4479 mt 6092 4426 L
6012 4647 mt 
(20) s
 875 4479 mt  901 4479 L
DO
 875 4479 mt 6092 4479 L
6092 4479 mt 6092 4479 L
SO
 875 4479 mt  927 4479 L
 571 4532 mt 
(10) s
%%IncludeResource: font Helvetica
/Helvetica /ISOLatin1Encoding 96 FMSR

 731 4443 mt 
(-2) s
 875 3861 mt  901 3861 L
DO
 875 3861 mt 6092 3861 L
6092 3861 mt 6092 3861 L
SO
 875 3500 mt  901 3500 L
DO
 875 3500 mt 6092 3500 L
6092 3500 mt 6092 3500 L
SO
 875 3244 mt  901 3244 L
DO
 875 3244 mt 6092 3244 L
6092 3244 mt 6092 3244 L
SO
 875 3045 mt  901 3045 L
DO
 875 3045 mt 6092 3045 L
6092 3045 mt 6092 3045 L
SO
 875 2883 mt  901 2883 L
DO
 875 2883 mt 6092 2883 L
6092 2883 mt 6092 2883 L
SO
 875 2745 mt  901 2745 L
DO
 875 2745 mt 6092 2745 L
6092 2745 mt 6092 2745 L
SO
 875 2626 mt  901 2626 L
DO
 875 2626 mt 6092 2626 L
6092 2626 mt 6092 2626 L
SO
 875 2521 mt  901 2521 L
DO
 875 2521 mt 6092 2521 L
6092 2521 mt 6092 2521 L
SO
 875 2428 mt  901 2428 L
DO
 875 2428 mt 6092 2428 L
6092 2428 mt 6092 2428 L
SO
 875 2428 mt  927 2428 L
%%IncludeResource: font Helvetica
/Helvetica /ISOLatin1Encoding 144 FMSR

 571 2481 mt 
(10) s
%%IncludeResource: font Helvetica
/Helvetica /ISOLatin1Encoding 96 FMSR

 731 2392 mt 
(-1) s
 875 1810 mt  901 1810 L
DO
 875 1810 mt 6092 1810 L
6092 1810 mt 6092 1810 L
SO
 875 1449 mt  901 1449 L
DO
 875 1449 mt 6092 1449 L
6092 1449 mt 6092 1449 L
SO
 875 1193 mt  901 1193 L
DO
 875 1193 mt 6092 1193 L
6092 1193 mt 6092 1193 L
SO
 875  994 mt  901  994 L
DO
 875  994 mt 6092  994 L
6092  994 mt 6092  994 L
SO
 875  832 mt  901  832 L
DO
 875  832 mt 6092  832 L
6092  832 mt 6092  832 L
SO
 875  694 mt  901  694 L
DO
 875  694 mt 6092  694 L
6092  694 mt 6092  694 L
SO
 875  575 mt  901  575 L
DO
 875  575 mt 6092  575 L
6092  575 mt 6092  575 L
SO
 875  470 mt  901  470 L
DO
 875  470 mt 6092  470 L
6092  470 mt 6092  470 L
SO
 875  377 mt  901  377 L
DO
 875  377 mt 6092  377 L
6092  377 mt 6092  377 L
SO
 875  377 mt  927  377 L
%%IncludeResource: font Helvetica
/Helvetica /ISOLatin1Encoding 144 FMSR

 571  430 mt 
(10) s
%%IncludeResource: font Helvetica
/Helvetica /ISOLatin1Encoding 96 FMSR

 731  341 mt 
(0) s
gs 875 377 5218 4103 rc
13.2 w
/c8 { 1.000000 0.000000 1.000000 sr} bdef
c8
261 0 261 0 261 0 261 0 261 0 261 0 260 0 261 0 
261 -104 261 -17 261 -94 261 -46 261 -154 260 -168 261 -198 261 -347 
261 -334 261 -358 261 -633 1135 3315 20 MP stroke
gr

13.2 w
c8
gs 1048 774 5132 2629 rc
  36   36 1135 3315 FO
  36   36 1396 2682 FO
  36   36 1657 2324 FO
  36   36 1918 1990 FO
  36   36 2179 1643 FO
  36   36 2440 1445 FO
  36   36 2700 1277 FO
  36   36 2961 1123 FO
  36   36 3222 1077 FO
  36   36 3483  983 FO
  36   36 3744  966 FO
  36   36 4005  862 FO
  36   36 4266  862 FO
  36   36 4526  862 FO
  36   36 4787  862 FO
  36   36 5048  862 FO
  36   36 5309  862 FO
  36   36 5570  862 FO
  36   36 5831  862 FO
  36   36 6092  862 FO
gr

gs 875 377 5218 4103 rc
0 sg
261 0 261 0 261 0 261 0 261 0 261 0 260 0 261 0 
261 -46 261 -88 261 -103 261 -136 261 -101 260 -170 261 -295 261 -131 
261 -334 261 -358 261 -633 1135 3315 20 MP stroke
gr

0 sg
gs 1048 832 5132 2571 rc
0 j
0 -58 -58 0 0 58 58 0 1106 3286 5 MP
DP
0 -58 -58 0 0 58 58 0 1367 2653 5 MP
DP
0 -58 -58 0 0 58 58 0 1628 2295 5 MP
DP
0 -58 -58 0 0 58 58 0 1889 1961 5 MP
DP
0 -58 -58 0 0 58 58 0 2150 1830 5 MP
DP
0 -58 -58 0 0 58 58 0 2411 1535 5 MP
DP
0 -58 -58 0 0 58 58 0 2671 1365 5 MP
DP
0 -58 -58 0 0 58 58 0 2932 1264 5 MP
DP
0 -58 -58 0 0 58 58 0 3193 1128 5 MP
DP
0 -58 -58 0 0 58 58 0 3454 1025 5 MP
DP
0 -58 -58 0 0 58 58 0 3715 937 5 MP
DP
0 -58 -58 0 0 58 58 0 3976 891 5 MP
DP
0 -58 -58 0 0 58 58 0 4237 891 5 MP
DP
0 -58 -58 0 0 58 58 0 4497 891 5 MP
DP
0 -58 -58 0 0 58 58 0 4758 891 5 MP
DP
0 -58 -58 0 0 58 58 0 5019 891 5 MP
DP
0 -58 -58 0 0 58 58 0 5280 891 5 MP
DP
0 -58 -58 0 0 58 58 0 5541 891 5 MP
DP
0 -58 -58 0 0 58 58 0 5802 891 5 MP
DP
0 -58 -58 0 0 58 58 0 6063 891 5 MP
DP
gr

gs 875 377 5218 4103 rc
/c9 { 0.000000 1.000000 0.000000 sr} bdef
c9
261 0 261 0 261 0 261 0 261 0 261 0 260 0 261 0 
261 -83 261 -99 261 -15 261 -146 261 -176 260 -142 261 -217 261 -197 
261 -175 261 -329 261 -675 1135 3116 20 MP stroke
gr

c9
gs 1048 774 5132 2430 rc
0 j
-41 71 -41 -71 82 0 1094 3140 4 MP
DP
-41 71 -41 -71 82 0 1355 2465 4 MP
DP
-41 71 -41 -71 82 0 1616 2136 4 MP
DP
-41 71 -41 -71 82 0 1877 1961 4 MP
DP
-41 71 -41 -71 82 0 2138 1764 4 MP
DP
-41 71 -41 -71 82 0 2399 1547 4 MP
DP
-41 71 -41 -71 82 0 2659 1405 4 MP
DP
-41 71 -41 -71 82 0 2920 1229 4 MP
DP
-41 71 -41 -71 82 0 3181 1083 4 MP
DP
-41 71 -41 -71 82 0 3442 1068 4 MP
DP
-41 71 -41 -71 82 0 3703 969 4 MP
DP
-41 71 -41 -71 82 0 3964 886 4 MP
DP
-41 71 -41 -71 82 0 4225 886 4 MP
DP
-41 71 -41 -71 82 0 4485 886 4 MP
DP
-41 71 -41 -71 82 0 4746 886 4 MP
DP
-41 71 -41 -71 82 0 5007 886 4 MP
DP
-41 71 -41 -71 82 0 5268 886 4 MP
DP
-41 71 -41 -71 82 0 5529 886 4 MP
DP
-41 71 -41 -71 82 0 5790 886 4 MP
DP
-41 71 -41 -71 82 0 6051 886 4 MP
DP
gr

gs 875 377 5218 4103 rc
/c10 { 1.000000 0.000000 0.000000 sr} bdef
c10
261 0 261 0 261 0 261 0 261 0 261 0 260 0 261 0 
261 -7 261 -12 261 -56 261 -109 261 -147 260 -163 261 -180 261 -188 
261 -279 261 -432 261 -681 1135 3116 20 MP stroke
gr

c10
gs 1048 774 5132 2430 rc
0 j
36 47 -36 47 -36 -47 36 -47 1135 3163 5 MP
DP
36 47 -36 47 -36 -47 36 -47 1396 2482 5 MP
DP
36 47 -36 47 -36 -47 36 -47 1657 2050 5 MP
DP
36 47 -36 47 -36 -47 36 -47 1918 1771 5 MP
DP
36 47 -36 47 -36 -47 36 -47 2179 1583 5 MP
DP
36 47 -36 47 -36 -47 36 -47 2440 1403 5 MP
DP
36 47 -36 47 -36 -47 36 -47 2700 1240 5 MP
DP
36 47 -36 47 -36 -47 36 -47 2961 1093 5 MP
DP
36 47 -36 47 -36 -47 36 -47 3222 984 5 MP
DP
36 47 -36 47 -36 -47 36 -47 3483 928 5 MP
DP
36 47 -36 47 -36 -47 36 -47 3744 916 5 MP
DP
36 47 -36 47 -36 -47 36 -47 4005 909 5 MP
DP
36 47 -36 47 -36 -47 36 -47 4266 909 5 MP
DP
36 47 -36 47 -36 -47 36 -47 4526 909 5 MP
DP
36 47 -36 47 -36 -47 36 -47 4787 909 5 MP
DP
36 47 -36 47 -36 -47 36 -47 5048 909 5 MP
DP
36 47 -36 47 -36 -47 36 -47 5309 909 5 MP
DP
36 47 -36 47 -36 -47 36 -47 5570 909 5 MP
DP
36 47 -36 47 -36 -47 36 -47 5831 909 5 MP
DP
36 47 -36 47 -36 -47 36 -47 6092 909 5 MP
DP
gr

gs 875 377 5218 4103 rc
gr

0 sg
%%IncludeResource: font Helvetica
/Helvetica /ISOLatin1Encoding 144 FMSR

2766 4808 mt 
(Number of Sensors [k]) s
 484 3202 mt  -90 rotate
(Normalized Output SNR) s
90 rotate
%%IncludeResource: font Helvetica
/Helvetica /ISOLatin1Encoding 120 FMSR

 858 4522 mt 
( ) s
6076  419 mt 
( ) s
6 w
1 sg
0 738 1802 0 0 -738 4230 4420 4 MP
PP
-1802 0 0 738 1802 0 0 -738 4230 4420 5 MP stroke
4 w
DO
SO
6 w
0 sg
4230 4420 mt 6032 4420 L
4230 3682 mt 6032 3682 L
4230 4420 mt 4230 3682 L
6032 4420 mt 6032 3682 L
4230 4420 mt 6032 4420 L
4230 4420 mt 4230 3682 L
4230 4420 mt 6032 4420 L
4230 3682 mt 6032 3682 L
4230 4420 mt 4230 3682 L
6032 4420 mt 6032 3682 L
%%IncludeResource: font Helvetica
/Helvetica /ISOLatin1Encoding 144 FMSR

4681 3839 mt 
(Convex Method) s
gs 4230 3682 1803 739 rc
13.2 w
c9
347 0 4299 3788 2 MP stroke
gs 4385 3701 176 175 rc
0 j
-41 71 -41 -71 82 0 4431 3812 4 MP
DP
gr

gr

13.2 w
c9
0 sg
4681 4015 mt 
(Submodular Method) s
gs 4230 3682 1803 739 rc
347 0 4299 3963 2 MP stroke
gs 4385 3876 176 175 rc
0 j
0 -58 -58 0 0 58 58 0 4443 3934 5 MP
DP
gr

gr

4681 4190 mt 
(Output SNR Greedy) s
gs 4230 3682 1803 739 rc
c8
347 0 4299 4138 2 MP stroke
gs 4385 4051 176 175 rc
  36   36 4472 4138 FO
gr

gr

c8
0 sg
4681 4366 mt 
(Exhaustive Search) s
gs 4230 3682 1803 739 rc
c10
347 0 4299 4313 2 MP stroke
gs 4385 4226 176 175 rc
0 j
36 47 -36 47 -36 -47 36 -47 4472 4360 5 MP
DP
gr

6 w
gr

6 w
c10

end %%Color Dict

eplot
%%EndObject

epage
end

showpage

%%Trailer
%%EOF
