%!PS-Adobe-3.0 EPSF-3.0
%%Creator: MATLAB, The MathWorks, Inc. Version 8.1.0.604 (R2013a). Operating System: Darwin 15.0.0 Darwin Kernel Version 15.0.0: Sat Sep 19 15:53:46 PDT 2015; root:xnu-3247.10.11~1/RELEASE_X86_64 x86_64.
%%Title: /Users/fruzti/Dropbox/PhD/SubmodularityMVDR/figureConference/comp15SensorsSparse.eps
%%CreationDate: 02/15/2017  14:17:44
%%DocumentNeededFonts: Helvetica
%%DocumentProcessColors: Cyan Magenta Yellow Black
%%LanguageLevel: 2
%%Pages: 1
%%BoundingBox:    26   186   585   606
%%EndComments

%%BeginProlog
% MathWorks dictionary
/MathWorks 160 dict begin
% definition operators
/bdef {bind def} bind def
/ldef {load def} bind def
/xdef {exch def} bdef
/xstore {exch store} bdef
% operator abbreviations
/c  /clip ldef
/cc /concat ldef
/cp /closepath ldef
/gr /grestore ldef
/gs /gsave ldef
/mt /moveto ldef
/np /newpath ldef
/cm /currentmatrix ldef
/sm /setmatrix ldef
/rm /rmoveto ldef
/rl /rlineto ldef
/s {show newpath} bdef
/sc {setcmykcolor} bdef
/sr /setrgbcolor ldef
/sg /setgray ldef
/w /setlinewidth ldef
/j /setlinejoin ldef
/cap /setlinecap ldef
/rc {rectclip} bdef
/rf {rectfill} bdef
% page state control
/pgsv () def
/bpage {/pgsv save def} bdef
/epage {pgsv restore} bdef
/bplot /gsave ldef
/eplot {stroke grestore} bdef
% orientation switch
/portraitMode 0 def /landscapeMode 1 def /rotateMode 2 def
% coordinate system mappings
/dpi2point 0 def
% font control
/FontSize 0 def
/FMS {/FontSize xstore findfont [FontSize 0 0 FontSize neg 0 0]
  makefont setfont} bdef
/reencode {exch dup where {pop load} {pop StandardEncoding} ifelse
  exch dup 3 1 roll findfont dup length dict begin
  { 1 index /FID ne {def}{pop pop} ifelse } forall
  /Encoding exch def currentdict end definefont pop} bdef
/isroman {findfont /CharStrings get /Agrave known} bdef
/FMSR {3 1 roll 1 index dup isroman {reencode} {pop pop} ifelse
  exch FMS} bdef
/csm {1 dpi2point div -1 dpi2point div scale neg translate
 dup landscapeMode eq {pop -90 rotate}
  {rotateMode eq {90 rotate} if} ifelse} bdef
% line types: solid, dotted, dashed, dotdash
/SO { [] 0 setdash } bdef
/DO { [.5 dpi2point mul 4 dpi2point mul] 0 setdash } bdef
/DA { [6 dpi2point mul] 0 setdash } bdef
/DD { [.5 dpi2point mul 4 dpi2point mul 6 dpi2point mul 4
  dpi2point mul] 0 setdash } bdef
% macros for lines and objects
/L {lineto stroke} bdef
/MP {3 1 roll moveto 1 sub {rlineto} repeat} bdef
/AP {{rlineto} repeat} bdef
/PDlw -1 def
/W {/PDlw currentlinewidth def setlinewidth} def
/PP {closepath eofill} bdef
/DP {closepath stroke} bdef
/MR {4 -2 roll moveto dup  0 exch rlineto exch 0 rlineto
  neg 0 exch rlineto closepath} bdef
/FR {MR stroke} bdef
/PR {MR fill} bdef
/L1i {{currentfile picstr readhexstring pop} image} bdef
/tMatrix matrix def
/MakeOval {newpath tMatrix currentmatrix pop translate scale
0 0 1 0 360 arc tMatrix setmatrix} bdef
/FO {MakeOval stroke} bdef
/PO {MakeOval fill} bdef
/PD {currentlinewidth 2 div 0 360 arc fill
   PDlw -1 eq not {PDlw w /PDlw -1 def} if} def
/FA {newpath tMatrix currentmatrix pop translate scale
  0 0 1 5 -2 roll arc tMatrix setmatrix stroke} bdef
/PA {newpath tMatrix currentmatrix pop	translate 0 0 moveto scale
  0 0 1 5 -2 roll arc closepath tMatrix setmatrix fill} bdef
/FAn {newpath tMatrix currentmatrix pop translate scale
  0 0 1 5 -2 roll arcn tMatrix setmatrix stroke} bdef
/PAn {newpath tMatrix currentmatrix pop translate 0 0 moveto scale
  0 0 1 5 -2 roll arcn closepath tMatrix setmatrix fill} bdef
/vradius 0 def /hradius 0 def /lry 0 def
/lrx 0 def /uly 0 def /ulx 0 def /rad 0 def
/MRR {/vradius xdef /hradius xdef /lry xdef /lrx xdef /uly xdef
  /ulx xdef newpath tMatrix currentmatrix pop ulx hradius add uly
  vradius add translate hradius vradius scale 0 0 1 180 270 arc 
  tMatrix setmatrix lrx hradius sub uly vradius add translate
  hradius vradius scale 0 0 1 270 360 arc tMatrix setmatrix
  lrx hradius sub lry vradius sub translate hradius vradius scale
  0 0 1 0 90 arc tMatrix setmatrix ulx hradius add lry vradius sub
  translate hradius vradius scale 0 0 1 90 180 arc tMatrix setmatrix
  closepath} bdef
/FRR {MRR stroke } bdef
/PRR {MRR fill } bdef
/MlrRR {/lry xdef /lrx xdef /uly xdef /ulx xdef /rad lry uly sub 2 div def
  newpath tMatrix currentmatrix pop ulx rad add uly rad add translate
  rad rad scale 0 0 1 90 270 arc tMatrix setmatrix lrx rad sub lry rad
  sub translate rad rad scale 0 0 1 270 90 arc tMatrix setmatrix
  closepath} bdef
/FlrRR {MlrRR stroke } bdef
/PlrRR {MlrRR fill } bdef
/MtbRR {/lry xdef /lrx xdef /uly xdef /ulx xdef /rad lrx ulx sub 2 div def
  newpath tMatrix currentmatrix pop ulx rad add uly rad add translate
  rad rad scale 0 0 1 180 360 arc tMatrix setmatrix lrx rad sub lry rad
  sub translate rad rad scale 0 0 1 0 180 arc tMatrix setmatrix
  closepath} bdef
/FtbRR {MtbRR stroke } bdef
/PtbRR {MtbRR fill } bdef
/stri 6 array def /dtri 6 array def
/smat 6 array def /dmat 6 array def
/tmat1 6 array def /tmat2 6 array def /dif 3 array def
/asub {/ind2 exch def /ind1 exch def dup dup
  ind1 get exch ind2 get sub exch } bdef
/tri_to_matrix {
  2 0 asub 3 1 asub 4 0 asub 5 1 asub
  dup 0 get exch 1 get 7 -1 roll astore } bdef
/compute_transform {
  dmat dtri tri_to_matrix tmat1 invertmatrix 
  smat stri tri_to_matrix tmat2 concatmatrix } bdef
/ds {stri astore pop} bdef
/dt {dtri astore pop} bdef
/db {2 copy /cols xdef /rows xdef mul dup 3 mul string
  currentfile 
  3 index 0 eq {/ASCIIHexDecode filter}
  {/ASCII85Decode filter 3 index 2 eq {/RunLengthDecode filter} if }
  ifelse exch readstring pop
  dup 0 3 index getinterval /rbmap xdef
  dup 2 index dup getinterval /gbmap xdef
  1 index dup 2 mul exch getinterval /bbmap xdef pop pop}bdef
/it {gs np dtri aload pop moveto lineto lineto cp c
  cols rows 8 compute_transform 
  rbmap gbmap bbmap true 3 colorimage gr}bdef
/il {newpath moveto lineto stroke}bdef
currentdict end def
%%EndProlog

%%BeginSetup
MathWorks begin

0 cap

end
%%EndSetup

%%Page: 1 1
%%BeginPageSetup
%%PageBoundingBox:    26   186   585   606
MathWorks begin
bpage
%%EndPageSetup

%%BeginObject: obj1
bplot

/dpi2point 12 def
portraitMode 0312 7272 csm

    0     0  6719  5033 rc
88 dict begin %Colortable dictionary
/c0 { 0.000000 0.000000 0.000000 sr} bdef
/c1 { 1.000000 1.000000 1.000000 sr} bdef
/c2 { 0.900000 0.000000 0.000000 sr} bdef
/c3 { 0.000000 0.820000 0.000000 sr} bdef
/c4 { 0.000000 0.000000 0.800000 sr} bdef
/c5 { 0.910000 0.820000 0.320000 sr} bdef
/c6 { 1.000000 0.260000 0.820000 sr} bdef
/c7 { 0.000000 0.820000 0.820000 sr} bdef
c0
1 j
1 sg
   0    0 6720 5034 rf
6 w
0 4102 5208 0 0 -4102 873 4479 4 MP
PP
-5208 0 0 4102 5208 0 0 -4102 873 4479 5 MP stroke
4 w
DO
0 sg
 873 4479 mt  873  377 L
 873  377 mt  873  377 L
1393 4479 mt 1393  377 L
1393  377 mt 1393  377 L
1914 4479 mt 1914  377 L
1914  377 mt 1914  377 L
2435 4479 mt 2435  377 L
2435  377 mt 2435  377 L
2956 4479 mt 2956  377 L
2956  377 mt 2956  377 L
3477 4479 mt 3477  377 L
3477  377 mt 3477  377 L
3997 4479 mt 3997  377 L
3997  377 mt 3997  377 L
4518 4479 mt 4518  377 L
4518  377 mt 4518  377 L
5039 4479 mt 5039  377 L
5039  377 mt 5039  377 L
5560 4479 mt 5560  377 L
5560  377 mt 5560  377 L
6081 4479 mt 6081  377 L
6081  377 mt 6081  377 L
 873 4479 mt 6081 4479 L
6081 4479 mt 6081 4479 L
 873 3111 mt 6081 3111 L
6081 3111 mt 6081 3111 L
 873 1744 mt 6081 1744 L
6081 1744 mt 6081 1744 L
 873  377 mt 6081  377 L
6081  377 mt 6081  377 L
SO
6 w
 873 4479 mt 6081 4479 L
 873 4479 mt  873  377 L
 873 4479 mt  873 4426 L
%%IncludeResource: font Helvetica
/Helvetica /ISOLatin1Encoding 144 FMSR

 833 4647 mt 
(0) s
1393 4479 mt 1393 4426 L
1353 4647 mt 
(2) s
1914 4479 mt 1914 4426 L
1874 4647 mt 
(4) s
2435 4479 mt 2435 4426 L
2395 4647 mt 
(6) s
2956 4479 mt 2956 4426 L
2916 4647 mt 
(8) s
3477 4479 mt 3477 4426 L
3397 4647 mt 
(10) s
3997 4479 mt 3997 4426 L
3917 4647 mt 
(12) s
4518 4479 mt 4518 4426 L
4438 4647 mt 
(14) s
5039 4479 mt 5039 4426 L
4959 4647 mt 
(16) s
5560 4479 mt 5560 4426 L
5480 4647 mt 
(18) s
6081 4479 mt 6081 4426 L
6001 4647 mt 
(20) s
 873 4479 mt  899 4479 L
DO
 873 4479 mt 6081 4479 L
6081 4479 mt 6081 4479 L
SO
 873 4479 mt  925 4479 L
 569 4532 mt 
(10) s
%%IncludeResource: font Helvetica
/Helvetica /ISOLatin1Encoding 96 FMSR

 729 4443 mt 
(-3) s
 873 4067 mt  899 4067 L
DO
 873 4067 mt 6081 4067 L
6081 4067 mt 6081 4067 L
SO
 873 3826 mt  899 3826 L
DO
 873 3826 mt 6081 3826 L
6081 3826 mt 6081 3826 L
SO
 873 3655 mt  899 3655 L
DO
 873 3655 mt 6081 3655 L
6081 3655 mt 6081 3655 L
SO
 873 3523 mt  899 3523 L
DO
 873 3523 mt 6081 3523 L
6081 3523 mt 6081 3523 L
SO
 873 3415 mt  899 3415 L
DO
 873 3415 mt 6081 3415 L
6081 3415 mt 6081 3415 L
SO
 873 3323 mt  899 3323 L
DO
 873 3323 mt 6081 3323 L
6081 3323 mt 6081 3323 L
SO
 873 3244 mt  899 3244 L
DO
 873 3244 mt 6081 3244 L
6081 3244 mt 6081 3244 L
SO
 873 3174 mt  899 3174 L
DO
 873 3174 mt 6081 3174 L
6081 3174 mt 6081 3174 L
SO
 873 3111 mt  899 3111 L
DO
 873 3111 mt 6081 3111 L
6081 3111 mt 6081 3111 L
SO
 873 3111 mt  925 3111 L
%%IncludeResource: font Helvetica
/Helvetica /ISOLatin1Encoding 144 FMSR

 569 3164 mt 
(10) s
%%IncludeResource: font Helvetica
/Helvetica /ISOLatin1Encoding 96 FMSR

 729 3075 mt 
(-2) s
 873 2700 mt  899 2700 L
DO
 873 2700 mt 6081 2700 L
6081 2700 mt 6081 2700 L
SO
 873 2459 mt  899 2459 L
DO
 873 2459 mt 6081 2459 L
6081 2459 mt 6081 2459 L
SO
 873 2288 mt  899 2288 L
DO
 873 2288 mt 6081 2288 L
6081 2288 mt 6081 2288 L
SO
 873 2155 mt  899 2155 L
DO
 873 2155 mt 6081 2155 L
6081 2155 mt 6081 2155 L
SO
 873 2047 mt  899 2047 L
DO
 873 2047 mt 6081 2047 L
6081 2047 mt 6081 2047 L
SO
 873 1956 mt  899 1956 L
DO
 873 1956 mt 6081 1956 L
6081 1956 mt 6081 1956 L
SO
 873 1876 mt  899 1876 L
DO
 873 1876 mt 6081 1876 L
6081 1876 mt 6081 1876 L
SO
 873 1806 mt  899 1806 L
DO
 873 1806 mt 6081 1806 L
6081 1806 mt 6081 1806 L
SO
 873 1744 mt  899 1744 L
DO
 873 1744 mt 6081 1744 L
6081 1744 mt 6081 1744 L
SO
 873 1744 mt  925 1744 L
%%IncludeResource: font Helvetica
/Helvetica /ISOLatin1Encoding 144 FMSR

 569 1797 mt 
(10) s
%%IncludeResource: font Helvetica
/Helvetica /ISOLatin1Encoding 96 FMSR

 729 1708 mt 
(-1) s
 873 1332 mt  899 1332 L
DO
 873 1332 mt 6081 1332 L
6081 1332 mt 6081 1332 L
SO
 873 1091 mt  899 1091 L
DO
 873 1091 mt 6081 1091 L
6081 1091 mt 6081 1091 L
SO
 873  921 mt  899  921 L
DO
 873  921 mt 6081  921 L
6081  921 mt 6081  921 L
SO
 873  788 mt  899  788 L
DO
 873  788 mt 6081  788 L
6081  788 mt 6081  788 L
SO
 873  680 mt  899  680 L
DO
 873  680 mt 6081  680 L
6081  680 mt 6081  680 L
SO
 873  588 mt  899  588 L
DO
 873  588 mt 6081  588 L
6081  588 mt 6081  588 L
SO
 873  509 mt  899  509 L
DO
 873  509 mt 6081  509 L
6081  509 mt 6081  509 L
SO
 873  439 mt  899  439 L
DO
 873  439 mt 6081  439 L
6081  439 mt 6081  439 L
SO
 873  377 mt  899  377 L
DO
 873  377 mt 6081  377 L
6081  377 mt 6081  377 L
SO
 873  377 mt  925  377 L
%%IncludeResource: font Helvetica
/Helvetica /ISOLatin1Encoding 144 FMSR

 569  430 mt 
(10) s
%%IncludeResource: font Helvetica
/Helvetica /ISOLatin1Encoding 96 FMSR

 729  341 mt 
(0) s
gs 873 376 5209 4104 rc
13.2 w
/c8 { 1.000000 0.000000 1.000000 sr} bdef
c8
261 0 260 0 261 0 260 0 260 0 261 0 260 0 261 0 
260 0 260 0 261 0 260 0 261 -107 260 -100 260 -107 261 -195 
260 -285 261 -559 260 -1383 1133 3669 20 MP stroke
gr

13.2 w
c8
gs 1046 845 5123 2912 rc
  36   36 1133 3669 FO
  36   36 1393 2286 FO
  36   36 1654 1727 FO
  36   36 1914 1442 FO
  36   36 2175 1247 FO
  36   36 2435 1140 FO
  36   36 2695 1040 FO
  36   36 2956  933 FO
  36   36 3216  933 FO
  36   36 3477  933 FO
  36   36 3737  933 FO
  36   36 3997  933 FO
  36   36 4258  933 FO
  36   36 4518  933 FO
  36   36 4779  933 FO
  36   36 5039  933 FO
  36   36 5299  933 FO
  36   36 5560  933 FO
  36   36 5820  933 FO
  36   36 6081  933 FO
gr

gs 873 376 5209 4104 rc
0 sg
261 0 260 0 261 0 260 0 260 0 261 0 260 0 261 0 
260 0 260 0 261 0 260 0 261 -72 260 -59 260 -107 261 -195 
260 -285 261 -559 260 -1423 1133 3709 20 MP stroke
gr

0 sg
gs 1046 922 5123 2875 rc
0 j
0 -58 -58 0 0 58 58 0 1104 3680 5 MP
DP
0 -58 -58 0 0 58 58 0 1364 2257 5 MP
DP
0 -58 -58 0 0 58 58 0 1625 1698 5 MP
DP
0 -58 -58 0 0 58 58 0 1885 1413 5 MP
DP
0 -58 -58 0 0 58 58 0 2146 1218 5 MP
DP
0 -58 -58 0 0 58 58 0 2406 1111 5 MP
DP
0 -58 -58 0 0 58 58 0 2666 1052 5 MP
DP
0 -58 -58 0 0 58 58 0 2927 980 5 MP
DP
0 -58 -58 0 0 58 58 0 3187 980 5 MP
DP
0 -58 -58 0 0 58 58 0 3448 980 5 MP
DP
0 -58 -58 0 0 58 58 0 3708 980 5 MP
DP
0 -58 -58 0 0 58 58 0 3968 980 5 MP
DP
0 -58 -58 0 0 58 58 0 4229 980 5 MP
DP
0 -58 -58 0 0 58 58 0 4489 980 5 MP
DP
0 -58 -58 0 0 58 58 0 4750 980 5 MP
DP
0 -58 -58 0 0 58 58 0 5010 980 5 MP
DP
0 -58 -58 0 0 58 58 0 5270 980 5 MP
DP
0 -58 -58 0 0 58 58 0 5531 980 5 MP
DP
0 -58 -58 0 0 58 58 0 5791 980 5 MP
DP
0 -58 -58 0 0 58 58 0 6052 980 5 MP
DP
gr

gs 873 376 5209 4104 rc
/c9 { 0.000000 1.000000 0.000000 sr} bdef
c9
261 0 260 0 261 0 260 0 260 0 261 0 260 0 261 0 
260 0 260 0 261 0 260 0 261 -87 260 -95 260 -159 261 -3 
260 -341 261 -179 260 -1818 1133 3656 20 MP stroke
gr

c9
gs 1046 887 5123 2858 rc
0 j
-41 71 -41 -71 82 0 1092 3680 4 MP
DP
-41 71 -41 -71 82 0 1352 1862 4 MP
DP
-41 71 -41 -71 82 0 1613 1683 4 MP
DP
-41 71 -41 -71 82 0 1873 1342 4 MP
DP
-41 71 -41 -71 82 0 2134 1339 4 MP
DP
-41 71 -41 -71 82 0 2394 1180 4 MP
DP
-41 71 -41 -71 82 0 2654 1085 4 MP
DP
-41 71 -41 -71 82 0 2915 998 4 MP
DP
-41 71 -41 -71 82 0 3175 998 4 MP
DP
-41 71 -41 -71 82 0 3436 998 4 MP
DP
-41 71 -41 -71 82 0 3696 998 4 MP
DP
-41 71 -41 -71 82 0 3956 998 4 MP
DP
-41 71 -41 -71 82 0 4217 998 4 MP
DP
-41 71 -41 -71 82 0 4477 998 4 MP
DP
-41 71 -41 -71 82 0 4738 998 4 MP
DP
-41 71 -41 -71 82 0 4998 998 4 MP
DP
-41 71 -41 -71 82 0 5258 998 4 MP
DP
-41 71 -41 -71 82 0 5519 998 4 MP
DP
-41 71 -41 -71 82 0 5779 998 4 MP
DP
-41 71 -41 -71 82 0 6040 998 4 MP
DP
gr

gs 873 376 5209 4104 rc
/c10 { 1.000000 1.000000 0.000000 sr} bdef
c10
261 0 260 0 261 0 260 0 260 0 261 0 260 0 261 0 
260 0 260 0 261 0 260 0 261 0 260 0 260 0 261 109 
260 440 261 -268 260 139 1133 991 20 MP stroke
gr

c10
gs 1046 775 5123 724 rc
0 j
-41 71 -41 -71 82 0 1092 1015 4 MP
DP
-41 71 -41 -71 82 0 1352 1154 4 MP
DP
-41 71 -41 -71 82 0 1613 886 4 MP
DP
-41 71 -41 -71 82 0 1873 1326 4 MP
DP
-41 71 -41 -71 82 0 2134 1435 4 MP
DP
-41 71 -41 -71 82 0 2394 1435 4 MP
DP
-41 71 -41 -71 82 0 2654 1435 4 MP
DP
-41 71 -41 -71 82 0 2915 1435 4 MP
DP
-41 71 -41 -71 82 0 3175 1435 4 MP
DP
-41 71 -41 -71 82 0 3436 1435 4 MP
DP
-41 71 -41 -71 82 0 3696 1435 4 MP
DP
-41 71 -41 -71 82 0 3956 1435 4 MP
DP
-41 71 -41 -71 82 0 4217 1435 4 MP
DP
-41 71 -41 -71 82 0 4477 1435 4 MP
DP
-41 71 -41 -71 82 0 4738 1435 4 MP
DP
-41 71 -41 -71 82 0 4998 1435 4 MP
DP
-41 71 -41 -71 82 0 5258 1435 4 MP
DP
-41 71 -41 -71 82 0 5519 1435 4 MP
DP
-41 71 -41 -71 82 0 5779 1435 4 MP
DP
-41 71 -41 -71 82 0 6040 1435 4 MP
DP
gr

gs 873 376 5209 4104 rc
/c11 { 1.000000 0.000000 0.000000 sr} bdef
c11
261 0 260 0 261 0 260 0 260 0 261 0 260 0 261 0 
260 0 260 0 261 0 260 0 261 -17 260 -111 260 -97 261 -115 
260 -162 261 -269 260 -1939 1133 3643 20 MP stroke
gr

c11
gs 1046 845 5123 2887 rc
0 j
36 47 -36 47 -36 -47 36 -47 1133 3690 5 MP
DP
36 47 -36 47 -36 -47 36 -47 1393 1751 5 MP
DP
36 47 -36 47 -36 -47 36 -47 1654 1482 5 MP
DP
36 47 -36 47 -36 -47 36 -47 1914 1320 5 MP
DP
36 47 -36 47 -36 -47 36 -47 2175 1205 5 MP
DP
36 47 -36 47 -36 -47 36 -47 2435 1108 5 MP
DP
36 47 -36 47 -36 -47 36 -47 2695 997 5 MP
DP
36 47 -36 47 -36 -47 36 -47 2956 980 5 MP
DP
36 47 -36 47 -36 -47 36 -47 3216 980 5 MP
DP
36 47 -36 47 -36 -47 36 -47 3477 980 5 MP
DP
36 47 -36 47 -36 -47 36 -47 3737 980 5 MP
DP
36 47 -36 47 -36 -47 36 -47 3997 980 5 MP
DP
36 47 -36 47 -36 -47 36 -47 4258 980 5 MP
DP
36 47 -36 47 -36 -47 36 -47 4518 980 5 MP
DP
36 47 -36 47 -36 -47 36 -47 4779 980 5 MP
DP
36 47 -36 47 -36 -47 36 -47 5039 980 5 MP
DP
36 47 -36 47 -36 -47 36 -47 5299 980 5 MP
DP
36 47 -36 47 -36 -47 36 -47 5560 980 5 MP
DP
36 47 -36 47 -36 -47 36 -47 5820 980 5 MP
DP
36 47 -36 47 -36 -47 36 -47 6081 980 5 MP
DP
gr

gs 873 376 5209 4104 rc
gr

0 sg
%%IncludeResource: font Helvetica
/Helvetica /ISOLatin1Encoding 144 FMSR

2760 4808 mt 
(Number of Sensors [k]) s
 482 3202 mt  -90 rotate
(Normalized Output SNR) s
90 rotate
%%IncludeResource: font Helvetica
/Helvetica /ISOLatin1Encoding 120 FMSR

 856 4522 mt 
( ) s
6065  418 mt 
( ) s
6 w
1 sg
0 912 1857 0 0 -912 4165 4420 4 MP
PP
-1857 0 0 912 1857 0 0 -912 4165 4420 5 MP stroke
4 w
DO
SO
6 w
0 sg
4165 4420 mt 6022 4420 L
4165 3508 mt 6022 3508 L
4165 4420 mt 4165 3508 L
6022 4420 mt 6022 3508 L
4165 4420 mt 6022 4420 L
4165 4420 mt 4165 3508 L
4165 4420 mt 6022 4420 L
4165 3508 mt 6022 3508 L
4165 4420 mt 4165 3508 L
6022 4420 mt 6022 3508 L
%%IncludeResource: font Helvetica
/Helvetica /ISOLatin1Encoding 144 FMSR

4618 3665 mt 
(Convex Method) s
gs 4165 3508 1858 913 rc
13.2 w
c9
349 0 4234 3614 2 MP stroke
gs 4321 3526 176 176 rc
0 j
-41 71 -41 -71 82 0 4368 3638 4 MP
DP
gr

gr

13.2 w
c9
0 sg
4618 3840 mt 
(Submodular Method) s
gs 4165 3508 1858 913 rc
349 0 4234 3789 2 MP stroke
gs 4321 3701 176 176 rc
0 j
0 -58 -58 0 0 58 58 0 4380 3760 5 MP
DP
gr

gr

4618 4015 mt 
(Output SNR Greedy) s
gs 4165 3508 1858 913 rc
c8
349 0 4234 3964 2 MP stroke
gs 4321 3876 176 176 rc
  36   36 4409 3964 FO
gr

gr

c8
0 sg
4618 4191 mt 
(Sparse Beamforming) s
gs 4165 3508 1858 913 rc
c10
349 0 4234 4138 2 MP stroke
gs 4321 4051 176 176 rc
0 j
-41 71 -41 -71 82 0 4368 4162 4 MP
DP
gr

gr

c10
0 sg
4618 4366 mt 
(Exhaustive Search) s
gs 4165 3508 1858 913 rc
c11
349 0 4234 4313 2 MP stroke
gs 4321 4226 176 176 rc
0 j
36 47 -36 47 -36 -47 36 -47 4409 4360 5 MP
DP
gr

6 w
gr

6 w
c11

end %%Color Dict

eplot
%%EndObject

epage
end

showpage

%%Trailer
%%EOF
