%!PS-Adobe-3.0 EPSF-3.0
%%Creator: MATLAB, The MathWorks, Inc. Version 8.1.0.604 (R2013a). Operating System: Darwin 15.0.0 Darwin Kernel Version 15.0.0: Sat Sep 19 15:53:46 PDT 2015; root:xnu-3247.10.11~1/RELEASE_X86_64 x86_64.
%%Title: /Users/fruzti/Dropbox/PhD/SubmodularityMVDR/figureConference/comparisonMethods.eps
%%CreationDate: 02/10/2017  11:56:18
%%DocumentNeededFonts: Helvetica
%%DocumentProcessColors: Cyan Magenta Yellow Black
%%LanguageLevel: 2
%%Pages: 1
%%BoundingBox:    25   186   586   606
%%EndComments

%%BeginProlog
% MathWorks dictionary
/MathWorks 160 dict begin
% definition operators
/bdef {bind def} bind def
/ldef {load def} bind def
/xdef {exch def} bdef
/xstore {exch store} bdef
% operator abbreviations
/c  /clip ldef
/cc /concat ldef
/cp /closepath ldef
/gr /grestore ldef
/gs /gsave ldef
/mt /moveto ldef
/np /newpath ldef
/cm /currentmatrix ldef
/sm /setmatrix ldef
/rm /rmoveto ldef
/rl /rlineto ldef
/s {show newpath} bdef
/sc {setcmykcolor} bdef
/sr /setrgbcolor ldef
/sg /setgray ldef
/w /setlinewidth ldef
/j /setlinejoin ldef
/cap /setlinecap ldef
/rc {rectclip} bdef
/rf {rectfill} bdef
% page state control
/pgsv () def
/bpage {/pgsv save def} bdef
/epage {pgsv restore} bdef
/bplot /gsave ldef
/eplot {stroke grestore} bdef
% orientation switch
/portraitMode 0 def /landscapeMode 1 def /rotateMode 2 def
% coordinate system mappings
/dpi2point 0 def
% font control
/FontSize 0 def
/FMS {/FontSize xstore findfont [FontSize 0 0 FontSize neg 0 0]
  makefont setfont} bdef
/reencode {exch dup where {pop load} {pop StandardEncoding} ifelse
  exch dup 3 1 roll findfont dup length dict begin
  { 1 index /FID ne {def}{pop pop} ifelse } forall
  /Encoding exch def currentdict end definefont pop} bdef
/isroman {findfont /CharStrings get /Agrave known} bdef
/FMSR {3 1 roll 1 index dup isroman {reencode} {pop pop} ifelse
  exch FMS} bdef
/csm {1 dpi2point div -1 dpi2point div scale neg translate
 dup landscapeMode eq {pop -90 rotate}
  {rotateMode eq {90 rotate} if} ifelse} bdef
% line types: solid, dotted, dashed, dotdash
/SO { [] 0 setdash } bdef
/DO { [.5 dpi2point mul 4 dpi2point mul] 0 setdash } bdef
/DA { [6 dpi2point mul] 0 setdash } bdef
/DD { [.5 dpi2point mul 4 dpi2point mul 6 dpi2point mul 4
  dpi2point mul] 0 setdash } bdef
% macros for lines and objects
/L {lineto stroke} bdef
/MP {3 1 roll moveto 1 sub {rlineto} repeat} bdef
/AP {{rlineto} repeat} bdef
/PDlw -1 def
/W {/PDlw currentlinewidth def setlinewidth} def
/PP {closepath eofill} bdef
/DP {closepath stroke} bdef
/MR {4 -2 roll moveto dup  0 exch rlineto exch 0 rlineto
  neg 0 exch rlineto closepath} bdef
/FR {MR stroke} bdef
/PR {MR fill} bdef
/L1i {{currentfile picstr readhexstring pop} image} bdef
/tMatrix matrix def
/MakeOval {newpath tMatrix currentmatrix pop translate scale
0 0 1 0 360 arc tMatrix setmatrix} bdef
/FO {MakeOval stroke} bdef
/PO {MakeOval fill} bdef
/PD {currentlinewidth 2 div 0 360 arc fill
   PDlw -1 eq not {PDlw w /PDlw -1 def} if} def
/FA {newpath tMatrix currentmatrix pop translate scale
  0 0 1 5 -2 roll arc tMatrix setmatrix stroke} bdef
/PA {newpath tMatrix currentmatrix pop	translate 0 0 moveto scale
  0 0 1 5 -2 roll arc closepath tMatrix setmatrix fill} bdef
/FAn {newpath tMatrix currentmatrix pop translate scale
  0 0 1 5 -2 roll arcn tMatrix setmatrix stroke} bdef
/PAn {newpath tMatrix currentmatrix pop translate 0 0 moveto scale
  0 0 1 5 -2 roll arcn closepath tMatrix setmatrix fill} bdef
/vradius 0 def /hradius 0 def /lry 0 def
/lrx 0 def /uly 0 def /ulx 0 def /rad 0 def
/MRR {/vradius xdef /hradius xdef /lry xdef /lrx xdef /uly xdef
  /ulx xdef newpath tMatrix currentmatrix pop ulx hradius add uly
  vradius add translate hradius vradius scale 0 0 1 180 270 arc 
  tMatrix setmatrix lrx hradius sub uly vradius add translate
  hradius vradius scale 0 0 1 270 360 arc tMatrix setmatrix
  lrx hradius sub lry vradius sub translate hradius vradius scale
  0 0 1 0 90 arc tMatrix setmatrix ulx hradius add lry vradius sub
  translate hradius vradius scale 0 0 1 90 180 arc tMatrix setmatrix
  closepath} bdef
/FRR {MRR stroke } bdef
/PRR {MRR fill } bdef
/MlrRR {/lry xdef /lrx xdef /uly xdef /ulx xdef /rad lry uly sub 2 div def
  newpath tMatrix currentmatrix pop ulx rad add uly rad add translate
  rad rad scale 0 0 1 90 270 arc tMatrix setmatrix lrx rad sub lry rad
  sub translate rad rad scale 0 0 1 270 90 arc tMatrix setmatrix
  closepath} bdef
/FlrRR {MlrRR stroke } bdef
/PlrRR {MlrRR fill } bdef
/MtbRR {/lry xdef /lrx xdef /uly xdef /ulx xdef /rad lrx ulx sub 2 div def
  newpath tMatrix currentmatrix pop ulx rad add uly rad add translate
  rad rad scale 0 0 1 180 360 arc tMatrix setmatrix lrx rad sub lry rad
  sub translate rad rad scale 0 0 1 0 180 arc tMatrix setmatrix
  closepath} bdef
/FtbRR {MtbRR stroke } bdef
/PtbRR {MtbRR fill } bdef
/stri 6 array def /dtri 6 array def
/smat 6 array def /dmat 6 array def
/tmat1 6 array def /tmat2 6 array def /dif 3 array def
/asub {/ind2 exch def /ind1 exch def dup dup
  ind1 get exch ind2 get sub exch } bdef
/tri_to_matrix {
  2 0 asub 3 1 asub 4 0 asub 5 1 asub
  dup 0 get exch 1 get 7 -1 roll astore } bdef
/compute_transform {
  dmat dtri tri_to_matrix tmat1 invertmatrix 
  smat stri tri_to_matrix tmat2 concatmatrix } bdef
/ds {stri astore pop} bdef
/dt {dtri astore pop} bdef
/db {2 copy /cols xdef /rows xdef mul dup 3 mul string
  currentfile 
  3 index 0 eq {/ASCIIHexDecode filter}
  {/ASCII85Decode filter 3 index 2 eq {/RunLengthDecode filter} if }
  ifelse exch readstring pop
  dup 0 3 index getinterval /rbmap xdef
  dup 2 index dup getinterval /gbmap xdef
  1 index dup 2 mul exch getinterval /bbmap xdef pop pop}bdef
/it {gs np dtri aload pop moveto lineto lineto cp c
  cols rows 8 compute_transform 
  rbmap gbmap bbmap true 3 colorimage gr}bdef
/il {newpath moveto lineto stroke}bdef
currentdict end def
%%EndProlog

%%BeginSetup
MathWorks begin

0 cap

end
%%EndSetup

%%Page: 1 1
%%BeginPageSetup
%%PageBoundingBox:    25   186   586   606
MathWorks begin
bpage
%%EndPageSetup

%%BeginObject: obj1
bplot

/dpi2point 12 def
portraitMode 0300 7272 csm

    0     0  6732  5033 rc
87 dict begin %Colortable dictionary
/c0 { 0.000000 0.000000 0.000000 sr} bdef
/c1 { 1.000000 1.000000 1.000000 sr} bdef
/c2 { 0.900000 0.000000 0.000000 sr} bdef
/c3 { 0.000000 0.820000 0.000000 sr} bdef
/c4 { 0.000000 0.000000 0.800000 sr} bdef
/c5 { 0.910000 0.820000 0.320000 sr} bdef
/c6 { 1.000000 0.260000 0.820000 sr} bdef
/c7 { 0.000000 0.820000 0.820000 sr} bdef
c0
1 j
1 sg
   0    0 6733 5034 rf
6 w
0 4102 5217 0 0 -4102 875 4479 4 MP
PP
-5217 0 0 4102 5217 0 0 -4102 875 4479 5 MP stroke
4 w
DO
0 sg
 875 4479 mt  875  377 L
 875  377 mt  875  377 L
1396 4479 mt 1396  377 L
1396  377 mt 1396  377 L
1918 4479 mt 1918  377 L
1918  377 mt 1918  377 L
2440 4479 mt 2440  377 L
2440  377 mt 2440  377 L
2961 4479 mt 2961  377 L
2961  377 mt 2961  377 L
3483 4479 mt 3483  377 L
3483  377 mt 3483  377 L
4005 4479 mt 4005  377 L
4005  377 mt 4005  377 L
4526 4479 mt 4526  377 L
4526  377 mt 4526  377 L
5048 4479 mt 5048  377 L
5048  377 mt 5048  377 L
5570 4479 mt 5570  377 L
5570  377 mt 5570  377 L
6092 4479 mt 6092  377 L
6092  377 mt 6092  377 L
 875 4479 mt 6092 4479 L
6092 4479 mt 6092 4479 L
 875 2428 mt 6092 2428 L
6092 2428 mt 6092 2428 L
 875  377 mt 6092  377 L
6092  377 mt 6092  377 L
SO
6 w
 875 4479 mt 6092 4479 L
 875 4479 mt  875  377 L
 875 4479 mt  875 4426 L
%%IncludeResource: font Helvetica
/Helvetica /ISOLatin1Encoding 144 FMSR

 835 4647 mt 
(0) s
1396 4479 mt 1396 4426 L
1356 4647 mt 
(5) s
1918 4479 mt 1918 4426 L
1838 4647 mt 
(10) s
2440 4479 mt 2440 4426 L
2360 4647 mt 
(15) s
2961 4479 mt 2961 4426 L
2881 4647 mt 
(20) s
3483 4479 mt 3483 4426 L
3403 4647 mt 
(25) s
4005 4479 mt 4005 4426 L
3925 4647 mt 
(30) s
4526 4479 mt 4526 4426 L
4446 4647 mt 
(35) s
5048 4479 mt 5048 4426 L
4968 4647 mt 
(40) s
5570 4479 mt 5570 4426 L
5490 4647 mt 
(45) s
6092 4479 mt 6092 4426 L
6012 4647 mt 
(50) s
 875 4479 mt  901 4479 L
DO
 875 4479 mt 6092 4479 L
6092 4479 mt 6092 4479 L
SO
 875 4479 mt  927 4479 L
 571 4532 mt 
(10) s
%%IncludeResource: font Helvetica
/Helvetica /ISOLatin1Encoding 96 FMSR

 731 4443 mt 
(-2) s
 875 3861 mt  901 3861 L
DO
 875 3861 mt 6092 3861 L
6092 3861 mt 6092 3861 L
SO
 875 3500 mt  901 3500 L
DO
 875 3500 mt 6092 3500 L
6092 3500 mt 6092 3500 L
SO
 875 3244 mt  901 3244 L
DO
 875 3244 mt 6092 3244 L
6092 3244 mt 6092 3244 L
SO
 875 3045 mt  901 3045 L
DO
 875 3045 mt 6092 3045 L
6092 3045 mt 6092 3045 L
SO
 875 2883 mt  901 2883 L
DO
 875 2883 mt 6092 2883 L
6092 2883 mt 6092 2883 L
SO
 875 2745 mt  901 2745 L
DO
 875 2745 mt 6092 2745 L
6092 2745 mt 6092 2745 L
SO
 875 2626 mt  901 2626 L
DO
 875 2626 mt 6092 2626 L
6092 2626 mt 6092 2626 L
SO
 875 2521 mt  901 2521 L
DO
 875 2521 mt 6092 2521 L
6092 2521 mt 6092 2521 L
SO
 875 2428 mt  901 2428 L
DO
 875 2428 mt 6092 2428 L
6092 2428 mt 6092 2428 L
SO
 875 2428 mt  927 2428 L
%%IncludeResource: font Helvetica
/Helvetica /ISOLatin1Encoding 144 FMSR

 571 2481 mt 
(10) s
%%IncludeResource: font Helvetica
/Helvetica /ISOLatin1Encoding 96 FMSR

 731 2392 mt 
(-1) s
 875 1810 mt  901 1810 L
DO
 875 1810 mt 6092 1810 L
6092 1810 mt 6092 1810 L
SO
 875 1449 mt  901 1449 L
DO
 875 1449 mt 6092 1449 L
6092 1449 mt 6092 1449 L
SO
 875 1193 mt  901 1193 L
DO
 875 1193 mt 6092 1193 L
6092 1193 mt 6092 1193 L
SO
 875  994 mt  901  994 L
DO
 875  994 mt 6092  994 L
6092  994 mt 6092  994 L
SO
 875  832 mt  901  832 L
DO
 875  832 mt 6092  832 L
6092  832 mt 6092  832 L
SO
 875  694 mt  901  694 L
DO
 875  694 mt 6092  694 L
6092  694 mt 6092  694 L
SO
 875  575 mt  901  575 L
DO
 875  575 mt 6092  575 L
6092  575 mt 6092  575 L
SO
 875  470 mt  901  470 L
DO
 875  470 mt 6092  470 L
6092  470 mt 6092  470 L
SO
 875  377 mt  901  377 L
DO
 875  377 mt 6092  377 L
6092  377 mt 6092  377 L
SO
 875  377 mt  927  377 L
%%IncludeResource: font Helvetica
/Helvetica /ISOLatin1Encoding 144 FMSR

 571  430 mt 
(10) s
%%IncludeResource: font Helvetica
/Helvetica /ISOLatin1Encoding 96 FMSR

 731  341 mt 
(0) s
gs 875 377 5218 4103 rc
13.2 w
/c8 { 1.000000 0.000000 1.000000 sr} bdef
c8
105 0 104 0 105 0 104 0 104 0 105 0 104 0 104 0 
105 0 104 0 104 0 105 -30 104 -8 104 -22 105 -35 104 -27 
104 -20 105 -5 104 -39 104 -28 105 -38 104 -22 104 -45 105 -71 
104 -46 104 -43 105 -52 104 -47 104 -39 105 -60 104 -50 104 -80 
105 -58 104 -28 104 -57 105 -115 104 -65 104 -43 105 -82 104 -92 
104 -60 105 -113 104 -118 104 -289 105 -204 104 -225 104 -303 105 -425 
104 -763 979 4354 50 MP stroke
gr

13.2 w
c8
gs 892 420 5288 4022 rc
  36   36  979 4354 FO
  36   36 1083 3591 FO
  36   36 1188 3166 FO
  36   36 1292 2863 FO
  36   36 1396 2638 FO
  36   36 1501 2434 FO
  36   36 1605 2145 FO
  36   36 1709 2027 FO
  36   36 1814 1914 FO
  36   36 1918 1854 FO
  36   36 2022 1762 FO
  36   36 2127 1680 FO
  36   36 2231 1637 FO
  36   36 2335 1572 FO
  36   36 2440 1457 FO
  36   36 2544 1400 FO
  36   36 2648 1372 FO
  36   36 2753 1314 FO
  36   36 2857 1234 FO
  36   36 2961 1184 FO
  36   36 3066 1124 FO
  36   36 3170 1085 FO
  36   36 3274 1038 FO
  36   36 3379  986 FO
  36   36 3483  943 FO
  36   36 3587  897 FO
  36   36 3692  826 FO
  36   36 3796  781 FO
  36   36 3900  759 FO
  36   36 4005  721 FO
  36   36 4109  693 FO
  36   36 4213  654 FO
  36   36 4318  649 FO
  36   36 4422  629 FO
  36   36 4526  602 FO
  36   36 4631  567 FO
  36   36 4735  545 FO
  36   36 4839  537 FO
  36   36 4944  507 FO
  36   36 5048  507 FO
  36   36 5152  507 FO
  36   36 5257  507 FO
  36   36 5361  507 FO
  36   36 5465  507 FO
  36   36 5570  507 FO
  36   36 5674  507 FO
  36   36 5778  507 FO
  36   36 5883  507 FO
  36   36 5987  507 FO
  36   36 6092  507 FO
gr

gs 875 377 5218 4103 rc
0 sg
105 0 104 0 105 0 104 0 104 0 105 0 104 0 104 0 
105 0 104 -59 104 -18 105 -15 104 -75 104 -13 105 -7 104 -36 
104 -44 105 -11 104 -21 104 -5 105 -31 104 -12 104 -74 105 -40 
104 -69 104 -45 105 -19 104 -46 104 -61 105 -2 104 -59 104 -17 
105 -47 104 -78 104 -37 105 -71 104 -86 104 -63 105 -19 104 -57 
104 -186 105 -106 104 -130 104 -48 105 -204 104 -301 104 -227 105 -425 
104 -763 979 4354 50 MP stroke
gr

0 sg
gs 892 640 5288 3802 rc
0 j
0 -58 -58 0 0 58 58 0 950 4325 5 MP
DP
0 -58 -58 0 0 58 58 0 1054 3562 5 MP
DP
0 -58 -58 0 0 58 58 0 1159 3137 5 MP
DP
0 -58 -58 0 0 58 58 0 1263 2910 5 MP
DP
0 -58 -58 0 0 58 58 0 1367 2609 5 MP
DP
0 -58 -58 0 0 58 58 0 1472 2405 5 MP
DP
0 -58 -58 0 0 58 58 0 1576 2357 5 MP
DP
0 -58 -58 0 0 58 58 0 1680 2227 5 MP
DP
0 -58 -58 0 0 58 58 0 1785 2121 5 MP
DP
0 -58 -58 0 0 58 58 0 1889 1935 5 MP
DP
0 -58 -58 0 0 58 58 0 1993 1878 5 MP
DP
0 -58 -58 0 0 58 58 0 2098 1859 5 MP
DP
0 -58 -58 0 0 58 58 0 2202 1796 5 MP
DP
0 -58 -58 0 0 58 58 0 2306 1710 5 MP
DP
0 -58 -58 0 0 58 58 0 2411 1639 5 MP
DP
0 -58 -58 0 0 58 58 0 2515 1602 5 MP
DP
0 -58 -58 0 0 58 58 0 2619 1524 5 MP
DP
0 -58 -58 0 0 58 58 0 2724 1477 5 MP
DP
0 -58 -58 0 0 58 58 0 2828 1460 5 MP
DP
0 -58 -58 0 0 58 58 0 2932 1401 5 MP
DP
0 -58 -58 0 0 58 58 0 3037 1399 5 MP
DP
0 -58 -58 0 0 58 58 0 3141 1338 5 MP
DP
0 -58 -58 0 0 58 58 0 3245 1292 5 MP
DP
0 -58 -58 0 0 58 58 0 3350 1273 5 MP
DP
0 -58 -58 0 0 58 58 0 3454 1228 5 MP
DP
0 -58 -58 0 0 58 58 0 3558 1159 5 MP
DP
0 -58 -58 0 0 58 58 0 3663 1119 5 MP
DP
0 -58 -58 0 0 58 58 0 3767 1045 5 MP
DP
0 -58 -58 0 0 58 58 0 3871 1033 5 MP
DP
0 -58 -58 0 0 58 58 0 3976 1002 5 MP
DP
0 -58 -58 0 0 58 58 0 4080 997 5 MP
DP
0 -58 -58 0 0 58 58 0 4184 976 5 MP
DP
0 -58 -58 0 0 58 58 0 4289 965 5 MP
DP
0 -58 -58 0 0 58 58 0 4393 921 5 MP
DP
0 -58 -58 0 0 58 58 0 4497 885 5 MP
DP
0 -58 -58 0 0 58 58 0 4602 878 5 MP
DP
0 -58 -58 0 0 58 58 0 4706 865 5 MP
DP
0 -58 -58 0 0 58 58 0 4810 790 5 MP
DP
0 -58 -58 0 0 58 58 0 4915 775 5 MP
DP
0 -58 -58 0 0 58 58 0 5019 757 5 MP
DP
0 -58 -58 0 0 58 58 0 5123 698 5 MP
DP
0 -58 -58 0 0 58 58 0 5228 698 5 MP
DP
0 -58 -58 0 0 58 58 0 5332 698 5 MP
DP
0 -58 -58 0 0 58 58 0 5436 698 5 MP
DP
0 -58 -58 0 0 58 58 0 5541 698 5 MP
DP
0 -58 -58 0 0 58 58 0 5645 698 5 MP
DP
0 -58 -58 0 0 58 58 0 5749 698 5 MP
DP
0 -58 -58 0 0 58 58 0 5854 698 5 MP
DP
0 -58 -58 0 0 58 58 0 5958 698 5 MP
DP
0 -58 -58 0 0 58 58 0 6063 698 5 MP
DP
gr

gs 875 377 5218 4103 rc
/c9 { 0.000000 1.000000 0.000000 sr} bdef
c9
1043 -426 1043 -299 1044 -721 1043 -2009 979 4097 5 MP stroke
gs 892 555 4349 3630 rc
0 j
-41 71 -41 -71 82 0 938 4121 4 MP
DP
-41 71 -41 -71 82 0 1981 2112 4 MP
DP
-41 71 -41 -71 82 0 3025 1391 4 MP
DP
-41 71 -41 -71 82 0 4068 1092 4 MP
DP
-41 71 -41 -71 82 0 5111 666 4 MP
DP
gr

gr

c9
0 sg
%%IncludeResource: font Helvetica
/Helvetica /ISOLatin1Encoding 144 FMSR

2766 4808 mt 
(Number of Sensors [k]) s
 484 3202 mt  -90 rotate
(Normalized Output SNR) s
90 rotate
%%IncludeResource: font Helvetica
/Helvetica /ISOLatin1Encoding 120 FMSR

 858 4522 mt 
( ) s
6076  419 mt 
( ) s
6 w
1 sg
0 564 1802 0 0 -564 4230 4420 4 MP
PP
-1802 0 0 564 1802 0 0 -564 4230 4420 5 MP stroke
4 w
DO
SO
6 w
0 sg
4230 4420 mt 6032 4420 L
4230 3856 mt 6032 3856 L
4230 4420 mt 4230 3856 L
6032 4420 mt 6032 3856 L
4230 4420 mt 6032 4420 L
4230 4420 mt 4230 3856 L
4230 4420 mt 6032 4420 L
4230 3856 mt 6032 3856 L
4230 4420 mt 4230 3856 L
6032 4420 mt 6032 3856 L
%%IncludeResource: font Helvetica
/Helvetica /ISOLatin1Encoding 144 FMSR

4681 4014 mt 
(Convex Method) s
gs 4230 3856 1803 565 rc
13.2 w
c9
347 0 4299 3962 2 MP stroke
gs 4385 3875 176 175 rc
0 j
-41 71 -41 -71 82 0 4431 3986 4 MP
DP
gr

gr

13.2 w
c9
0 sg
4681 4190 mt 
(Submodular Method) s
gs 4230 3856 1803 565 rc
347 0 4299 4138 2 MP stroke
gs 4385 4050 176 176 rc
0 j
0 -58 -58 0 0 58 58 0 4443 4109 5 MP
DP
gr

gr

4681 4365 mt 
(Output SNR Greedy) s
gs 4230 3856 1803 565 rc
c8
347 0 4299 4313 2 MP stroke
gs 4385 4226 176 175 rc
  36   36 4472 4313 FO
gr

6 w
gr

6 w
c8

end %%Color Dict

eplot
%%EndObject

epage
end

showpage

%%Trailer
%%EOF
