%!PS-Adobe-3.0 EPSF-3.0
%%Creator: MATLAB, The MathWorks, Inc. Version 8.1.0.604 (R2013a). Operating System: Darwin 15.0.0 Darwin Kernel Version 15.0.0: Sat Sep 19 15:53:46 PDT 2015; root:xnu-3247.10.11~1/RELEASE_X86_64 x86_64.
%%Title: /Users/fruzti/Dropbox/PhD/SubmodularityMVDR/figureConference/fig2.eps
%%CreationDate: 02/22/2017  11:53:20
%%DocumentNeededFonts: Helvetica
%%DocumentProcessColors: Cyan Magenta Yellow Black
%%LanguageLevel: 2
%%Pages: 1
%%BoundingBox:  -232     8   843   783
%%EndComments

%%BeginProlog
% MathWorks dictionary
/MathWorks 160 dict begin
% definition operators
/bdef {bind def} bind def
/ldef {load def} bind def
/xdef {exch def} bdef
/xstore {exch store} bdef
% operator abbreviations
/c  /clip ldef
/cc /concat ldef
/cp /closepath ldef
/gr /grestore ldef
/gs /gsave ldef
/mt /moveto ldef
/np /newpath ldef
/cm /currentmatrix ldef
/sm /setmatrix ldef
/rm /rmoveto ldef
/rl /rlineto ldef
/s {show newpath} bdef
/sc {setcmykcolor} bdef
/sr /setrgbcolor ldef
/sg /setgray ldef
/w /setlinewidth ldef
/j /setlinejoin ldef
/cap /setlinecap ldef
/rc {rectclip} bdef
/rf {rectfill} bdef
% page state control
/pgsv () def
/bpage {/pgsv save def} bdef
/epage {pgsv restore} bdef
/bplot /gsave ldef
/eplot {stroke grestore} bdef
% orientation switch
/portraitMode 0 def /landscapeMode 1 def /rotateMode 2 def
% coordinate system mappings
/dpi2point 0 def
% font control
/FontSize 0 def
/FMS {/FontSize xstore findfont [FontSize 0 0 FontSize neg 0 0]
  makefont setfont} bdef
/reencode {exch dup where {pop load} {pop StandardEncoding} ifelse
  exch dup 3 1 roll findfont dup length dict begin
  { 1 index /FID ne {def}{pop pop} ifelse } forall
  /Encoding exch def currentdict end definefont pop} bdef
/isroman {findfont /CharStrings get /Agrave known} bdef
/FMSR {3 1 roll 1 index dup isroman {reencode} {pop pop} ifelse
  exch FMS} bdef
/csm {1 dpi2point div -1 dpi2point div scale neg translate
 dup landscapeMode eq {pop -90 rotate}
  {rotateMode eq {90 rotate} if} ifelse} bdef
% line types: solid, dotted, dashed, dotdash
/SO { [] 0 setdash } bdef
/DO { [.5 dpi2point mul 4 dpi2point mul] 0 setdash } bdef
/DA { [6 dpi2point mul] 0 setdash } bdef
/DD { [.5 dpi2point mul 4 dpi2point mul 6 dpi2point mul 4
  dpi2point mul] 0 setdash } bdef
% macros for lines and objects
/L {lineto stroke} bdef
/MP {3 1 roll moveto 1 sub {rlineto} repeat} bdef
/AP {{rlineto} repeat} bdef
/PDlw -1 def
/W {/PDlw currentlinewidth def setlinewidth} def
/PP {closepath eofill} bdef
/DP {closepath stroke} bdef
/MR {4 -2 roll moveto dup  0 exch rlineto exch 0 rlineto
  neg 0 exch rlineto closepath} bdef
/FR {MR stroke} bdef
/PR {MR fill} bdef
/L1i {{currentfile picstr readhexstring pop} image} bdef
/tMatrix matrix def
/MakeOval {newpath tMatrix currentmatrix pop translate scale
0 0 1 0 360 arc tMatrix setmatrix} bdef
/FO {MakeOval stroke} bdef
/PO {MakeOval fill} bdef
/PD {currentlinewidth 2 div 0 360 arc fill
   PDlw -1 eq not {PDlw w /PDlw -1 def} if} def
/FA {newpath tMatrix currentmatrix pop translate scale
  0 0 1 5 -2 roll arc tMatrix setmatrix stroke} bdef
/PA {newpath tMatrix currentmatrix pop	translate 0 0 moveto scale
  0 0 1 5 -2 roll arc closepath tMatrix setmatrix fill} bdef
/FAn {newpath tMatrix currentmatrix pop translate scale
  0 0 1 5 -2 roll arcn tMatrix setmatrix stroke} bdef
/PAn {newpath tMatrix currentmatrix pop translate 0 0 moveto scale
  0 0 1 5 -2 roll arcn closepath tMatrix setmatrix fill} bdef
/vradius 0 def /hradius 0 def /lry 0 def
/lrx 0 def /uly 0 def /ulx 0 def /rad 0 def
/MRR {/vradius xdef /hradius xdef /lry xdef /lrx xdef /uly xdef
  /ulx xdef newpath tMatrix currentmatrix pop ulx hradius add uly
  vradius add translate hradius vradius scale 0 0 1 180 270 arc 
  tMatrix setmatrix lrx hradius sub uly vradius add translate
  hradius vradius scale 0 0 1 270 360 arc tMatrix setmatrix
  lrx hradius sub lry vradius sub translate hradius vradius scale
  0 0 1 0 90 arc tMatrix setmatrix ulx hradius add lry vradius sub
  translate hradius vradius scale 0 0 1 90 180 arc tMatrix setmatrix
  closepath} bdef
/FRR {MRR stroke } bdef
/PRR {MRR fill } bdef
/MlrRR {/lry xdef /lrx xdef /uly xdef /ulx xdef /rad lry uly sub 2 div def
  newpath tMatrix currentmatrix pop ulx rad add uly rad add translate
  rad rad scale 0 0 1 90 270 arc tMatrix setmatrix lrx rad sub lry rad
  sub translate rad rad scale 0 0 1 270 90 arc tMatrix setmatrix
  closepath} bdef
/FlrRR {MlrRR stroke } bdef
/PlrRR {MlrRR fill } bdef
/MtbRR {/lry xdef /lrx xdef /uly xdef /ulx xdef /rad lrx ulx sub 2 div def
  newpath tMatrix currentmatrix pop ulx rad add uly rad add translate
  rad rad scale 0 0 1 180 360 arc tMatrix setmatrix lrx rad sub lry rad
  sub translate rad rad scale 0 0 1 0 180 arc tMatrix setmatrix
  closepath} bdef
/FtbRR {MtbRR stroke } bdef
/PtbRR {MtbRR fill } bdef
/stri 6 array def /dtri 6 array def
/smat 6 array def /dmat 6 array def
/tmat1 6 array def /tmat2 6 array def /dif 3 array def
/asub {/ind2 exch def /ind1 exch def dup dup
  ind1 get exch ind2 get sub exch } bdef
/tri_to_matrix {
  2 0 asub 3 1 asub 4 0 asub 5 1 asub
  dup 0 get exch 1 get 7 -1 roll astore } bdef
/compute_transform {
  dmat dtri tri_to_matrix tmat1 invertmatrix 
  smat stri tri_to_matrix tmat2 concatmatrix } bdef
/ds {stri astore pop} bdef
/dt {dtri astore pop} bdef
/db {2 copy /cols xdef /rows xdef mul dup 3 mul string
  currentfile 
  3 index 0 eq {/ASCIIHexDecode filter}
  {/ASCII85Decode filter 3 index 2 eq {/RunLengthDecode filter} if }
  ifelse exch readstring pop
  dup 0 3 index getinterval /rbmap xdef
  dup 2 index dup getinterval /gbmap xdef
  1 index dup 2 mul exch getinterval /bbmap xdef pop pop}bdef
/it {gs np dtri aload pop moveto lineto lineto cp c
  cols rows 8 compute_transform 
  rbmap gbmap bbmap true 3 colorimage gr}bdef
/il {newpath moveto lineto stroke}bdef
currentdict end def
%%EndProlog

%%BeginSetup
MathWorks begin

0 cap

end
%%EndSetup

%%Page: 1 1
%%BeginPageSetup
%%PageBoundingBox:  -232     8   843   783
MathWorks begin
bpage
%%EndPageSetup

%%BeginObject: obj1
bplot

/dpi2point 12 def
portraitMode -2784 9396 csm

    0     0 12911  9289 rc
87 dict begin %Colortable dictionary
/c0 { 0.000000 0.000000 0.000000 sr} bdef
/c1 { 1.000000 1.000000 1.000000 sr} bdef
/c2 { 0.900000 0.000000 0.000000 sr} bdef
/c3 { 0.000000 0.820000 0.000000 sr} bdef
/c4 { 0.000000 0.000000 0.800000 sr} bdef
/c5 { 0.910000 0.820000 0.320000 sr} bdef
/c6 { 1.000000 0.260000 0.820000 sr} bdef
/c7 { 0.000000 0.820000 0.820000 sr} bdef
c0
1 j
1 sg
   0    0 12912 9290 rf
6 w
0 2004 10006 0 0 -2004 1678 2701 4 MP
PP
-10006 0 0 2004 10006 0 0 -2004 1678 2701 5 MP stroke
4 w
DO
SO
6 w
0 sg
1678 2701 mt 11684 2701 L
1678  697 mt 11684  697 L
1678 2701 mt 1678  697 L
11684 2701 mt 11684  697 L
1678 2701 mt 11684 2701 L
1678 2701 mt 1678  697 L
1678 2701 mt 1678 2600 L
1678  697 mt 1678  797 L
%%IncludeResource: font Helvetica
/Helvetica /ISOLatin1Encoding 204 FMSR

1447 2924 mt 
(-80) s
2928 2701 mt 2928 2600 L
2928  697 mt 2928  797 L
2697 2924 mt 
(-60) s
4179 2701 mt 4179 2600 L
4179  697 mt 4179  797 L
3948 2924 mt 
(-40) s
5430 2701 mt 5430 2600 L
5430  697 mt 5430  797 L
5199 2924 mt 
(-20) s
6681 2701 mt 6681 2600 L
6681  697 mt 6681  797 L
6625 2924 mt 
(0) s
7931 2701 mt 7931 2600 L
7931  697 mt 7931  797 L
7818 2924 mt 
(20) s
9182 2701 mt 9182 2600 L
9182  697 mt 9182  797 L
9069 2924 mt 
(40) s
10433 2701 mt 10433 2600 L
10433  697 mt 10433  797 L
10320 2924 mt 
(60) s
11684 2701 mt 11684 2600 L
11684  697 mt 11684  797 L
11571 2924 mt 
(80) s
1678 2701 mt 1778 2701 L
11684 2701 mt 11583 2701 L
1298 2776 mt 
(-40) s
1678 2200 mt 1778 2200 L
11684 2200 mt 11583 2200 L
1298 2275 mt 
(-30) s
1678 1699 mt 1778 1699 L
11684 1699 mt 11583 1699 L
1298 1774 mt 
(-20) s
1678 1198 mt 1778 1198 L
11684 1198 mt 11583 1198 L
1298 1273 mt 
(-10) s
1678  697 mt 1778  697 L
11684  697 mt 11583  697 L
1530  772 mt 
(0) s
1678 2701 mt 11684 2701 L
1678  697 mt 11684  697 L
1678 2701 mt 1678  697 L
11684 2701 mt 11684  697 L
gs 1678 697 10007 2005 rc
DA
13.2 w
2 68 6 140 6 105 6 84 7 69 6 60 6 51 6 46 
7 41 6 36 6 34 6 30 7 29 6 26 6 24 6 22 
7 21 6 20 6 18 6 18 7 16 6 16 6 14 6 14 
7 13 6 13 6 12 6 11 7 11 6 10 6 10 6 9 
7 9 6 8 6 8 6 8 7 8 6 7 6 7 7 6 
6 6 6 6 6 6 7 6 6 5 6 5 6 5 7 5 
6 5 6 4 6 4 7 4 6 4 6 4 6 4 7 3 
6 4 6 3 6 3 7 3 6 3 6 3 6 3 7 3 
6 2 6 3 6 2 7 3 6 2 6 2 6 2 7 2 
6 2 6 2 6 2 7 1 6 2 6 2 6 1 7 2 
6 1 6 1 6 2 7 1 6 1 6 1 6 1 7 1 
6 1 6 1 6 0 7 1 6 1 6 0 6 1 7 0 
6 1 6 0 6 1 7 0 6 0 6 0 6 0 1678 1401 104 MP stroke
4 281 6 240 6 153 7 111 6 86 6 70 6 58 7 50 
6 42 6 38 6 32 7 29 6 25 6 23 6 20 7 18 
6 16 6 13 6 13 7 10 6 10 6 8 6 6 7 6 
6 5 6 3 6 3 7 1 6 1 6 0 6 -1 7 -2 
6 -2 6 -3 6 -4 7 -5 6 -5 6 -6 6 -6 7 -7 
6 -8 6 -8 6 -9 7 -9 6 -10 6 -10 6 -10 7 -11 
6 -11 6 -11 6 -11 7 -11 6 -10 6 -10 6 -9 7 -9 
6 -7 6 -6 6 -5 7 -3 6 -2 6 0 6 2 7 4 
6 5 6 7 6 8 7 9 6 9 6 11 7 10 6 11 
6 12 6 11 7 11 6 10 6 11 6 10 7 10 6 9 
6 8 6 8 7 8 6 6 6 7 6 5 7 5 6 4 
6 4 6 3 7 2 6 1 6 1 6 0 7 0 6 -1 
6 -2 6 -3 7 -3 6 -5 6 -5 6 -5 7 -7 6 -7 
6 -8 6 -9 7 -10 6 -11 6 -11 6 -13 7 -14 6 -14 
6 -16 6 -17 7 -18 6 -20 6 -21 6 -23 7 -24 6 -26 
6 -28 6 -30 7 -32 6 -35 6 -37 6 -41 7 -43 6 -45 
6 -48 6 -49 7 -47 6 -41 6 -29 6 -11 7 9 6 27 
6 37 7 43 6 44 6 43 6 40 7 38 6 36 6 32 
6 30 7 28 6 25 6 24 6 21 7 20 6 19 6 17 
6 16 7 15 6 13 6 13 6 11 7 11 6 10 6 9 
6 8 7 7 6 7 6 6 6 6 7 5 6 4 6 4 
6 4 7 2 6 3 6 1 6 2 7 1 6 0 6 0 
6 0 7 -1 6 -2 6 -1 6 -2 7 -3 6 -3 6 -3 
6 -4 7 -4 6 -5 6 -5 6 -6 7 -6 6 -6 6 -7 
6 -7 7 -8 6 -9 6 -9 6 -9 7 -10 6 -11 6 -11 
6 -12 7 -12 6 -13 6 -14 7 -15 6 -15 6 -17 6 -17 
7 -18 6 -20 6 -20 6 -22 7 -24 6 -24 6 -27 6 -29 
7 -31 6 -33 6 -37 6 -40 7 -44 6 -49 6 -55 6 -64 
7 -75 6 -89 6 -113 6 -153 1 -40 2346 2702 230 MP stroke
7 -5 6 -7 6 -10 6 -13 7 -15 6 -18 6 -21 6 -24 
7 -27 6 -31 6 -34 6 -39 7 -42 6 -48 6 -51 6 -56 
7 -59 6 -60 6 -54 6 -41 7 -19 6 6 6 26 6 37 
7 39 6 38 6 34 6 29 7 25 6 20 6 16 6 12 
7 8 6 5 6 1 6 -2 7 -5 6 -8 6 -10 6 -13 
7 -15 6 -16 6 -19 6 -19 7 -19 6 -20 6 -18 6 -17 
7 -14 6 -11 6 -7 6 -4 7 -1 6 2 6 4 6 5 
7 5 6 5 6 5 6 3 7 2 6 0 6 -2 6 -4 
7 -6 6 -9 6 -10 7 -14 6 -15 6 -19 6 -21 7 -24 
6 -26 6 -30 6 -33 7 -37 6 -40 6 -45 6 -50 7 -55 
6 -62 6 -71 6 -82 7 -97 6 -118 6 -147 6 -180 7 -131 
6 97 6 169 6 138 7 107 6 87 6 71 6 62 7 53 
6 47 6 42 6 38 7 34 6 31 6 28 6 26 7 23 
6 21 6 19 6 17 7 15 6 13 6 10 6 9 7 7 
6 6 6 3 6 1 7 0 6 -3 6 -4 6 -6 7 -9 
6 -11 6 -13 6 -15 7 -18 6 -20 6 -23 6 -26 7 -29 
6 -32 6 -35 6 -37 7 -37 6 -37 6 -32 7 -22 6 -8 
6 8 6 24 7 35 6 42 6 43 6 43 7 42 6 38 
6 36 6 33 7 30 6 27 6 24 6 21 7 20 6 16 
6 15 6 12 7 10 6 8 6 6 6 4 7 2 6 -1 
6 -2 6 -5 7 -6 6 -9 6 -11 6 -13 7 -16 6 -18 
6 -21 6 -23 7 -25 6 -28 6 -29 6 -31 7 -30 6 -30 
6 -25 6 -18 7 -10 6 1 6 11 6 20 7 26 6 28 
6 30 6 29 7 28 6 26 6 23 6 21 7 18 6 16 
6 13 6 10 7 7 6 6 6 2 6 0 7 -3 6 -5 
6 -8 7 -11 6 -14 6 -18 6 -21 7 -25 6 -29 6 -35 
6 -40 7 -48 6 -57 6 -68 6 -85 7 -108 6 -146 6 -221 
6 -357 7 136 6 311 6 190 6 132 7 101 6 79 6 66 
6 55 7 47 6 40 6 35 6 30 7 26 6 22 6 20 
6 16 7 14 6 11 6 9 6 6 7 5 6 2 6 0 
6 -1 7 -4 6 -6 6 -7 6 -10 7 -12 6 -14 6 -16 
6 -19 7 -22 6 -24 6 -27 6 -31 7 -34 6 -39 6 -45 
6 -50 7 -59 6 -69 6 -83 6 -102 7 -135 6 -195 6 -341 
2 -81 3777 2702 266 MP stroke
1 83 6 312 7 191 6 139 6 109 6 88 7 75 6 64 
6 55 6 48 7 43 6 37 6 34 6 30 7 27 6 24 
6 22 6 21 7 18 6 18 6 16 6 15 7 15 6 13 
6 13 6 13 7 11 6 11 6 10 6 9 7 9 6 6 
6 6 7 4 6 3 6 2 6 -1 7 -2 6 -3 6 -6 
6 -6 7 -9 6 -9 6 -11 6 -11 7 -11 6 -11 6 -9 
6 -8 7 -5 6 -3 6 1 6 4 7 6 6 8 6 9 
6 10 7 9 6 8 6 6 6 4 7 1 6 -3 6 -6 
6 -11 7 -16 6 -21 6 -29 6 -36 7 -46 6 -58 6 -72 
6 -90 7 -103 6 -83 6 12 6 108 7 127 6 114 6 97 
6 83 7 70 6 62 6 53 6 47 7 42 6 36 6 32 
6 28 7 25 6 21 6 18 6 16 7 12 6 10 6 7 
6 4 5449 697 98 MP stroke
6 204 6 165 7 128 6 105 6 89 6 79 7 71 6 64 
6 60 6 54 7 52 6 48 6 44 6 42 7 39 6 37 
6 34 6 31 7 29 6 26 6 25 6 21 7 20 6 17 
6 14 6 13 7 10 6 7 6 5 6 3 7 0 6 -3 
6 -5 6 -8 7 -11 6 -14 6 -18 6 -21 7 -25 6 -30 
6 -34 6 -40 7 -47 6 -54 6 -63 7 -75 6 -88 6 -106 
6 -123 7 -120 6 -45 6 68 6 108 7 98 6 80 6 64 
6 51 7 39 6 30 6 22 6 16 7 8 6 3 6 -4 
6 -9 7 -16 6 -21 6 -29 6 -37 7 -46 6 -56 6 -71 
6 -91 7 -118 6 -162 6 -219 6 -100 7 214 6 196 6 143 
6 108 7 85 6 71 6 59 6 50 7 44 6 39 6 34 
6 31 7 27 6 25 6 23 6 21 7 19 6 18 6 16 
6 14 7 13 6 11 6 10 6 8 7 7 6 4 6 3 
6 1 7 -1 6 -4 6 -5 7 -8 6 -10 6 -13 6 -16 
7 -18 6 -22 6 -25 6 -29 7 -32 6 -37 6 -42 6 -46 
7 -53 6 -59 6 -67 6 -75 7 -84 6 -91 6 -94 6 -84 
7 -53 6 -8 6 24 6 33 7 28 6 17 6 3 6 -14 
7 -31 6 -55 6 -87 6 -140 7 -257 0 -53 6061 2702 143 MP stroke
3 137 7 364 6 188 6 124 6 90 7 70 6 57 6 46 
6 40 7 33 6 30 6 26 6 23 7 21 6 19 6 18 
6 16 7 15 6 14 6 13 6 12 7 12 6 10 6 9 
6 7 7 7 6 6 6 4 6 3 7 1 6 0 6 -1 
6 -3 7 -4 6 -6 6 -8 6 -9 7 -11 6 -13 6 -14 
6 -16 7 -18 6 -20 6 -21 6 -24 7 -25 6 -27 6 -29 
6 -30 7 -33 6 -34 6 -35 7 -37 6 -39 6 -39 6 -40 
7 -40 6 -40 6 -40 6 -39 7 -38 6 -37 6 -36 6 -34 
7 -34 6 -32 6 -30 6 -27 7 -24 6 -16 6 -8 6 4 
7 15 6 27 6 34 6 40 7 43 6 43 6 42 6 41 
7 40 6 37 6 34 6 33 7 30 6 29 6 26 6 24 
7 22 6 20 6 18 6 16 7 15 6 12 6 11 6 9 
7 7 6 5 6 3 6 2 7 0 6 -2 6 -4 6 -5 
7 -7 6 -8 6 -9 6 -11 7 -11 6 -13 6 -12 6 -13 
7 -13 6 -12 6 -12 6 -11 7 -10 6 -10 6 -8 7 -9 
6 -9 6 -8 6 -10 7 -11 6 -13 6 -14 6 -18 7 -20 
6 -24 6 -29 6 -33 7 -39 6 -47 6 -56 6 -67 7 -84 
6 -108 6 -146 5 -170 6957 2702 140 MP stroke
4 242 7 194 6 135 6 104 6 85 7 71 6 62 6 55 
6 48 7 44 6 40 6 36 6 33 7 31 6 29 6 27 
6 25 7 23 6 21 6 21 6 19 7 18 6 16 6 16 
6 14 7 14 6 12 6 12 7 11 6 10 6 9 6 9 
7 7 6 7 6 6 6 5 7 5 6 3 6 3 6 3 
7 1 6 1 6 -1 6 0 7 -2 6 -3 6 -3 6 -4 
7 -6 6 -6 6 -7 6 -8 7 -9 6 -10 6 -12 6 -12 
7 -14 6 -15 6 -17 6 -18 7 -19 6 -21 6 -23 6 -25 
7 -26 6 -29 6 -30 6 -31 7 -33 6 -32 6 -31 6 -28 
7 -22 6 -13 6 -2 6 10 7 19 6 28 6 32 6 35 
7 35 6 35 6 34 6 32 7 31 6 28 6 27 6 25 
7 23 6 22 6 20 6 18 7 17 6 16 6 15 7 13 
6 12 6 11 6 10 7 9 6 8 6 7 6 7 7 5 
6 5 6 4 6 3 7 2 6 2 6 2 6 0 7 0 
6 0 6 -1 6 -1 7 -2 6 -1 6 -3 6 -2 7 -2 
6 -3 6 -2 6 -2 7 -3 6 -2 6 -2 6 -1 7 -2 
6 -1 6 -1 6 -1 7 0 6 0 6 0 6 0 7 0 
6 0 6 0 6 0 7 -1 6 -1 6 -1 6 -2 7 -2 
6 -3 6 -4 6 -4 7 -6 6 -6 6 -8 6 -9 7 -10 
6 -11 6 -14 6 -15 7 -16 6 -19 6 -21 6 -24 7 -27 
6 -29 6 -34 7 -38 6 -43 6 -50 6 -57 7 -66 6 -78 
6 -91 6 -104 7 -103 6 -50 6 48 6 103 7 106 6 93 
6 79 6 68 7 58 6 50 6 44 6 39 7 34 6 30 
6 27 6 23 7 21 6 18 6 15 6 13 7 11 6 9 
6 7 6 5 7 3 6 1 6 0 6 -3 7 -4 6 -6 
6 -9 6 -10 7 -13 6 -14 6 -17 6 -20 7 -22 6 -26 
6 -28 6 -33 7 -36 6 -42 6 -47 6 -53 7 -62 6 -71 
6 -82 6 -92 7 -94 6 -68 6 -1 6 66 7 90 6 88 
6 77 6 66 7 57 6 49 6 43 7 37 6 32 6 28 
6 25 7 21 6 18 6 16 6 13 7 11 6 9 6 7 
6 6 7 3 6 2 6 0 6 -2 7 -3 6 -4 6 -6 
6 -8 7 -9 6 -10 6 -12 6 -13 7 -14 6 -16 6 -17 
6 -18 7 -19 6 -21 6 -21 6 -21 7 -22 6 -22 6 -20 
6 -19 7 -17 6 -13 6 -10 6 -5 7 0 6 4 6 9 
6 11 7 14 6 15 6 16 6 17 7 16 6 15 6 14 
6 12 7 11 6 10 6 7 6 6 7 4 6 1 6 0 
6 -3 7 -5 6 -8 6 -10 6 -13 7 -17 6 -20 6 -24 
7 -28 6 -33 6 -40 9157 1609 300 MP stroke
6 -46 7 -54 6 -65 6 -78 6 -94 7 -111 6 -112 6 -52 
6 63 7 115 6 112 6 94 6 79 7 66 6 55 6 46 
6 40 7 33 6 28 6 24 6 18 7 15 6 11 6 7 
6 4 7 0 6 -3 6 -7 6 -10 7 -13 6 -17 6 -19 
6 -23 7 -24 6 -25 6 -25 6 -21 7 -14 6 -5 6 7 
6 18 7 28 6 34 6 36 6 37 7 36 6 34 6 31 
6 28 7 25 6 23 6 19 6 16 7 13 6 10 6 8 
6 4 7 2 6 -1 6 -5 6 -7 7 -11 6 -14 6 -17 
7 -22 6 -26 6 -30 6 -37 7 -42 6 -50 6 -58 6 -71 
7 -84 6 -104 6 -127 6 -143 7 -87 6 69 6 134 6 120 
7 97 6 77 6 62 6 51 7 41 6 34 6 27 6 22 
7 17 6 13 6 9 6 5 7 3 6 0 6 -1 6 -3 
7 -2 6 -3 6 -1 6 1 7 4 6 8 6 10 6 14 
7 17 6 18 6 19 6 20 7 20 6 18 6 17 6 16 
7 14 6 11 6 9 6 7 7 5 6 2 6 -1 6 -4 
7 -6 6 -9 6 -12 6 -15 7 -18 6 -20 6 -23 6 -26 
7 -26 6 -27 6 -25 7 -21 6 -13 6 -4 6 7 7 16 
6 24 6 29 6 31 7 31 6 29 6 28 6 25 7 22 
6 19 6 16 6 12 7 10 6 7 6 3 6 0 7 -3 
6 -6 6 -10 6 -13 7 -17 6 -21 6 -25 6 -30 7 -34 
6 -39 6 -44 6 -48 7 -49 6 -46 6 -35 6 -13 7 15 
6 36 6 50 6 54 7 52 6 49 6 45 6 40 7 35 
6 31 6 27 6 23 7 20 6 17 6 14 6 11 7 9 
6 6 6 3 6 1 7 -1 6 -4 6 -6 6 -8 7 -10 
6 -13 6 -15 6 -18 7 -20 6 -23 6 -26 7 -28 6 -32 
6 -36 6 -39 7 -44 6 -49 6 -54 6 -63 7 -71 6 -83 
6 -99 6 -124 7 -165 6 -251 5 -441 7826 2702 214 MP stroke
1 -3 7 -20 6 -19 6 -18 7 -14 6 -12 6 -8 6 -3 
7 2 6 7 6 11 6 16 7 18 6 22 6 23 6 24 
7 25 6 26 6 25 6 24 7 25 6 23 6 23 6 22 
7 22 6 21 6 20 6 19 7 19 6 17 6 18 6 16 
7 16 6 16 6 15 6 14 7 13 6 14 6 12 6 12 
7 12 6 11 6 11 6 10 7 10 6 9 6 9 6 9 
7 8 6 7 6 7 6 7 7 6 6 6 6 6 6 5 
7 5 6 4 6 4 6 3 7 3 6 2 6 2 6 2 
7 1 6 1 6 0 7 0 6 -1 6 -2 6 -2 7 -2 
6 -3 6 -4 6 -4 7 -6 6 -5 6 -7 6 -7 7 -8 
6 -9 6 -10 6 -11 7 -12 6 -13 6 -14 6 -16 7 -17 
6 -19 6 -21 6 -23 7 -25 6 -28 6 -31 6 -35 7 -39 
6 -44 6 -52 6 -59 7 -72 6 -88 6 -114 6 -159 7 -259 
0 -49 11039 2702 106 MP stroke
SO
6 w
gr

1 sg
0 2004 10006 0 0 -2004 1678 5484 4 MP
PP
-10006 0 0 2004 10006 0 0 -2004 1678 5484 5 MP stroke
4 w
DO
SO
6 w
0 sg
1678 5484 mt 11684 5484 L
1678 3480 mt 11684 3480 L
1678 5484 mt 1678 3480 L
11684 5484 mt 11684 3480 L
1678 5484 mt 11684 5484 L
1678 5484 mt 1678 3480 L
1678 5484 mt 1678 5383 L
1678 3480 mt 1678 3580 L
1447 5707 mt 
(-80) s
2928 5484 mt 2928 5383 L
2928 3480 mt 2928 3580 L
2697 5707 mt 
(-60) s
4179 5484 mt 4179 5383 L
4179 3480 mt 4179 3580 L
3948 5707 mt 
(-40) s
5430 5484 mt 5430 5383 L
5430 3480 mt 5430 3580 L
5199 5707 mt 
(-20) s
6681 5484 mt 6681 5383 L
6681 3480 mt 6681 3580 L
6625 5707 mt 
(0) s
7931 5484 mt 7931 5383 L
7931 3480 mt 7931 3580 L
7818 5707 mt 
(20) s
9182 5484 mt 9182 5383 L
9182 3480 mt 9182 3580 L
9069 5707 mt 
(40) s
10433 5484 mt 10433 5383 L
10433 3480 mt 10433 3580 L
10320 5707 mt 
(60) s
11684 5484 mt 11684 5383 L
11684 3480 mt 11684 3580 L
11571 5707 mt 
(80) s
1678 5484 mt 1778 5484 L
11684 5484 mt 11583 5484 L
1298 5559 mt 
(-40) s
1678 4983 mt 1778 4983 L
11684 4983 mt 11583 4983 L
1298 5058 mt 
(-30) s
1678 4482 mt 1778 4482 L
11684 4482 mt 11583 4482 L
1298 4557 mt 
(-20) s
1678 3981 mt 1778 3981 L
11684 3981 mt 11583 3981 L
1298 4056 mt 
(-10) s
1678 3480 mt 1778 3480 L
11684 3480 mt 11583 3480 L
1530 3555 mt 
(0) s
1678 5484 mt 11684 5484 L
1678 3480 mt 11684 3480 L
1678 5484 mt 1678 3480 L
11684 5484 mt 11684 3480 L
gs 1678 3480 10007 2005 rc
13.2 w
/c8 { 0.000000 1.000000 0.000000 sr} bdef
c8
1 0 6 -3 6 -6 7 -7 6 -11 6 -12 6 -15 7 -18 
6 -20 6 -23 6 -26 7 -30 6 -33 6 -37 6 -41 7 -47 
6 -53 6 -59 6 -68 7 -79 6 -92 6 -110 6 -131 7 -151 
6 -120 6 17 6 112 7 111 6 87 6 67 6 51 7 38 
6 28 6 18 6 11 7 3 6 -3 6 -10 6 -17 7 -24 
6 -32 6 -40 6 -52 7 -64 6 -81 6 -105 6 -145 7 -216 
6 -331 6 116 6 293 7 183 6 127 6 93 6 72 7 58 
6 45 6 36 6 28 7 22 6 15 6 10 6 4 7 -1 
6 -6 6 -11 7 -17 6 -23 6 -28 6 -36 7 -44 6 -53 
6 -63 6 -74 7 -84 6 -80 6 -45 6 23 7 76 6 90 
6 85 6 75 7 65 6 55 6 47 6 41 7 35 6 29 
6 25 6 21 7 17 6 13 6 11 6 7 7 4 6 1 
6 -1 6 -4 7 -7 6 -10 6 -12 6 -15 7 -18 6 -21 
6 -24 6 -27 7 -30 6 -34 6 -37 6 -42 7 -45 6 -50 
6 -55 6 -57 7 -60 6 -59 6 -51 6 -36 7 -14 6 8 
6 25 6 33 7 34 6 34 6 30 6 25 7 22 6 18 
6 14 6 11 7 8 6 5 6 3 7 1 6 -1 6 -2 
6 -3 7 -3 6 -4 6 -4 6 -4 7 -3 6 -2 6 -2 
6 0 7 1 6 1 6 3 6 3 7 4 6 4 6 4 
6 5 7 4 6 5 6 4 6 5 7 4 6 4 6 3 
6 4 7 4 6 3 6 3 6 3 7 3 6 3 6 2 
6 2 7 2 6 1 6 0 6 0 7 -1 6 -1 6 -2 
6 -3 7 -4 6 -4 6 -5 6 -5 7 -4 6 -5 6 -3 
6 -3 7 0 6 1 6 4 6 6 7 9 6 11 6 14 
6 16 7 17 6 18 6 18 6 18 7 19 6 17 6 17 
7 16 6 15 6 14 6 12 7 11 6 9 6 8 6 6 
7 5 6 4 6 2 6 1 7 -1 6 -2 6 -4 6 -4 
7 -6 6 -6 6 -8 6 -7 7 -8 6 -8 6 -7 6 -6 
7 -4 6 -3 6 0 6 3 7 5 6 8 6 10 6 13 
7 13 6 15 6 16 6 16 7 16 6 16 6 15 6 14 
7 14 6 12 6 11 6 10 7 9 6 7 6 6 6 4 
7 3 6 2 6 0 6 -1 7 -3 6 -5 6 -6 6 -8 
7 -9 6 -12 6 -13 6 -15 7 -18 6 -20 6 -23 6 -25 
7 -28 6 -32 6 -36 7 -41 6 -47 6 -53 6 -62 7 -72 
6 -89 6 -110 6 -145 7 -202 6 -240 6 89 6 236 7 169 
6 123 6 94 6 76 7 63 6 52 6 45 6 39 7 34 
6 29 6 26 6 22 7 20 6 17 6 14 6 13 7 11 
6 8 6 8 6 5 3554 4084 300 MP stroke
7 4 6 3 6 1 6 1 7 -2 6 -2 6 -3 6 -4 
7 -6 6 -6 6 -7 6 -8 7 -8 6 -9 6 -10 6 -11 
7 -10 6 -11 6 -12 6 -11 7 -12 6 -11 6 -11 6 -11 
7 -10 6 -10 6 -9 6 -7 7 -7 6 -6 6 -5 6 -3 
7 -3 6 -1 6 0 7 0 6 2 6 2 6 3 7 4 
6 4 6 4 6 5 7 5 6 6 6 5 6 6 7 6 
6 6 6 6 6 6 7 6 6 5 6 6 6 6 7 5 
6 5 6 6 6 4 7 5 6 5 6 4 6 3 7 4 
6 3 6 3 6 2 7 2 6 1 6 1 6 1 7 0 
6 -1 6 -1 6 -1 7 -3 6 -3 6 -3 6 -4 7 -5 
6 -6 6 -6 6 -7 7 -8 6 -9 6 -9 6 -11 7 -11 
6 -12 6 -13 6 -14 7 -16 6 -16 6 -17 6 -19 7 -20 
6 -21 6 -22 6 -24 7 -25 6 -27 6 -27 7 -29 6 -29 
6 -30 6 -30 7 -29 6 -26 6 -23 6 -18 7 -10 6 -4 
6 4 6 11 7 17 6 20 6 23 6 24 7 25 6 24 
6 24 6 22 7 22 6 20 6 19 6 17 7 17 6 15 
6 14 6 13 7 12 6 10 6 10 6 9 7 8 6 7 
6 7 6 5 7 5 6 4 6 4 6 3 7 2 6 2 
6 1 6 1 7 0 6 0 6 -1 6 -1 7 -1 6 -2 
6 -2 6 -2 7 -3 6 -2 6 -3 6 -3 7 -3 6 -4 
6 -3 6 -3 7 -4 6 -3 6 -3 6 -3 7 -3 6 -3 
6 -3 7 -2 6 -2 6 -2 6 -1 7 -2 6 -1 6 0 
6 -1 7 0 6 0 6 0 6 1 7 1 6 1 6 1 
6 2 7 2 6 1 6 2 6 2 7 2 6 3 6 2 
6 2 7 2 6 3 6 2 6 2 7 3 6 2 6 2 
6 2 7 2 6 2 6 2 6 2 7 2 6 1 6 2 
6 1 7 2 6 1 6 1 6 1 7 1 6 2 6 0 
6 1 7 1 6 1 6 0 6 1 7 0 6 1 6 0 
6 1 7 0 6 0 6 0 6 0 7 0 6 0 6 0 
6 0 7 0 6 0 6 0 7 -1 6 0 6 0 6 -1 
7 0 6 0 6 -1 6 0 7 -1 6 0 6 -1 6 0 
7 -1 6 0 6 -1 6 -1 7 0 6 -1 6 0 6 -1 
7 -1 6 0 6 -1 6 -1 7 0 6 -1 6 0 6 -1 
7 0 6 -1 6 0 6 -1 7 0 6 -1 6 0 6 0 
7 0 6 -1 6 0 6 0 7 0 6 1 6 0 6 0 
7 0 6 1 6 0 6 1 7 1 6 0 6 1 6 1 
7 1 6 2 6 1 6 1 7 2 6 1 6 2 6 2 
7 2 6 2 6 2 1684 4315 300 MP stroke
6 2 1678 4313 2 MP stroke
3 241 6 289 7 172 6 120 6 89 6 70 7 55 6 44 
6 36 6 27 7 21 6 15 6 9 6 4 7 0 6 -5 
6 -9 6 -12 7 -15 6 -16 6 -15 6 -13 7 -7 6 1 
6 10 6 19 7 26 6 31 6 33 6 33 7 31 6 29 
6 27 7 22 6 20 6 15 6 12 7 9 6 4 6 0 
6 -4 7 -8 6 -12 6 -18 6 -23 7 -29 6 -36 6 -45 
6 -54 7 -67 6 -84 6 -110 6 -150 7 -231 6 -425 6 165 
6 336 7 188 6 125 6 90 6 67 7 51 6 38 6 28 
6 17 7 9 6 0 6 -9 6 -18 7 -28 6 -38 6 -48 
6 -54 7 -48 6 -17 6 36 6 81 7 96 6 95 6 86 
6 77 7 69 6 62 6 55 6 49 7 45 6 40 6 35 
6 32 7 29 6 26 6 22 6 20 7 17 6 15 6 12 
6 10 7 8 6 5 6 3 5430 3480 101 MP stroke
5 188 6 186 6 137 7 109 6 89 6 76 6 67 7 59 
6 52 6 48 6 44 7 40 6 38 6 34 6 32 7 30 
6 28 6 26 6 25 7 23 6 21 6 21 6 18 7 18 
6 17 6 15 6 15 7 13 6 12 6 12 6 10 7 10 
6 8 6 8 6 7 7 6 6 5 6 5 6 3 7 3 
6 2 6 0 6 1 7 -1 6 -2 6 -2 6 -4 7 -4 
6 -5 6 -6 7 -7 6 -8 6 -9 6 -10 7 -11 6 -11 
6 -13 6 -14 7 -15 6 -16 6 -17 6 -18 7 -19 6 -20 
6 -21 6 -22 7 -23 6 -24 6 -24 6 -24 7 -25 6 -25 
6 -24 6 -23 7 -21 6 -20 6 -17 6 -15 7 -12 6 -9 
6 -6 6 -4 7 -1 6 0 6 2 6 3 7 5 6 5 
6 6 6 8 7 9 6 10 6 12 6 14 7 17 6 18 
6 21 6 22 7 24 6 26 6 26 6 27 7 27 6 27 
6 27 6 27 7 25 6 25 6 25 6 23 7 22 6 21 
6 20 6 18 7 18 6 16 6 15 7 14 6 13 6 12 
6 10 7 10 6 8 6 7 6 5 7 5 6 3 6 2 
6 1 7 -1 6 -1 6 -4 6 -4 7 -6 6 -8 6 -9 
6 -10 7 -12 6 -14 6 -16 6 -18 7 -20 6 -23 6 -24 
6 -28 7 -31 6 -34 6 -38 6 -43 7 -49 6 -55 6 -64 
6 -75 7 -90 6 -111 6 -146 6 -209 7 -314 6 17 6 293 
6 188 7 128 6 95 6 73 6 59 7 48 6 39 6 32 
6 26 7 21 6 17 6 12 6 10 7 5 6 3 6 -1 
6 -3 7 -6 6 -9 6 -11 6 -14 7 -16 6 -17 6 -20 
7 -20 6 -20 6 -19 6 -16 7 -13 6 -8 6 -1 6 5 
7 11 6 17 6 20 6 22 7 23 6 24 6 22 6 21 
7 20 6 18 6 15 6 14 7 12 6 10 6 8 6 5 
7 4 6 2 6 0 6 -2 7 -4 6 -6 6 -8 6 -9 
7 -12 6 -13 6 -16 6 -17 7 -19 6 -21 6 -22 6 -25 
7 -26 6 -27 6 -29 6 -29 7 -30 6 -29 6 -29 6 -26 
7 -23 6 -19 6 -15 6 -10 7 -6 6 -1 6 2 6 4 
7 6 6 7 6 6 6 6 7 6 6 5 6 3 6 3 
7 2 6 1 6 0 7 0 6 -1 6 -1 6 -2 7 -1 
6 0 6 0 6 0 7 2 6 3 6 4 6 6 7 7 
6 9 6 10 6 12 7 13 6 14 6 15 6 15 7 16 
6 16 6 16 6 15 7 15 6 14 6 13 6 12 7 10 
6 9 6 8 6 6 7 4 6 2 6 0 6 -2 7 -4 
6 -6 6 -8 6 -9 7 -12 6 -14 6 -14 6 -15 7 -15 
6 -13 6 -10 6 -6 8457 4396 300 MP stroke
7 0 6 7 6 13 6 19 7 24 6 26 6 28 6 28 
7 28 6 26 6 24 6 22 7 20 6 17 6 15 6 13 
7 9 6 8 6 4 7 2 6 0 6 -3 6 -5 7 -8 
6 -10 6 -12 6 -13 7 -15 6 -15 6 -14 6 -13 7 -9 
6 -5 6 1 6 6 7 13 6 17 6 20 6 23 7 23 
6 23 6 23 6 20 7 18 6 16 6 13 6 11 7 7 
6 4 6 1 6 -2 7 -6 6 -10 6 -14 6 -19 7 -25 
6 -30 6 -38 6 -46 7 -58 6 -73 6 -95 6 -129 7 -195 
6 -377 6 -227 6 529 7 242 6 155 6 113 6 89 7 72 
6 60 6 50 6 43 7 36 6 31 6 26 6 22 7 17 
6 14 6 11 6 7 7 3 6 1 6 -3 7 -6 6 -10 
6 -13 6 -17 7 -21 6 -25 6 -30 6 -35 7 -41 6 -48 
6 -56 6 -66 7 -78 6 -90 6 -103 6 -98 7 -49 6 39 
6 91 6 94 7 83 6 69 6 58 6 47 7 40 6 32 
6 27 6 20 7 16 6 12 6 7 6 4 7 0 6 -4 
6 -7 6 -11 7 -14 6 -18 6 -20 6 -25 7 -27 6 -31 
6 -33 6 -36 7 -37 6 -38 6 -36 6 -33 7 -27 6 -18 
6 -9 6 0 7 5 6 10 6 10 6 10 7 7 6 4 
6 0 6 -5 7 -9 6 -16 6 -21 6 -27 7 -34 6 -41 
6 -47 7 -53 6 -52 6 -43 6 -16 7 19 6 48 6 62 
6 64 7 61 6 55 6 48 6 41 7 36 6 31 6 25 
6 21 7 17 6 13 6 8 6 5 7 1 6 -2 6 -6 
6 -10 7 -14 6 -19 6 -22 6 -28 7 -33 6 -40 6 -47 
6 -56 7 -67 6 -83 6 -104 6 -132 7 -169 6 -152 6 66 
6 174 7 146 6 113 6 88 6 71 7 58 6 48 6 40 
6 34 7 27 6 23 6 18 6 14 7 11 6 6 6 3 
6 -1 7 -4 6 -8 6 -12 6 -15 7 -20 6 -25 6 -30 
6 -36 7 -43 6 -51 6 -61 7 -75 6 -93 6 -118 6 -152 
7 -174 6 -48 6 148 6 157 7 122 6 93 6 73 6 56 
7 45 6 35 6 25 6 18 7 11 6 3 6 -4 6 -11 
7 -20 6 -29 6 -40 6 -54 7 -71 6 -95 6 -126 6 -146 
7 -47 6 141 6 169 6 140 7 111 6 92 6 76 6 65 
7 55 6 48 6 42 6 36 7 31 6 26 6 22 6 19 
7 14 6 12 6 8 6 4 7 1 6 -2 6 -5 6 -9 
7 -13 6 -16 6 -20 6 -24 7 -29 6 -34 6 -40 6 -45 
7 -53 6 -60 6 -66 6 -73 7 -70 6 -54 6 -17 7 26 
6 53 6 62 6 59 7 52 6 44 6 37 6 30 7 24 
6 18 6 13 6 7 6587 4066 300 MP stroke
7 2 6 -2 6 -7 6 -13 7 -17 6 -23 6 -29 6 -36 
7 -43 6 -51 6 -60 6 -69 7 -76 6 -75 6 -50 6 1 
7 54 6 76 6 78 6 70 7 62 6 53 6 46 6 38 
7 34 6 28 6 24 6 19 7 17 6 13 6 10 6 7 
7 5 6 2 6 1 6 -2 7 -3 6 -6 6 -6 6 -9 
7 -9 6 -11 6 -12 6 -13 7 -14 6 -15 6 -15 6 -16 
7 -16 6 -15 6 -16 7 -15 6 -13 6 -13 6 -11 7 -9 
6 -7 6 -4 6 -3 7 -1 6 0 6 2 6 2 7 2 
6 2 6 2 6 0 7 -2 6 -4 6 -7 6 -9 7 -12 
6 -17 6 -20 6 -26 7 -31 6 -37 6 -46 6 -57 7 -69 
6 -88 6 -117 6 -164 7 -268 3 -290 6058 5485 86 MP stroke
1 1 7 2 6 3 6 2 7 3 6 2 6 3 6 2 
7 2 6 2 6 3 6 2 7 2 6 2 6 2 6 2 
7 2 6 2 6 1 6 2 7 2 6 1 6 2 6 1 
7 2 6 1 6 1 6 1 7 1 6 1 6 1 6 1 
7 1 6 0 6 1 6 0 7 0 6 1 6 0 6 0 
7 0 6 -1 6 0 6 0 7 -1 6 -1 6 -1 6 0 
7 -2 6 -1 6 -1 6 -2 7 -1 6 -2 6 -2 6 -2 
7 -3 6 -2 6 -3 6 -2 7 -3 6 -4 6 -3 6 -3 
7 -4 6 -4 6 -4 7 -4 6 -5 6 -5 6 -5 7 -5 
6 -5 6 -6 6 -6 7 -6 6 -6 6 -7 6 -7 7 -7 
6 -7 6 -8 6 -8 7 -8 6 -9 6 -9 6 -9 7 -9 
6 -10 6 -10 6 -11 7 -10 6 -11 6 -12 6 -12 7 -12 
6 -12 6 -13 6 -13 7 -13 6 -14 6 -14 6 -14 7 -14 
6 -14 6 -15 6 -14 7 -15 6 -14 6 -14 6 -14 7 -13 
6 -13 6 -12 6 -11 7 -11 6 -9 6 -8 6 -6 7 -6 
6 -4 6 -2 6 -2 7 0 6 1 6 2 6 3 7 4 
6 4 6 5 6 5 7 5 6 5 6 5 7 5 6 5 
6 5 6 4 7 4 6 4 6 3 6 3 7 2 6 2 
6 2 6 0 7 1 6 -1 6 0 6 -2 7 -2 6 -2 
6 -3 6 -4 7 -4 6 -4 6 -6 6 -5 7 -6 6 -7 
6 -7 6 -7 7 -8 6 -8 6 -8 6 -9 7 -9 6 -8 
6 -9 6 -9 7 -8 6 -8 6 -8 6 -7 7 -6 6 -6 
6 -4 6 -4 7 -4 6 -2 6 -1 6 -1 7 0 6 0 
6 1 6 2 7 2 6 1 6 2 6 1 7 1 6 1 
6 0 6 -1 7 -2 6 -2 6 -4 6 -5 7 -7 6 -8 
6 -10 7 -11 6 -14 6 -17 6 -19 7 -23 6 -26 6 -31 
6 -36 7 -43 6 -51 6 -62 6 -78 7 -101 6 -137 6 -201 
1 -51 10338 5485 218 MP stroke
gr

13.2 w
c8
0 sg
1198 5816 mt  -90 rotate
(aaaaaaaaaaaaaaaaaaaaaaa ) s
90 rotate
%%IncludeResource: font Helvetica
/Helvetica /ISOLatin1Encoding 120 FMSR

1661 5527 mt 
( ) s
11668 3522 mt 
( ) s
6 w
1 sg
0 2004 10006 0 0 -2004 1678 8267 4 MP
PP
-10006 0 0 2004 10006 0 0 -2004 1678 8267 5 MP stroke
4 w
DO
SO
6 w
0 sg
1678 8267 mt 11684 8267 L
1678 6263 mt 11684 6263 L
1678 8267 mt 1678 6263 L
11684 8267 mt 11684 6263 L
1678 8267 mt 11684 8267 L
1678 8267 mt 1678 6263 L
1678 8267 mt 1678 8166 L
1678 6263 mt 1678 6363 L
%%IncludeResource: font Helvetica
/Helvetica /ISOLatin1Encoding 204 FMSR

1447 8490 mt 
(-80) s
2928 8267 mt 2928 8166 L
2928 6263 mt 2928 6363 L
2697 8490 mt 
(-60) s
4179 8267 mt 4179 8166 L
4179 6263 mt 4179 6363 L
3948 8490 mt 
(-40) s
5430 8267 mt 5430 8166 L
5430 6263 mt 5430 6363 L
5199 8490 mt 
(-20) s
6681 8267 mt 6681 8166 L
6681 6263 mt 6681 6363 L
6625 8490 mt 
(0) s
7931 8267 mt 7931 8166 L
7931 6263 mt 7931 6363 L
7818 8490 mt 
(20) s
9182 8267 mt 9182 8166 L
9182 6263 mt 9182 6363 L
9069 8490 mt 
(40) s
10433 8267 mt 10433 8166 L
10433 6263 mt 10433 6363 L
10320 8490 mt 
(60) s
11684 8267 mt 11684 8166 L
11684 6263 mt 11684 6363 L
11571 8490 mt 
(80) s
1678 8267 mt 1778 8267 L
11684 8267 mt 11583 8267 L
1298 8342 mt 
(-40) s
1678 7766 mt 1778 7766 L
11684 7766 mt 11583 7766 L
1298 7841 mt 
(-30) s
1678 7265 mt 1778 7265 L
11684 7265 mt 11583 7265 L
1298 7340 mt 
(-20) s
1678 6764 mt 1778 6764 L
11684 6764 mt 11583 6764 L
1298 6839 mt 
(-10) s
1678 6263 mt 1778 6263 L
11684 6263 mt 11583 6263 L
1530 6338 mt 
(0) s
1678 8267 mt 11684 8267 L
1678 6263 mt 11684 6263 L
1678 8267 mt 1678 6263 L
11684 8267 mt 11684 6263 L
gs 1678 6263 10007 2005 rc
DD
13.2 w
/c9 { 1.000000 0.000000 1.000000 sr} bdef
c9
3 321 6 274 6 166 7 117 6 90 6 71 6 58 7 47 
6 39 6 33 6 26 7 21 6 16 6 12 6 7 7 3 
6 -1 6 -5 6 -9 7 -14 6 -19 6 -24 6 -30 7 -36 
6 -45 6 -54 6 -67 7 -83 6 -103 6 -127 6 -133 7 -32 
6 116 6 144 7 123 6 101 6 83 6 69 7 59 6 51 
6 45 6 39 7 34 6 30 6 26 6 24 7 20 6 18 
6 16 6 14 7 11 6 10 6 8 6 7 7 5 6 4 
6 2 6 1 7 0 6 -1 6 -3 6 -3 7 -5 6 -5 
6 -7 6 -7 7 -9 6 -9 6 -11 6 -12 7 -12 6 -14 
6 -16 6 -16 7 -18 6 -19 6 -21 6 -22 7 -24 6 -26 
6 -28 6 -29 7 -31 6 -33 6 -34 6 -34 7 -32 6 -30 
6 -25 6 -17 7 -6 6 4 6 13 6 22 7 26 6 29 
6 30 6 29 7 27 6 26 6 24 7 22 6 19 6 18 
6 15 7 14 6 11 6 10 6 7 7 6 6 4 6 3 
6 1 7 0 6 -2 6 -3 6 -5 7 -5 6 -7 6 -8 
6 -9 7 -9 6 -11 6 -10 6 -11 7 -11 6 -11 6 -11 
6 -9 7 -9 6 -8 6 -7 6 -5 7 -4 6 -3 6 -1 
6 -1 7 0 6 1 6 1 6 2 7 1 6 0 6 0 
6 0 7 -2 6 -3 6 -4 6 -5 7 -6 6 -8 6 -9 
6 -11 7 -12 6 -14 6 -14 6 -16 7 -17 6 -16 6 -17 
6 -15 7 -13 6 -9 6 -5 6 0 7 5 6 12 6 16 
7 21 6 23 6 26 6 27 7 27 6 26 6 27 6 25 
7 24 6 23 6 21 6 21 7 19 6 18 6 16 6 16 
7 14 6 13 6 13 6 11 7 10 6 9 6 8 6 8 
7 6 6 6 6 5 6 4 7 3 6 3 6 2 6 1 
7 1 6 0 6 -1 6 -2 7 -2 6 -2 6 -3 6 -4 
7 -4 6 -5 6 -5 6 -6 7 -7 6 -6 6 -8 6 -8 
7 -8 6 -8 6 -9 6 -10 7 -10 6 -10 6 -10 6 -11 
7 -11 6 -11 6 -12 6 -11 7 -11 6 -11 6 -11 6 -11 
7 -11 6 -10 6 -9 7 -9 6 -7 6 -7 6 -6 7 -5 
6 -4 6 -3 6 -1 7 -1 6 1 6 1 6 3 7 3 
6 4 6 4 6 5 7 5 6 6 6 5 6 6 7 6 
6 5 6 6 6 5 7 5 6 5 6 4 6 4 7 4 
6 3 6 3 6 2 7 2 6 1 6 1 6 1 7 0 
6 -1 6 -1 6 -1 7 -2 6 -3 6 -3 6 -3 7 -4 
6 -5 6 -5 6 -5 7 -6 6 -7 6 -7 6 -7 7 -9 
6 -8 6 -9 6 -10 7 -10 6 -11 6 -11 6 -12 7 -12 
6 -13 6 -13 6 -14 2935 7122 300 MP stroke
7 -14 6 -15 6 -15 7 -16 6 -16 6 -17 6 -17 7 -18 
6 -18 6 -19 6 -20 7 -19 6 -21 6 -21 6 -21 7 -22 
6 -23 6 -23 6 -24 7 -25 6 -26 6 -26 6 -27 7 -29 
6 -29 6 -31 6 -32 7 -34 6 -36 6 -38 6 -41 7 -42 
6 -45 6 -47 6 -48 7 -45 6 -39 6 -26 6 -7 7 14 
6 33 6 44 6 50 7 51 6 50 6 47 6 45 7 42 
6 40 6 37 6 34 7 33 6 31 6 29 6 27 7 26 
6 24 6 23 6 22 7 21 6 20 6 18 6 18 7 17 
6 16 6 16 6 15 7 14 6 13 6 13 7 12 6 11 
6 11 6 11 7 9 6 10 6 9 6 8 7 8 6 8 
6 7 6 7 7 6 6 7 6 5 6 6 7 5 6 5 
6 5 6 4 7 4 6 4 6 3 6 4 7 3 6 3 
6 3 6 2 7 3 6 2 6 2 6 3 7 2 6 1 
6 2 6 2 7 2 6 1 6 2 6 2 7 1 6 2 
6 1 6 2 7 1 6 2 6 1 6 2 7 1 6 2 
6 1 6 2 7 2 6 1 6 2 6 2 7 2 6 2 
6 1 6 2 7 2 6 2 6 2 6 2 7 2 6 2 
6 2 7 2 6 2 6 2 6 1 7 2 6 2 6 2 
6 2 7 2 6 1 6 2 6 1 7 2 6 1 6 2 
6 1 7 1 6 2 6 1 6 1 7 1 6 1 6 0 
6 1 7 1 6 0 6 1 6 0 7 0 6 1 6 0 
6 0 7 0 6 -1 6 0 6 0 7 -1 6 0 6 -1 
6 -1 7 -1 6 -1 6 -1 6 -1 7 -1 6 -2 6 -1 
6 -2 7 -1 6 -2 6 -2 6 -2 7 -2 6 -2 6 -2 
6 -2 7 -2 6 -3 6 -2 6 -3 7 -3 6 -2 6 -3 
6 -3 1678 7033 202 MP stroke
6 -1 6 -4 6 -7 7 -8 6 -11 6 -14 6 -15 7 -19 
6 -21 6 -24 6 -27 7 -30 6 -35 6 -38 6 -43 7 -48 
6 -54 6 -61 6 -69 7 -79 6 -91 6 -101 6 -107 7 -85 
6 -20 6 52 6 79 7 76 6 66 6 53 6 44 7 35 
6 27 6 22 6 15 7 11 6 7 6 2 6 -1 7 -5 
6 -7 6 -11 6 -13 7 -16 6 -19 6 -20 6 -22 7 -24 
6 -25 6 -26 6 -27 7 -26 6 -26 6 -24 6 -23 7 -21 
6 -19 6 -16 6 -13 7 -10 6 -8 6 -4 6 -2 7 1 
6 4 6 7 7 10 6 13 6 14 6 16 7 18 6 17 
6 18 6 17 7 16 6 15 6 13 6 11 7 9 6 6 
6 4 6 1 7 -2 6 -5 6 -9 6 -12 7 -17 6 -21 
6 -26 6 -32 7 -39 6 -48 6 -58 6 -72 7 -91 6 -122 
6 -177 6 -306 3 -247 4808 8268 100 MP stroke
0 84 6 288 7 178 6 130 6 101 6 82 7 68 6 57 
6 49 6 40 7 35 6 28 6 24 6 18 7 14 6 9 
6 5 6 1 7 -3 6 -8 6 -11 6 -17 7 -20 6 -26 
6 -31 6 -36 7 -42 6 -49 6 -56 6 -63 7 -71 6 -78 
6 -81 7 -75 6 -54 6 -20 6 11 7 26 6 27 6 21 
6 13 7 5 6 0 6 1 6 11 7 30 6 51 6 67 
6 75 7 75 6 72 6 67 6 60 7 55 6 49 6 43 
6 37 7 33 6 28 6 23 6 18 7 14 6 9 6 5 
6 -1 7 -6 6 -11 6 -17 6 -23 7 -30 6 -36 6 -43 
6 -46 7 -40 6 -21 6 13 6 50 7 71 6 78 6 76 
6 71 7 64 6 58 6 52 6 48 7 42 6 38 6 35 
6 30 7 28 6 24 6 22 6 19 7 16 6 14 6 11 
6 10 7 6 6 5 6 2 5430 6263 101 MP stroke
5 76 6 156 7 121 6 87 6 63 6 47 7 34 6 26 
6 20 6 16 7 17 6 20 6 25 6 33 7 39 6 44 
6 48 6 49 7 49 6 47 6 45 7 42 6 38 6 36 
6 32 7 29 6 26 6 23 6 20 7 16 6 14 6 11 
6 7 7 5 6 1 6 -1 6 -5 7 -8 6 -12 6 -16 
6 -20 7 -25 6 -29 6 -36 6 -42 7 -49 6 -57 6 -64 
6 -69 7 -62 6 -35 6 13 6 58 7 76 6 79 6 73 
6 65 7 58 6 51 6 45 6 41 7 36 6 32 6 28 
6 26 7 22 6 20 6 18 6 15 7 13 6 11 6 10 
6 7 7 6 6 4 6 3 6 1 7 -1 6 -3 6 -4 
6 -6 7 -7 6 -10 6 -11 7 -13 6 -14 6 -17 6 -19 
7 -21 6 -24 6 -25 6 -28 7 -31 6 -33 6 -37 6 -39 
7 -42 6 -45 6 -47 6 -50 7 -52 6 -53 6 -52 6 -49 
7 -45 6 -40 6 -33 6 -29 7 -26 6 -27 6 -31 6 -40 
7 -53 6 -73 6 -105 6 -163 5 -245 6063 8268 118 MP stroke
1 2 7 14 6 13 6 13 7 12 6 13 6 11 6 12 
7 11 6 11 6 10 6 11 7 10 6 9 6 10 6 9 
7 8 6 9 6 8 6 8 7 7 6 8 6 7 6 6 
7 7 6 6 6 6 6 5 7 6 6 5 6 5 6 4 
7 4 6 4 6 4 6 3 7 3 6 3 6 2 6 2 
7 2 6 2 6 1 6 1 7 0 6 0 6 0 6 0 
7 -1 6 -2 6 -1 6 -2 7 -3 6 -3 6 -3 6 -4 
7 -4 6 -5 6 -5 6 -6 7 -7 6 -6 6 -8 6 -8 
7 -9 6 -9 6 -10 7 -11 6 -11 6 -12 6 -13 7 -14 
6 -15 6 -15 6 -16 7 -17 6 -17 6 -18 6 -19 7 -18 
6 -18 6 -17 6 -16 7 -13 6 -11 6 -7 6 -2 7 2 
6 8 6 12 6 17 7 20 6 23 6 24 6 26 7 27 
6 26 6 27 6 26 7 25 6 25 6 24 6 23 7 23 
6 21 6 21 6 20 7 19 6 18 6 17 6 17 7 16 
6 15 6 15 6 14 7 13 6 13 6 12 6 11 7 11 
6 10 6 10 6 9 7 8 6 8 6 8 6 7 7 6 
6 6 6 5 6 5 7 4 6 3 6 4 7 2 6 2 
6 1 6 1 7 1 6 -1 6 -1 6 -1 7 -2 6 -3 
6 -3 6 -4 7 -5 6 -5 6 -6 6 -7 7 -7 6 -8 
6 -9 6 -10 7 -10 6 -12 6 -12 6 -13 7 -13 6 -15 
6 -15 6 -16 7 -17 6 -17 6 -17 6 -18 7 -17 6 -17 
6 -15 6 -14 7 -12 6 -9 6 -5 6 -1 7 2 6 7 
6 10 6 13 7 16 6 17 6 19 6 20 7 20 6 20 
6 19 6 20 7 18 6 18 6 17 6 16 7 15 6 14 
6 13 6 12 7 12 6 10 6 9 6 9 7 7 6 7 
6 5 7 5 6 4 6 3 6 1 7 2 6 0 6 -1 
6 -2 7 -3 6 -3 6 -5 6 -6 7 -7 6 -7 6 -9 
6 -10 7 -11 6 -12 6 -13 6 -15 7 -15 6 -17 6 -18 
6 -20 7 -20 6 -22 6 -22 6 -24 7 -24 6 -25 6 -24 
6 -24 7 -22 6 -20 6 -16 6 -12 7 -7 6 -2 6 3 
6 8 7 11 6 14 6 15 6 17 7 16 6 17 6 16 
6 14 7 14 6 12 6 12 6 10 7 8 6 7 6 6 
6 5 7 4 6 3 6 2 6 1 7 0 6 0 6 0 
6 0 7 0 6 0 6 1 7 2 6 4 6 4 6 7 
7 7 6 10 6 10 6 12 7 13 6 14 6 15 6 15 
7 16 6 15 6 15 6 15 7 14 6 14 6 13 6 12 
7 11 6 10 6 10 6 8 7 8 6 6 6 6 6 4 
7 3 6 2 6 1 9820 6680 300 MP stroke
6 0 7 -2 6 -2 6 -4 6 -5 7 -7 6 -7 6 -9 
6 -11 7 -12 6 -13 6 -15 6 -17 7 -18 6 -20 6 -22 
6 -23 7 -26 6 -27 6 -30 6 -32 7 -34 6 -36 6 -37 
6 -38 7 -38 6 -36 6 -32 6 -25 7 -16 6 -4 6 7 
6 16 7 23 6 26 6 29 7 28 6 28 6 27 6 25 
7 24 6 22 6 20 6 20 7 18 6 16 6 16 6 15 
7 14 6 13 6 12 6 12 7 11 6 10 6 10 6 8 
7 9 6 7 6 6 6 6 7 4 6 4 6 2 6 1 
7 0 6 -2 6 -3 6 -5 7 -6 6 -8 6 -11 6 -13 
7 -15 6 -18 6 -21 6 -25 7 -28 6 -33 6 -39 6 -44 
7 -52 6 -62 6 -73 6 -86 7 -100 6 -100 6 -55 6 41 
7 102 6 107 6 95 6 82 7 69 6 60 6 51 6 45 
7 39 6 34 6 30 6 25 7 23 6 19 6 17 7 13 
6 11 6 9 6 6 7 3 6 2 6 -1 6 -3 7 -5 
6 -8 6 -10 6 -12 7 -15 6 -17 6 -20 6 -23 7 -25 
6 -29 6 -31 6 -35 7 -39 6 -42 6 -47 6 -50 7 -54 
6 -56 6 -58 6 -56 7 -50 6 -38 6 -21 6 -6 7 7 
6 12 6 13 6 10 7 4 6 -2 6 -11 6 -22 7 -33 
6 -48 6 -67 6 -97 7 -140 6 -210 6 -139 6 239 7 228 
6 165 6 126 6 102 7 84 6 71 6 61 6 54 7 46 
6 42 6 36 6 31 7 28 6 24 6 20 6 18 7 14 
6 12 6 8 7 6 6 3 6 1 6 -2 7 -5 6 -8 
6 -10 6 -13 7 -15 6 -19 6 -22 6 -24 7 -27 6 -31 
6 -32 6 -35 7 -36 6 -36 6 -34 6 -29 7 -20 6 -11 
6 1 6 10 7 16 6 21 6 22 6 21 7 19 6 17 
6 14 6 10 7 7 6 3 6 0 6 -4 7 -7 6 -10 
6 -13 6 -16 7 -19 6 -20 6 -21 6 -21 7 -19 6 -15 
6 -9 6 -2 7 4 6 11 6 16 6 18 7 19 6 19 
6 17 6 15 7 11 6 8 6 3 6 0 7 -6 6 -11 
6 -16 6 -24 7 -31 6 -41 6 -52 7 -68 6 -91 6 -126 
6 -188 7 -300 6 8 6 320 6 209 7 146 6 111 6 89 
6 73 7 62 6 53 6 45 6 39 7 34 6 29 6 25 
6 20 7 18 6 13 6 11 6 7 7 5 6 1 6 -2 
6 -5 7 -8 6 -11 6 -15 6 -18 7 -23 6 -26 6 -31 
6 -36 7 -43 6 -48 6 -57 6 -64 7 -73 6 -79 6 -75 
6 -48 7 4 6 51 6 73 6 73 7 67 6 58 6 51 
6 43 7 36 6 31 6 26 6 21 7 17 6 14 6 10 
6 6 7 4 6 0 7950 6756 300 MP stroke
6 -3 6 -6 7 -9 6 -12 6 -15 7 -18 6 -22 6 -26 
6 -30 7 -34 6 -39 6 -46 6 -52 7 -61 6 -72 6 -87 
6 -106 7 -134 6 -171 6 -164 6 38 7 170 6 146 6 112 
6 88 7 70 6 58 6 47 6 41 7 34 6 29 6 25 
6 22 7 19 6 16 6 14 6 12 7 10 6 9 6 8 
6 7 7 6 6 5 6 5 6 4 7 4 6 3 6 3 
6 3 7 2 6 3 6 1 6 2 7 0 6 1 6 -1 
6 -1 7 -1 6 -3 6 -3 6 -4 7 -5 6 -6 6 -7 
6 -8 7 -8 6 -10 6 -11 6 -12 7 -12 6 -14 6 -14 
7 -16 6 -16 6 -16 6 -18 7 -17 6 -19 6 -18 6 -18 
7 -19 6 -17 6 -18 6 -16 7 -15 6 -14 6 -13 6 -10 
7 -9 6 -6 6 -4 6 -2 7 0 6 3 6 4 6 7 
7 8 6 10 6 12 6 12 7 14 6 14 6 15 6 15 
7 16 6 15 6 16 6 16 7 15 6 15 6 15 6 15 
7 14 6 14 6 13 6 13 7 12 6 12 6 11 6 10 
7 9 6 9 6 8 6 6 7 6 6 5 6 4 6 3 
7 2 6 1 6 0 6 -1 7 -2 6 -4 6 -4 6 -6 
7 -6 6 -7 6 -9 7 -8 6 -10 6 -10 6 -10 7 -11 
6 -10 6 -10 6 -9 7 -9 6 -7 6 -7 6 -5 7 -4 
6 -2 6 -2 6 -1 7 0 6 0 6 -1 6 0 7 -1 
6 -2 6 -4 6 -4 7 -6 6 -8 6 -10 6 -13 7 -15 
6 -17 6 -20 6 -24 7 -27 6 -31 6 -35 6 -40 7 -46 
6 -53 6 -60 6 -71 7 -83 6 -99 6 -123 6 -155 7 -192 
5 -116 6794 8268 186 MP stroke
gr

13.2 w
c9
DD
0 sg
5788 8695 mt 
(bbbbbbbbbbbbbbbb) s
SO
6 w
1 sg
0 1425 3499 0 0 -1425 8121 2211 4 MP
PP
-3499 0 0 1425 3499 0 0 -1425 8121 2211 5 MP stroke
4 w
DO
SO
6 w
0 sg
8121 2211 mt 11620 2211 L
8121  786 mt 11620  786 L
8121 2211 mt 8121  786 L
11620 2211 mt 11620  786 L
8121 2211 mt 11620 2211 L
8121 2211 mt 8121  786 L
8121 2211 mt 11620 2211 L
8121  786 mt 11620  786 L
8121 2211 mt 8121  786 L
11620 2211 mt 11620  786 L
%%IncludeResource: font Helvetica
/Helvetica /ISOLatin1Encoding 324 FMSR

8596 1154 mt 
(Convex Method) s
gs 8121 786 3500 1426 rc
13.2 w
c8
365 0 8193 1038 2 MP stroke
gr

13.2 w
c8
0 sg
8596 1614 mt 
(Submodular Method) s
gs 8121 786 3500 1426 rc
DA
365 0 8193 1498 2 MP stroke
SO
gr

8596 2074 mt 
(Output SNR Greedy) s
gs 8121 786 3500 1426 rc
DD
c9
365 0 8193 1958 2 MP stroke
SO
6 w
gr

6 w
c9

end %%Color Dict

eplot
%%EndObject

epage
end

showpage

%%Trailer
%%EOF
