%!PS-Adobe-3.0 EPSF-3.0
%%Creator: MATLAB, The MathWorks, Inc. Version 8.1.0.604 (R2013a). Operating System: Darwin 15.0.0 Darwin Kernel Version 15.0.0: Sat Sep 19 15:53:46 PDT 2015; root:xnu-3247.10.11~1/RELEASE_X86_64 x86_64.
%%Title: /Users/fruzti/Dropbox/PhD/SubmodularityMVDR/figureConference/fig3.eps
%%CreationDate: 02/22/2017  12:03:19
%%DocumentNeededFonts: Helvetica
%%DocumentProcessColors: Cyan Magenta Yellow Black
%%LanguageLevel: 2
%%Pages: 1
%%BoundingBox:  -118   108   730   683
%%EndComments

%%BeginProlog
% MathWorks dictionary
/MathWorks 160 dict begin
% definition operators
/bdef {bind def} bind def
/ldef {load def} bind def
/xdef {exch def} bdef
/xstore {exch store} bdef
% operator abbreviations
/c  /clip ldef
/cc /concat ldef
/cp /closepath ldef
/gr /grestore ldef
/gs /gsave ldef
/mt /moveto ldef
/np /newpath ldef
/cm /currentmatrix ldef
/sm /setmatrix ldef
/rm /rmoveto ldef
/rl /rlineto ldef
/s {show newpath} bdef
/sc {setcmykcolor} bdef
/sr /setrgbcolor ldef
/sg /setgray ldef
/w /setlinewidth ldef
/j /setlinejoin ldef
/cap /setlinecap ldef
/rc {rectclip} bdef
/rf {rectfill} bdef
% page state control
/pgsv () def
/bpage {/pgsv save def} bdef
/epage {pgsv restore} bdef
/bplot /gsave ldef
/eplot {stroke grestore} bdef
% orientation switch
/portraitMode 0 def /landscapeMode 1 def /rotateMode 2 def
% coordinate system mappings
/dpi2point 0 def
% font control
/FontSize 0 def
/FMS {/FontSize xstore findfont [FontSize 0 0 FontSize neg 0 0]
  makefont setfont} bdef
/reencode {exch dup where {pop load} {pop StandardEncoding} ifelse
  exch dup 3 1 roll findfont dup length dict begin
  { 1 index /FID ne {def}{pop pop} ifelse } forall
  /Encoding exch def currentdict end definefont pop} bdef
/isroman {findfont /CharStrings get /Agrave known} bdef
/FMSR {3 1 roll 1 index dup isroman {reencode} {pop pop} ifelse
  exch FMS} bdef
/csm {1 dpi2point div -1 dpi2point div scale neg translate
 dup landscapeMode eq {pop -90 rotate}
  {rotateMode eq {90 rotate} if} ifelse} bdef
% line types: solid, dotted, dashed, dotdash
/SO { [] 0 setdash } bdef
/DO { [.5 dpi2point mul 4 dpi2point mul] 0 setdash } bdef
/DA { [6 dpi2point mul] 0 setdash } bdef
/DD { [.5 dpi2point mul 4 dpi2point mul 6 dpi2point mul 4
  dpi2point mul] 0 setdash } bdef
% macros for lines and objects
/L {lineto stroke} bdef
/MP {3 1 roll moveto 1 sub {rlineto} repeat} bdef
/AP {{rlineto} repeat} bdef
/PDlw -1 def
/W {/PDlw currentlinewidth def setlinewidth} def
/PP {closepath eofill} bdef
/DP {closepath stroke} bdef
/MR {4 -2 roll moveto dup  0 exch rlineto exch 0 rlineto
  neg 0 exch rlineto closepath} bdef
/FR {MR stroke} bdef
/PR {MR fill} bdef
/L1i {{currentfile picstr readhexstring pop} image} bdef
/tMatrix matrix def
/MakeOval {newpath tMatrix currentmatrix pop translate scale
0 0 1 0 360 arc tMatrix setmatrix} bdef
/FO {MakeOval stroke} bdef
/PO {MakeOval fill} bdef
/PD {currentlinewidth 2 div 0 360 arc fill
   PDlw -1 eq not {PDlw w /PDlw -1 def} if} def
/FA {newpath tMatrix currentmatrix pop translate scale
  0 0 1 5 -2 roll arc tMatrix setmatrix stroke} bdef
/PA {newpath tMatrix currentmatrix pop	translate 0 0 moveto scale
  0 0 1 5 -2 roll arc closepath tMatrix setmatrix fill} bdef
/FAn {newpath tMatrix currentmatrix pop translate scale
  0 0 1 5 -2 roll arcn tMatrix setmatrix stroke} bdef
/PAn {newpath tMatrix currentmatrix pop translate 0 0 moveto scale
  0 0 1 5 -2 roll arcn closepath tMatrix setmatrix fill} bdef
/vradius 0 def /hradius 0 def /lry 0 def
/lrx 0 def /uly 0 def /ulx 0 def /rad 0 def
/MRR {/vradius xdef /hradius xdef /lry xdef /lrx xdef /uly xdef
  /ulx xdef newpath tMatrix currentmatrix pop ulx hradius add uly
  vradius add translate hradius vradius scale 0 0 1 180 270 arc 
  tMatrix setmatrix lrx hradius sub uly vradius add translate
  hradius vradius scale 0 0 1 270 360 arc tMatrix setmatrix
  lrx hradius sub lry vradius sub translate hradius vradius scale
  0 0 1 0 90 arc tMatrix setmatrix ulx hradius add lry vradius sub
  translate hradius vradius scale 0 0 1 90 180 arc tMatrix setmatrix
  closepath} bdef
/FRR {MRR stroke } bdef
/PRR {MRR fill } bdef
/MlrRR {/lry xdef /lrx xdef /uly xdef /ulx xdef /rad lry uly sub 2 div def
  newpath tMatrix currentmatrix pop ulx rad add uly rad add translate
  rad rad scale 0 0 1 90 270 arc tMatrix setmatrix lrx rad sub lry rad
  sub translate rad rad scale 0 0 1 270 90 arc tMatrix setmatrix
  closepath} bdef
/FlrRR {MlrRR stroke } bdef
/PlrRR {MlrRR fill } bdef
/MtbRR {/lry xdef /lrx xdef /uly xdef /ulx xdef /rad lrx ulx sub 2 div def
  newpath tMatrix currentmatrix pop ulx rad add uly rad add translate
  rad rad scale 0 0 1 180 360 arc tMatrix setmatrix lrx rad sub lry rad
  sub translate rad rad scale 0 0 1 0 180 arc tMatrix setmatrix
  closepath} bdef
/FtbRR {MtbRR stroke } bdef
/PtbRR {MtbRR fill } bdef
/stri 6 array def /dtri 6 array def
/smat 6 array def /dmat 6 array def
/tmat1 6 array def /tmat2 6 array def /dif 3 array def
/asub {/ind2 exch def /ind1 exch def dup dup
  ind1 get exch ind2 get sub exch } bdef
/tri_to_matrix {
  2 0 asub 3 1 asub 4 0 asub 5 1 asub
  dup 0 get exch 1 get 7 -1 roll astore } bdef
/compute_transform {
  dmat dtri tri_to_matrix tmat1 invertmatrix 
  smat stri tri_to_matrix tmat2 concatmatrix } bdef
/ds {stri astore pop} bdef
/dt {dtri astore pop} bdef
/db {2 copy /cols xdef /rows xdef mul dup 3 mul string
  currentfile 
  3 index 0 eq {/ASCIIHexDecode filter}
  {/ASCII85Decode filter 3 index 2 eq {/RunLengthDecode filter} if }
  ifelse exch readstring pop
  dup 0 3 index getinterval /rbmap xdef
  dup 2 index dup getinterval /gbmap xdef
  1 index dup 2 mul exch getinterval /bbmap xdef pop pop}bdef
/it {gs np dtri aload pop moveto lineto lineto cp c
  cols rows 8 compute_transform 
  rbmap gbmap bbmap true 3 colorimage gr}bdef
/il {newpath moveto lineto stroke}bdef
currentdict end def
%%EndProlog

%%BeginSetup
MathWorks begin

0 cap

end
%%EndSetup

%%Page: 1 1
%%BeginPageSetup
%%PageBoundingBox:  -118   108   730   683
MathWorks begin
bpage
%%EndPageSetup

%%BeginObject: obj1
bplot

/dpi2point 12 def
portraitMode -1416 8196 csm

    0     0 10176  6891 rc
87 dict begin %Colortable dictionary
/c0 { 0.000000 0.000000 0.000000 sr} bdef
/c1 { 1.000000 1.000000 1.000000 sr} bdef
/c2 { 0.900000 0.000000 0.000000 sr} bdef
/c3 { 0.000000 0.820000 0.000000 sr} bdef
/c4 { 0.000000 0.000000 0.800000 sr} bdef
/c5 { 0.910000 0.820000 0.320000 sr} bdef
/c6 { 1.000000 0.260000 0.820000 sr} bdef
/c7 { 0.000000 0.820000 0.820000 sr} bdef
c0
1 j
1 sg
   0    0 10177 6892 rf
6 w
0 1486 7886 0 0 -1486 1323 2003 4 MP
PP
-7886 0 0 1486 7886 0 0 -1486 1323 2003 5 MP stroke
4 w
DO
SO
6 w
0 sg
1323 2003 mt 9209 2003 L
1323  517 mt 9209  517 L
1323 2003 mt 1323  517 L
9209 2003 mt 9209  517 L
1323 2003 mt 9209 2003 L
1323 2003 mt 1323  517 L
1323 2003 mt 1323 1924 L
1323  517 mt 1323  595 L
%%IncludeResource: font Helvetica
/Helvetica /ISOLatin1Encoding 204 FMSR

1092 2226 mt 
(-80) s
2308 2003 mt 2308 1924 L
2308  517 mt 2308  595 L
2077 2226 mt 
(-60) s
3294 2003 mt 3294 1924 L
3294  517 mt 3294  595 L
3063 2226 mt 
(-40) s
4280 2003 mt 4280 1924 L
4280  517 mt 4280  595 L
4049 2226 mt 
(-20) s
5266 2003 mt 5266 1924 L
5266  517 mt 5266  595 L
5210 2226 mt 
(0) s
6251 2003 mt 6251 1924 L
6251  517 mt 6251  595 L
6138 2226 mt 
(20) s
7237 2003 mt 7237 1924 L
7237  517 mt 7237  595 L
7124 2226 mt 
(40) s
8223 2003 mt 8223 1924 L
8223  517 mt 8223  595 L
8110 2226 mt 
(60) s
9209 2003 mt 9209 1924 L
9209  517 mt 9209  595 L
9096 2226 mt 
(80) s
1323 2003 mt 1401 2003 L
9209 2003 mt 9130 2003 L
 943 2078 mt 
(-40) s
1323 1260 mt 1401 1260 L
9209 1260 mt 9130 1260 L
 943 1335 mt 
(-20) s
1323  517 mt 1401  517 L
9209  517 mt 9130  517 L
1175  592 mt 
(0) s
1323 2003 mt 9209 2003 L
1323  517 mt 9209  517 L
1323 2003 mt 1323  517 L
9209 2003 mt 9209  517 L
gs 1323 517 7887 1487 rc
DA
13.2 w
2 51 5 104 5 78 5 62 4 51 5 44 5 38 5 34 
5 30 5 28 5 25 5 22 5 21 5 19 5 18 5 17 
5 16 5 14 4 14 5 13 5 12 5 11 5 11 5 11 
5 9 5 9 5 9 5 9 5 8 5 7 5 7 5 7 
4 7 5 6 5 6 5 6 5 5 5 6 5 5 5 5 
5 4 5 5 5 4 5 4 5 4 5 4 4 4 5 3 
5 4 5 3 5 3 5 3 5 3 5 3 5 3 5 2 
5 3 5 2 5 3 5 2 4 2 5 2 5 2 5 2 
5 2 5 2 5 2 5 2 5 1 5 2 5 1 5 2 
5 1 5 2 4 1 5 1 5 2 5 1 5 1 5 1 
5 1 5 1 5 1 5 1 5 1 5 0 5 1 5 1 
4 1 5 0 5 1 5 0 5 1 5 0 5 1 5 0 
5 0 5 1 5 0 5 0 5 0 5 0 4 0 1323 1039 104 MP stroke
3 209 5 178 5 113 5 82 5 64 5 52 5 43 5 37 
5 32 5 27 5 24 5 22 4 19 5 16 5 15 5 13 
5 12 5 10 5 9 5 8 5 7 5 6 5 5 5 4 
5 4 5 2 4 2 5 1 5 1 5 0 5 -1 5 -1 
5 -2 5 -2 5 -3 5 -3 5 -4 5 -5 5 -4 5 -6 
4 -5 5 -6 5 -7 5 -7 5 -7 5 -7 5 -8 5 -8 
5 -8 5 -8 5 -8 5 -8 5 -8 5 -8 4 -6 5 -7 
5 -5 5 -5 5 -3 5 -3 5 -1 5 0 5 2 5 3 
5 3 5 5 5 6 5 7 4 7 5 8 5 8 5 8 
5 8 5 8 5 9 5 7 5 8 5 8 5 7 5 7 
5 6 5 6 4 5 5 5 5 5 5 4 5 4 5 3 
5 2 5 3 5 1 5 1 5 1 5 0 5 0 5 -1 
4 -2 5 -2 5 -2 5 -3 5 -4 5 -4 5 -5 5 -5 
5 -6 5 -7 5 -7 5 -8 5 -9 5 -9 4 -10 5 -11 
5 -12 5 -13 5 -13 5 -15 5 -16 5 -16 5 -18 5 -20 
5 -20 5 -22 5 -24 5 -26 4 -28 5 -30 5 -32 5 -33 
5 -36 5 -36 5 -35 5 -30 5 -22 5 -8 5 7 5 19 
5 28 5 32 4 32 5 32 5 30 5 29 5 26 5 24 
5 22 5 21 5 18 5 18 5 16 5 15 5 13 5 13 
4 12 5 11 5 10 5 9 5 9 5 8 5 7 5 7 
5 6 5 5 5 5 5 5 5 4 5 4 4 3 5 3 
5 2 5 2 5 2 5 1 5 1 5 1 5 0 5 0 
5 0 5 -1 5 -1 5 -1 4 -1 5 -2 5 -3 5 -2 
5 -3 5 -3 5 -4 5 -3 5 -4 5 -5 5 -5 5 -5 
5 -5 5 -6 4 -6 5 -7 5 -7 5 -7 5 -8 5 -8 
5 -9 5 -9 5 -10 5 -11 5 -10 5 -12 5 -12 5 -13 
4 -13 5 -15 5 -15 5 -16 5 -18 5 -18 5 -20 5 -21 
5 -23 5 -25 5 -27 5 -30 5 -32 5 -37 4 -41 5 -47 
5 -55 5 -67 5 -84 5 -113 1 -30 1849 2004 230 MP stroke
5 -3 5 -6 5 -7 5 -10 5 -11 5 -13 5 -16 5 -18 
5 -20 5 -23 4 -25 5 -29 5 -31 5 -35 5 -39 5 -41 
5 -44 5 -44 5 -40 5 -31 5 -14 5 5 5 19 5 27 
4 29 5 28 5 26 5 21 5 19 5 15 5 12 5 8 
5 6 5 4 5 1 5 -2 5 -4 5 -5 4 -8 5 -9 
5 -11 5 -13 5 -13 5 -14 5 -15 5 -14 5 -14 5 -12 
5 -11 5 -8 5 -5 5 -3 4 -1 5 2 5 2 5 4 
5 4 5 4 5 3 5 3 5 1 5 0 5 -1 5 -3 
5 -5 5 -6 4 -8 5 -10 5 -12 5 -13 5 -16 5 -17 
5 -20 5 -22 5 -25 5 -27 5 -30 5 -33 5 -37 5 -41 
4 -46 5 -53 5 -61 5 -72 5 -87 5 -109 5 -133 5 -98 
5 73 5 125 5 102 5 79 5 65 5 53 4 45 5 40 
5 35 5 31 5 28 5 25 5 23 5 21 5 19 5 17 
5 16 5 14 5 13 5 10 4 10 5 8 5 7 5 5 
5 4 5 2 5 1 5 0 5 -2 5 -3 5 -5 5 -6 
5 -8 5 -10 4 -11 5 -14 5 -15 5 -17 5 -19 5 -22 
5 -23 5 -26 5 -27 5 -28 5 -27 5 -24 5 -16 5 -7 
4 7 5 18 5 26 5 30 5 33 5 32 5 30 5 29 
5 26 5 25 5 22 5 20 5 18 5 16 4 14 5 12 
5 11 5 9 5 8 5 6 5 4 5 3 5 1 5 0 
5 -2 5 -3 5 -5 5 -7 4 -8 5 -10 5 -11 5 -14 
5 -15 5 -17 5 -19 5 -20 5 -22 5 -23 5 -23 5 -21 
5 -19 5 -14 4 -7 5 1 5 8 5 15 5 19 5 21 
5 22 5 22 5 21 5 19 5 17 5 15 5 14 5 11 
4 10 5 7 5 6 5 4 5 2 5 0 5 -2 5 -4 
5 -6 5 -8 5 -11 5 -13 5 -15 5 -19 5 -22 4 -25 
5 -30 5 -36 5 -42 5 -51 5 -62 5 -80 5 -109 5 -164 
5 -265 5 102 5 230 5 141 5 98 4 74 5 59 5 49 
5 41 5 35 5 29 5 26 5 23 5 19 5 17 5 14 
5 12 5 10 5 8 4 7 5 5 5 3 5 2 5 0 
5 -1 5 -3 5 -4 5 -6 5 -7 5 -9 5 -10 5 -12 
5 -14 4 -16 5 -18 5 -20 5 -23 5 -26 5 -29 5 -33 
5 -37 5 -44 5 -51 5 -61 5 -76 5 -100 5 -144 4 -253 
2 -61 2977 2004 266 MP stroke
0 62 5 231 5 142 5 103 5 81 5 65 5 56 5 47 
5 41 5 36 5 31 5 28 4 25 5 22 5 20 5 18 
5 17 5 15 5 14 5 12 5 13 5 11 5 11 5 10 
5 9 5 10 4 8 5 8 5 8 5 6 5 6 5 6 
5 4 5 3 5 2 5 1 5 0 5 -2 5 -2 5 -4 
4 -5 5 -6 5 -7 5 -8 5 -8 5 -9 5 -8 5 -7 
5 -6 5 -4 5 -1 5 0 5 3 5 4 4 6 5 7 
5 8 5 6 5 6 5 5 5 3 5 0 5 -2 5 -4 
5 -8 5 -12 5 -16 5 -21 4 -27 5 -34 5 -43 5 -54 
5 -66 5 -77 5 -61 5 9 5 80 5 94 5 85 5 72 
5 61 5 52 4 46 5 39 5 35 5 31 5 27 5 24 
5 20 5 19 5 15 5 14 5 11 5 10 5 7 5 5 
4 3 4295 517 98 MP stroke
4 151 5 123 5 95 5 78 5 66 5 58 5 53 5 48 
5 44 5 40 5 38 5 36 5 33 4 31 5 29 5 27 
5 25 5 24 5 21 5 20 5 17 5 17 5 14 5 13 
5 10 5 10 5 7 4 6 5 3 5 2 5 0 5 -2 
5 -3 5 -6 5 -9 5 -10 5 -13 5 -16 5 -19 5 -22 
5 -25 4 -30 5 -34 5 -40 5 -47 5 -56 5 -65 5 -79 
5 -91 5 -89 5 -34 5 51 5 80 5 73 5 59 5 48 
4 37 5 29 5 23 5 16 5 12 5 6 5 2 5 -3 
5 -7 5 -11 5 -16 5 -22 5 -27 5 -34 4 -42 5 -53 
5 -66 5 -88 5 -120 5 -163 5 -74 5 159 5 145 5 106 
5 80 5 64 5 52 5 43 4 38 5 32 5 29 5 25 
5 23 5 21 5 18 5 17 5 16 5 14 5 13 5 12 
5 10 5 10 4 8 5 8 5 6 5 4 5 4 5 2 
5 0 5 0 5 -3 5 -4 5 -6 5 -7 5 -10 5 -11 
4 -14 5 -16 5 -19 5 -21 5 -24 5 -28 5 -30 5 -35 
5 -39 5 -44 5 -50 5 -55 5 -62 5 -68 4 -70 5 -62 
5 -39 5 -6 5 17 5 25 5 21 5 12 5 2 5 -9 
5 -24 5 -40 5 -65 5 -104 4 -190 1 -40 4777 2004 143 MP stroke
2 102 5 270 5 139 5 92 5 67 5 52 5 42 5 34 
5 30 5 25 5 21 5 20 5 17 5 15 4 15 5 13 
5 12 5 11 5 11 5 9 5 9 5 8 5 8 5 7 
5 5 5 5 5 4 5 4 4 2 5 1 5 0 5 -1 
5 -2 5 -4 5 -4 5 -6 5 -7 5 -8 5 -9 5 -11 
5 -12 5 -13 4 -14 5 -16 5 -18 5 -18 5 -20 5 -22 
5 -22 5 -24 5 -26 5 -26 5 -28 5 -28 5 -29 5 -30 
4 -29 5 -30 5 -30 5 -29 5 -28 5 -28 5 -26 5 -26 
5 -24 5 -24 5 -22 5 -21 5 -17 5 -12 4 -6 5 3 
5 11 5 20 5 25 5 30 5 31 5 33 5 31 5 31 
5 29 5 27 5 26 5 24 4 23 5 21 5 19 5 18 
5 16 5 15 5 14 5 12 5 10 5 10 5 7 5 7 
5 5 5 4 4 2 5 2 5 -1 5 -1 5 -3 5 -4 
5 -5 5 -6 5 -7 5 -7 5 -9 5 -9 5 -9 5 -10 
4 -9 5 -9 5 -9 5 -8 5 -8 5 -7 5 -6 5 -7 
5 -6 5 -7 5 -7 5 -8 5 -9 5 -11 4 -13 5 -15 
5 -18 5 -21 5 -25 5 -29 5 -35 5 -41 5 -50 5 -63 
5 -80 5 -107 4 -127 5483 2004 140 MP stroke
4 180 5 144 5 100 5 77 5 63 5 53 5 46 4 40 
5 36 5 32 5 30 5 27 5 25 5 23 5 21 5 20 
5 18 5 17 5 16 5 15 5 15 4 13 5 12 5 12 
5 10 5 10 5 10 5 9 5 8 5 7 5 7 5 6 
5 6 5 5 5 4 4 4 5 3 5 3 5 2 5 2 
5 1 5 0 5 0 5 0 5 -2 5 -2 5 -2 5 -3 
5 -4 4 -5 5 -5 5 -6 5 -7 5 -7 5 -9 5 -9 
5 -10 5 -11 5 -13 5 -13 5 -14 5 -16 5 -17 4 -18 
5 -20 5 -21 5 -22 5 -24 5 -24 5 -24 5 -23 5 -21 
5 -16 5 -9 5 -2 5 7 5 15 4 20 5 24 5 26 
5 26 5 26 5 25 5 24 5 23 5 21 5 20 5 18 
5 17 5 16 5 15 4 14 5 12 5 12 5 11 5 10 
5 9 5 8 5 7 5 7 5 6 5 5 5 5 5 4 
5 4 4 3 5 2 5 2 5 1 5 1 5 1 5 0 
5 -1 5 0 5 -1 5 -1 5 -2 5 -1 5 -2 4 -2 
5 -1 5 -2 5 -2 5 -2 5 -1 5 -2 5 -1 5 -1 
5 -1 5 -1 5 0 5 0 5 -1 4 0 5 0 5 1 
5 0 5 0 5 -1 5 0 5 -1 5 -1 5 -1 5 -1 
5 -3 5 -2 5 -4 4 -4 5 -5 5 -5 5 -7 5 -7 
5 -9 5 -10 5 -11 5 -12 5 -14 5 -16 5 -18 5 -19 
5 -22 4 -25 5 -28 5 -33 5 -36 5 -42 5 -50 5 -57 
5 -68 5 -77 5 -77 5 -37 5 36 5 76 5 79 4 69 
5 59 5 50 5 43 5 37 5 33 5 29 5 25 5 22 
5 20 5 17 5 16 5 13 5 11 4 10 5 8 5 7 
5 5 5 4 5 2 5 1 5 -1 5 -1 5 -4 5 -4 
5 -7 5 -7 5 -10 4 -10 5 -13 5 -15 5 -16 5 -19 
5 -21 5 -24 5 -27 5 -31 5 -35 5 -40 5 -45 5 -53 
5 -61 4 -68 5 -70 5 -50 5 -1 5 49 5 67 5 65 
5 57 5 49 5 42 5 37 5 31 5 28 5 24 4 20 
5 19 5 15 5 14 5 12 5 10 5 8 5 7 5 5 
5 4 5 2 5 1 5 0 5 -1 4 -2 5 -3 5 -5 
5 -5 5 -7 5 -8 5 -8 5 -10 5 -11 5 -11 5 -13 
5 -13 5 -15 5 -15 4 -15 5 -16 5 -17 5 -16 5 -15 
5 -14 5 -12 5 -10 5 -7 5 -4 5 0 5 3 5 6 
5 9 4 10 5 11 5 12 5 12 5 12 5 11 5 11 
5 9 5 8 5 7 5 6 5 4 5 3 5 1 4 0 
5 -2 5 -4 5 -6 5 -7 5 -10 5 -13 5 -14 5 -18 
5 -21 5 -25 5 -29 7217 1193 300 MP stroke
5 -34 5 -41 5 -48 4 -58 5 -69 5 -82 5 -83 5 -39 
5 47 5 85 5 83 5 70 5 58 5 49 5 41 5 35 
5 29 4 25 5 20 5 18 5 13 5 11 5 8 5 6 
5 3 5 0 5 -3 5 -5 5 -7 5 -10 5 -12 4 -15 
5 -16 5 -18 5 -19 5 -18 5 -16 5 -11 5 -3 5 5 
5 14 5 20 5 25 5 27 5 28 4 26 5 25 5 23 
5 21 5 19 5 17 5 14 5 12 5 10 5 7 5 6 
5 3 5 1 5 -1 4 -3 5 -5 5 -8 5 -11 5 -13 
5 -16 5 -19 5 -23 5 -26 5 -32 5 -37 5 -43 5 -52 
5 -63 4 -77 5 -94 5 -106 5 -64 5 50 5 100 5 89 
5 72 5 57 5 46 5 38 5 30 5 25 5 20 4 17 
5 12 5 9 5 7 5 4 5 2 5 0 5 -1 5 -1 
5 -3 5 -1 5 -1 5 1 5 3 4 5 5 8 5 10 
5 13 5 13 5 15 5 14 5 15 5 13 5 13 5 12 
5 10 5 8 5 7 4 5 5 4 5 1 5 0 5 -3 
5 -5 5 -6 5 -9 5 -11 5 -13 5 -16 5 -17 5 -19 
5 -20 4 -19 5 -19 5 -15 5 -10 5 -3 5 5 5 12 
5 18 5 21 5 23 5 23 5 22 5 21 5 18 4 16 
5 14 5 12 5 10 5 7 5 5 5 2 5 0 5 -2 
5 -5 5 -7 5 -10 5 -12 5 -16 4 -18 5 -22 5 -26 
5 -29 5 -32 5 -36 5 -36 5 -35 5 -25 5 -10 5 11 
5 27 5 37 5 40 4 39 5 36 5 33 5 30 5 26 
5 23 5 20 5 17 5 15 5 13 5 10 5 8 5 6 
5 5 4 2 5 1 5 -1 5 -2 5 -5 5 -6 5 -8 
5 -9 5 -11 5 -14 5 -14 5 -17 5 -19 5 -22 4 -23 
5 -27 5 -29 5 -32 5 -37 5 -40 5 -46 5 -53 5 -62 
5 -73 5 -92 5 -123 5 -186 4 -327 6168 2004 214 MP stroke
1 -3 5 -15 5 -14 5 -13 5 -11 5 -9 5 -5 5 -3 
5 2 5 5 5 8 5 12 5 14 5 16 5 17 4 18 
5 18 5 19 5 19 5 18 5 18 5 17 5 17 5 17 
5 16 5 15 5 15 5 14 5 14 4 14 5 12 5 13 
5 12 5 11 5 11 5 10 5 11 5 9 5 10 5 9 
5 8 5 9 5 8 4 7 5 7 5 7 5 7 5 6 
5 6 5 6 5 5 5 5 5 5 5 4 5 4 5 4 
5 3 4 4 5 2 5 3 5 2 5 2 5 1 5 2 
5 0 5 1 5 0 5 0 5 -1 5 -1 5 -1 4 -2 
5 -3 5 -2 5 -4 5 -3 5 -5 5 -4 5 -6 5 -6 
5 -6 5 -8 5 -8 5 -9 5 -9 4 -11 5 -12 5 -13 
5 -14 5 -15 5 -17 5 -19 5 -20 5 -23 5 -26 5 -29 
5 -33 5 -38 5 -44 4 -54 5 -65 5 -84 5 -118 5 -192 
1 -37 8700 2004 106 MP stroke
SO
6 w
gr

1 sg
0 1486 7886 0 0 -1486 1323 4068 4 MP
PP
-7886 0 0 1486 7886 0 0 -1486 1323 4068 5 MP stroke
4 w
DO
SO
6 w
0 sg
1323 4068 mt 9209 4068 L
1323 2582 mt 9209 2582 L
1323 4068 mt 1323 2582 L
9209 4068 mt 9209 2582 L
1323 4068 mt 9209 4068 L
1323 4068 mt 1323 2582 L
1323 4068 mt 1323 3989 L
1323 2582 mt 1323 2660 L
1092 4291 mt 
(-80) s
2308 4068 mt 2308 3989 L
2308 2582 mt 2308 2660 L
2077 4291 mt 
(-60) s
3294 4068 mt 3294 3989 L
3294 2582 mt 3294 2660 L
3063 4291 mt 
(-40) s
4280 4068 mt 4280 3989 L
4280 2582 mt 4280 2660 L
4049 4291 mt 
(-20) s
5266 4068 mt 5266 3989 L
5266 2582 mt 5266 2660 L
5210 4291 mt 
(0) s
6251 4068 mt 6251 3989 L
6251 2582 mt 6251 2660 L
6138 4291 mt 
(20) s
7237 4068 mt 7237 3989 L
7237 2582 mt 7237 2660 L
7124 4291 mt 
(40) s
8223 4068 mt 8223 3989 L
8223 2582 mt 8223 2660 L
8110 4291 mt 
(60) s
9209 4068 mt 9209 3989 L
9209 2582 mt 9209 2660 L
9096 4291 mt 
(80) s
1323 4068 mt 1401 4068 L
9209 4068 mt 9130 4068 L
 943 4143 mt 
(-40) s
1323 3325 mt 1401 3325 L
9209 3325 mt 9130 3325 L
 943 3400 mt 
(-20) s
1323 2582 mt 1401 2582 L
9209 2582 mt 9130 2582 L
1175 2657 mt 
(0) s
1323 4068 mt 9209 4068 L
1323 2582 mt 9209 2582 L
1323 4068 mt 1323 2582 L
9209 4068 mt 9209 2582 L
gs 1323 2582 7887 1487 rc
13.2 w
/c8 { 0.000000 1.000000 0.000000 sr} bdef
c8
1 0 5 -2 5 -4 5 -6 5 -8 5 -9 5 -11 5 -13 
5 -15 4 -17 5 -20 5 -21 5 -25 5 -27 5 -31 5 -35 
5 -39 5 -44 5 -51 5 -58 5 -68 5 -82 5 -97 4 -111 
5 -90 5 13 5 83 5 82 5 65 5 50 5 37 5 29 
5 20 5 14 5 8 5 2 5 -2 4 -8 5 -12 5 -18 
5 -24 5 -30 5 -38 5 -47 5 -60 5 -79 5 -107 5 -160 
5 -245 5 85 5 218 4 136 5 93 5 70 5 53 5 43 
5 33 5 27 5 21 5 16 5 11 5 7 5 4 5 -1 
5 -5 4 -8 5 -12 5 -17 5 -22 5 -26 5 -33 5 -39 
5 -47 5 -55 5 -61 5 -60 5 -33 5 17 5 56 4 67 
5 63 5 56 5 48 5 40 5 36 5 30 5 25 5 22 
5 19 5 15 5 13 5 10 5 7 4 6 5 3 5 1 
5 -1 5 -4 5 -5 5 -7 5 -9 5 -11 5 -13 5 -16 
5 -17 5 -20 5 -23 4 -25 5 -28 5 -30 5 -34 5 -37 
5 -41 5 -42 5 -45 5 -43 5 -38 5 -27 5 -10 5 6 
5 18 4 24 5 26 5 25 5 22 5 19 5 16 5 14 
5 10 5 8 5 6 5 4 5 2 5 1 5 -1 4 -1 
5 -3 5 -2 5 -3 5 -3 5 -3 5 -2 5 -2 5 -1 
5 0 5 0 5 2 5 1 5 3 4 3 5 3 5 3 
5 3 5 4 5 3 5 3 5 3 5 4 5 2 5 3 
5 3 5 3 5 2 4 3 5 2 5 2 5 2 5 2 
5 1 5 1 5 1 5 1 5 -1 5 0 5 -1 5 -2 
5 -2 4 -3 5 -3 5 -4 5 -3 5 -4 5 -3 5 -2 
5 -2 5 -1 5 1 5 3 5 5 5 6 5 9 4 10 
5 12 5 12 5 13 5 14 5 14 5 13 5 13 5 13 
5 12 5 11 5 10 5 9 5 8 5 7 4 6 5 5 
5 3 5 3 5 1 5 1 5 -1 5 -1 5 -3 5 -3 
5 -4 5 -5 5 -6 5 -5 4 -6 5 -6 5 -5 5 -4 
5 -4 5 -1 5 0 5 1 5 4 5 6 5 8 5 9 
5 10 5 11 4 12 5 12 5 12 5 11 5 12 5 10 
5 10 5 9 5 8 5 8 5 6 5 6 5 4 5 3 
4 3 5 1 5 0 5 -1 5 -2 5 -4 5 -4 5 -6 
5 -7 5 -9 5 -10 5 -11 5 -13 5 -15 4 -17 5 -18 
5 -21 5 -24 5 -27 5 -30 5 -35 5 -39 5 -46 5 -54 
5 -65 5 -82 5 -108 5 -149 4 -179 5 67 5 174 5 126 
5 91 5 70 5 56 5 47 5 39 5 33 5 29 5 25 
5 22 5 19 4 16 5 15 5 12 5 11 5 10 5 7 
5 7 5 5 5 4 2801 3030 300 MP stroke
5 3 5 2 5 1 5 1 5 -1 4 -2 5 -2 5 -3 
5 -4 5 -5 5 -5 5 -6 5 -6 5 -7 5 -7 5 -8 
5 -8 5 -8 5 -9 4 -8 5 -9 5 -8 5 -9 5 -8 
5 -7 5 -7 5 -7 5 -5 5 -6 5 -4 5 -3 5 -3 
5 -2 4 -1 5 0 5 0 5 2 5 1 5 3 5 2 
5 3 5 4 5 3 5 4 5 4 5 4 5 5 4 4 
5 4 5 5 5 4 5 4 5 5 5 4 5 4 5 4 
5 4 5 4 5 4 5 3 5 3 4 3 5 3 5 3 
5 2 5 2 5 2 5 1 5 1 5 1 5 0 5 0 
5 0 5 -1 5 -1 4 -2 5 -2 5 -3 5 -3 5 -3 
5 -5 5 -4 5 -6 5 -5 5 -7 5 -7 5 -8 5 -8 
5 -9 4 -10 5 -10 5 -11 5 -13 5 -12 5 -14 5 -15 
5 -16 5 -16 5 -18 5 -18 5 -20 5 -20 5 -22 4 -22 
5 -22 5 -22 5 -21 5 -20 5 -17 5 -13 5 -8 5 -2 
5 3 5 8 5 12 5 15 5 17 4 18 5 18 5 19 
5 17 5 17 5 16 5 15 5 14 5 13 5 12 5 11 
5 10 5 10 5 9 4 8 5 7 5 7 5 5 5 6 
5 5 5 4 5 3 5 3 5 3 5 2 5 2 5 1 
5 1 4 1 5 0 5 0 5 -1 5 0 5 -1 5 -2 
5 -1 5 -2 5 -2 5 -2 5 -2 5 -2 5 -3 4 -2 
5 -3 5 -2 5 -2 5 -3 5 -2 5 -3 5 -2 5 -2 
5 -2 5 -1 5 -2 5 -1 5 -2 4 0 5 -1 5 -1 
5 0 5 0 5 0 5 0 5 1 5 0 5 1 5 1 
5 1 5 1 5 2 4 1 5 2 5 1 5 2 5 2 
5 1 5 2 5 2 5 1 5 2 5 2 5 1 5 2 
5 2 4 1 5 2 5 1 5 1 5 2 5 1 5 1 
5 1 5 1 5 1 5 1 5 1 5 1 5 0 4 1 
5 1 5 0 5 1 5 0 5 1 5 0 5 0 5 1 
5 0 5 0 5 0 5 0 5 0 4 0 5 0 5 0 
5 0 5 0 5 0 5 0 5 0 5 0 5 -1 5 0 
5 0 5 0 5 -1 4 0 5 0 5 -1 5 0 5 -1 
5 0 5 0 5 -1 5 0 5 -1 5 0 5 -1 5 0 
5 -1 4 0 5 -1 5 0 5 -1 5 0 5 0 5 -1 
5 0 5 -1 5 0 5 0 5 -1 5 0 5 0 4 0 
5 0 5 0 5 -1 5 0 5 0 5 1 5 0 5 0 
5 0 5 0 5 1 5 0 5 1 4 0 5 1 5 1 
5 1 5 1 5 1 5 1 5 1 5 1 5 1 5 1 
5 2 5 1 5 2 1327 3201 300 MP stroke
4 1 1323 3200 2 MP stroke
2 179 5 215 5 127 5 89 5 66 5 52 5 41 5 33 
5 26 5 20 5 15 5 11 4 7 5 3 5 0 5 -3 
5 -7 5 -9 5 -11 5 -12 5 -11 5 -10 5 -5 5 1 
5 7 5 14 4 19 5 23 5 25 5 24 5 24 5 21 
5 20 5 17 5 14 5 12 5 9 5 6 5 3 5 0 
4 -3 5 -6 5 -9 5 -13 5 -18 5 -21 5 -27 5 -33 
5 -40 5 -50 5 -62 5 -81 5 -112 5 -171 4 -315 5 122 
5 249 5 140 5 92 5 67 5 50 5 38 5 28 5 20 
5 13 5 7 5 0 5 -7 4 -13 5 -21 5 -28 5 -36 
5 -40 5 -36 5 -12 5 27 5 60 5 71 5 70 5 64 
5 58 5 51 4 46 5 40 5 37 5 33 5 29 5 27 
5 24 5 21 5 19 5 17 5 14 5 13 5 11 5 9 
4 7 5 6 5 4 5 2 4280 2582 101 MP stroke
3 140 5 138 5 102 5 80 5 66 5 57 5 49 4 44 
5 39 5 35 5 33 5 30 5 27 5 26 5 24 5 22 
5 21 5 19 5 18 5 17 5 16 4 15 5 14 5 13 
5 13 5 11 5 11 5 10 5 9 5 8 5 8 5 7 
5 7 5 5 5 5 4 5 5 4 5 3 5 3 5 1 
5 2 5 0 5 1 5 -1 5 -1 5 -2 5 -3 5 -3 
5 -4 4 -4 5 -5 5 -6 5 -7 5 -7 5 -8 5 -9 
5 -9 5 -10 5 -11 5 -12 5 -13 5 -13 5 -14 4 -15 
5 -16 5 -16 5 -17 5 -18 5 -18 5 -18 5 -18 5 -18 
5 -18 5 -17 5 -16 5 -15 5 -13 4 -11 5 -8 5 -7 
5 -5 5 -2 5 -2 5 1 5 1 5 2 5 4 5 4 
5 4 5 6 5 6 4 8 5 9 5 11 5 12 5 14 
5 15 5 16 5 18 5 19 5 20 5 20 5 20 5 20 
5 20 4 19 5 20 5 18 5 18 5 17 5 17 5 15 
5 15 5 14 5 13 5 12 5 11 5 11 5 9 4 9 
5 7 5 7 5 6 5 5 5 5 5 3 5 2 5 2 
5 0 5 0 5 -1 5 -3 5 -3 4 -4 5 -6 5 -7 
5 -7 5 -10 5 -10 5 -12 5 -13 5 -15 5 -16 5 -19 
5 -20 5 -23 5 -26 4 -28 5 -32 5 -36 5 -41 5 -47 
5 -56 5 -66 5 -83 5 -108 5 -155 5 -233 5 13 5 217 
5 139 4 95 5 71 5 54 5 44 5 35 5 29 5 24 
5 19 5 16 5 12 5 10 5 6 5 5 5 1 4 0 
5 -2 5 -5 5 -6 5 -9 5 -10 5 -12 5 -13 5 -14 
5 -15 5 -15 5 -14 5 -12 5 -10 5 -5 4 -1 5 4 
5 8 5 12 5 15 5 17 5 17 5 17 5 17 5 15 
5 15 5 13 5 12 5 10 4 9 5 7 5 6 5 4 
5 3 5 1 5 0 5 -1 5 -3 5 -5 5 -5 5 -8 
5 -8 5 -10 4 -11 5 -13 5 -14 5 -16 5 -17 5 -18 
5 -19 5 -20 5 -21 5 -22 5 -22 5 -22 5 -21 5 -20 
4 -17 5 -14 5 -11 5 -8 5 -4 5 0 5 1 5 3 
5 4 5 5 5 5 5 5 5 4 5 3 4 3 5 2 
5 1 5 1 5 0 5 0 5 -1 5 -1 5 0 5 -1 
5 -1 5 0 5 1 5 1 4 2 5 3 5 4 5 6 
5 6 5 8 5 9 5 9 5 11 5 11 5 11 5 12 
5 12 5 12 4 11 5 11 5 10 5 10 5 9 5 8 
5 6 5 6 5 4 5 3 5 2 5 0 5 -2 5 -2 
4 -5 5 -6 5 -7 5 -9 5 -10 5 -10 5 -12 5 -11 
5 -9 5 -8 5 -4 6665 3261 300 MP stroke
5 0 5 5 5 10 4 14 5 17 5 20 5 21 5 21 
5 20 5 19 5 18 5 17 5 14 5 13 5 11 5 9 
5 8 4 5 5 4 5 1 5 0 5 -2 5 -4 5 -6 
5 -7 5 -9 5 -10 5 -11 5 -11 5 -11 5 -9 4 -7 
5 -4 5 1 5 5 5 9 5 13 5 15 5 17 5 17 
5 17 5 16 5 16 5 13 5 12 4 10 5 7 5 6 
5 3 5 1 5 -2 5 -4 5 -8 5 -10 5 -15 5 -18 
5 -22 5 -28 5 -35 4 -42 5 -54 5 -71 5 -95 5 -145 
5 -280 5 -168 5 393 5 178 5 115 5 85 5 65 5 54 
5 44 4 38 5 31 5 27 5 23 5 19 5 16 5 13 
5 11 5 7 5 6 5 2 5 1 5 -3 5 -4 4 -7 
5 -10 5 -13 5 -15 5 -19 5 -22 5 -26 5 -30 5 -36 
5 -41 5 -49 5 -58 5 -67 5 -76 4 -73 5 -36 5 29 
5 67 5 70 5 61 5 52 5 42 5 36 5 29 5 24 
5 20 5 15 5 12 4 8 5 6 5 3 5 -1 5 -2 
5 -6 5 -8 5 -10 5 -13 5 -16 5 -17 5 -21 5 -22 
5 -25 4 -27 5 -28 5 -28 5 -27 5 -24 5 -19 5 -14 
5 -7 5 0 5 4 5 7 5 8 5 7 5 5 4 3 
5 0 5 -3 5 -7 5 -12 5 -15 5 -20 5 -26 5 -30 
5 -35 5 -39 5 -39 5 -31 5 -13 4 14 5 36 5 46 
5 48 5 45 5 40 5 36 5 31 5 26 5 23 5 19 
5 16 5 12 5 9 4 7 5 3 5 1 5 -2 5 -4 
5 -8 5 -10 5 -14 5 -16 5 -21 5 -25 5 -29 5 -35 
5 -41 4 -50 5 -62 5 -76 5 -99 5 -125 5 -112 5 48 
5 129 5 109 5 83 5 66 5 52 5 43 5 36 4 30 
5 24 5 21 5 17 5 13 5 11 5 7 5 5 5 2 
5 0 5 -3 5 -6 5 -9 5 -12 4 -14 5 -19 5 -22 
5 -26 5 -32 5 -38 5 -46 5 -56 5 -68 5 -88 5 -112 
5 -129 5 -36 5 110 4 116 5 91 5 69 5 53 5 43 
5 33 5 25 5 19 5 14 5 8 5 2 5 -3 5 -8 
5 -15 4 -22 5 -30 5 -39 5 -53 5 -71 5 -93 5 -108 
5 -35 5 105 5 125 5 103 5 83 5 68 5 57 4 48 
5 41 5 36 5 30 5 27 5 23 5 19 5 17 5 14 
5 10 5 9 5 6 5 3 5 1 4 -2 5 -4 5 -6 
5 -10 5 -12 5 -15 5 -18 5 -21 5 -25 5 -30 5 -33 
5 -39 5 -45 5 -49 4 -54 5 -52 5 -40 5 -12 5 19 
5 39 5 46 5 43 5 39 5 33 5 27 5 23 5 17 
5 14 5 9 4 6 5192 3016 300 MP stroke
5 1 5 -1 5 -6 5 -9 5 -13 5 -17 5 -22 5 -26 
5 -32 5 -38 5 -44 5 -51 5 -57 4 -55 5 -38 5 2 
5 39 5 57 5 57 5 53 5 45 5 40 5 33 5 29 
5 25 5 21 5 17 4 15 5 12 5 10 5 7 5 6 
5 3 5 2 5 0 5 -1 5 -2 5 -4 5 -5 5 -6 
5 -8 4 -8 5 -9 5 -9 5 -11 5 -11 5 -11 5 -11 
5 -12 5 -12 5 -11 5 -11 5 -10 5 -10 5 -8 4 -6 
5 -6 5 -3 5 -2 5 -1 5 0 5 2 5 1 5 2 
5 2 5 0 5 0 5 -1 5 -3 4 -5 5 -7 5 -9 
5 -12 5 -15 5 -19 5 -23 5 -28 5 -34 5 -42 5 -51 
5 -66 5 -86 5 -122 4 -199 3 -215 4775 4069 86 MP stroke
1 0 5 2 5 2 5 2 5 2 5 1 5 2 5 2 
5 2 5 1 5 2 5 2 5 1 5 2 5 1 4 2 
5 1 5 1 5 2 5 1 5 1 5 1 5 1 5 1 
5 1 5 1 5 1 5 1 5 1 4 1 5 0 5 1 
5 0 5 1 5 0 5 1 5 0 5 0 5 0 5 0 
5 0 5 0 5 -1 4 0 5 0 5 -1 5 0 5 -1 
5 -1 5 -1 5 -1 5 -1 5 -1 5 -2 5 -1 5 -2 
5 -1 4 -2 5 -2 5 -2 5 -2 5 -3 5 -2 5 -3 
5 -3 5 -2 5 -3 5 -4 5 -3 5 -4 5 -3 4 -4 
5 -4 5 -4 5 -5 5 -4 5 -5 5 -5 5 -5 5 -5 
5 -6 5 -5 5 -6 5 -6 5 -7 4 -6 5 -7 5 -7 
5 -7 5 -8 5 -8 5 -8 5 -8 5 -8 5 -9 5 -9 
5 -9 5 -10 5 -9 4 -10 5 -10 5 -11 5 -10 5 -11 
5 -10 5 -11 5 -11 5 -11 5 -10 5 -11 5 -10 5 -10 
5 -9 4 -9 5 -8 5 -8 5 -7 5 -6 5 -5 5 -3 
5 -3 5 -2 5 -1 5 0 5 0 5 2 5 2 4 3 
5 3 5 3 5 4 5 4 5 4 5 3 5 4 5 4 
5 3 5 4 5 3 5 2 5 3 4 2 5 2 5 1 
5 1 5 0 5 1 5 -1 5 0 5 -1 5 -2 5 -1 
5 -3 5 -2 5 -3 4 -4 5 -3 5 -5 5 -4 5 -5 
5 -5 5 -6 5 -6 5 -6 5 -6 5 -6 5 -6 5 -7 
5 -6 4 -7 5 -6 5 -6 5 -5 5 -6 5 -4 5 -5 
5 -3 5 -3 5 -3 5 -1 5 -1 5 -1 5 0 4 1 
5 0 5 1 5 2 5 1 5 1 5 1 5 1 5 0 
5 0 5 0 5 -2 5 -1 5 -3 4 -4 5 -5 5 -6 
5 -7 5 -9 5 -10 5 -12 5 -15 5 -17 5 -19 5 -23 
5 -27 5 -31 5 -38 4 -47 5 -57 5 -75 5 -102 5 -149 
1 -38 8148 4069 218 MP stroke
gr

13.2 w
c8
0 sg
 843 4095 mt  -90 rotate
(10log10\(||z) s
90 rotate
%%IncludeResource: font Helvetica
/Helvetica /ISOLatin1Encoding 156 FMSR

 741 3094 mt  -90 rotate
(H) s
90 rotate
%%IncludeResource: font Helvetica
/Helvetica /ISOLatin1Encoding 204 FMSR

 843 2982 mt  -90 rotate
(a||) s
90 rotate
%%IncludeResource: font Helvetica
/Helvetica /ISOLatin1Encoding 156 FMSR

 741 2763 mt  -90 rotate
(2) s
90 rotate
%%IncludeResource: font Helvetica
/Helvetica /ISOLatin1Encoding 204 FMSR

 843 2677 mt  -90 rotate
(\) ) s
90 rotate
%%IncludeResource: font Helvetica
/Helvetica /ISOLatin1Encoding 120 FMSR

1306 4111 mt 
( ) s
9193 2624 mt 
( ) s
6 w
1 sg
0 1487 7886 0 0 -1487 1323 6133 4 MP
PP
-7886 0 0 1487 7886 0 0 -1487 1323 6133 5 MP stroke
4 w
DO
SO
6 w
0 sg
1323 6133 mt 9209 6133 L
1323 4646 mt 9209 4646 L
1323 6133 mt 1323 4646 L
9209 6133 mt 9209 4646 L
1323 6133 mt 9209 6133 L
1323 6133 mt 1323 4646 L
1323 6133 mt 1323 6054 L
1323 4646 mt 1323 4724 L
%%IncludeResource: font Helvetica
/Helvetica /ISOLatin1Encoding 204 FMSR

1092 6356 mt 
(-80) s
2308 6133 mt 2308 6054 L
2308 4646 mt 2308 4724 L
2077 6356 mt 
(-60) s
3294 6133 mt 3294 6054 L
3294 4646 mt 3294 4724 L
3063 6356 mt 
(-40) s
4280 6133 mt 4280 6054 L
4280 4646 mt 4280 4724 L
4049 6356 mt 
(-20) s
5266 6133 mt 5266 6054 L
5266 4646 mt 5266 4724 L
5210 6356 mt 
(0) s
6251 6133 mt 6251 6054 L
6251 4646 mt 6251 4724 L
6138 6356 mt 
(20) s
7237 6133 mt 7237 6054 L
7237 4646 mt 7237 4724 L
7124 6356 mt 
(40) s
8223 6133 mt 8223 6054 L
8223 4646 mt 8223 4724 L
8110 6356 mt 
(60) s
9209 6133 mt 9209 6054 L
9209 4646 mt 9209 4724 L
9096 6356 mt 
(80) s
1323 6133 mt 1401 6133 L
9209 6133 mt 9130 6133 L
 943 6208 mt 
(-40) s
1323 5389 mt 1401 5389 L
9209 5389 mt 9130 5389 L
 943 5464 mt 
(-20) s
1323 4646 mt 1401 4646 L
9209 4646 mt 9130 4646 L
1175 4721 mt 
(0) s
1323 6133 mt 9209 6133 L
1323 4646 mt 9209 4646 L
1323 6133 mt 1323 4646 L
9209 6133 mt 9209 4646 L
gs 1323 4646 7887 1488 rc
DD
13.2 w
/c9 { 1.000000 0.000000 1.000000 sr} bdef
c9
3 239 5 203 5 123 5 87 5 67 5 52 5 43 5 35 
4 29 5 24 5 20 5 16 5 12 5 8 5 6 5 2 
5 -1 5 -4 5 -7 5 -10 5 -14 5 -18 4 -22 5 -27 
5 -33 5 -40 5 -50 5 -61 5 -77 5 -94 5 -98 5 -25 
5 86 5 108 5 91 5 75 4 61 5 52 5 43 5 38 
5 33 5 29 5 25 5 23 5 19 5 18 5 15 5 13 
5 12 5 10 4 9 5 7 5 6 5 5 5 4 5 2 
5 2 5 1 5 0 5 -1 5 -2 5 -2 5 -4 5 -4 
4 -5 5 -5 5 -7 5 -7 5 -7 5 -9 5 -10 5 -10 
5 -11 5 -12 5 -14 5 -14 5 -15 5 -17 4 -18 5 -19 
5 -20 5 -22 5 -23 5 -25 5 -25 5 -25 5 -24 5 -22 
5 -19 5 -12 5 -5 5 3 4 10 5 16 5 20 5 21 
5 22 5 21 5 21 5 19 5 18 5 16 5 15 5 13 
5 11 5 10 5 8 4 7 5 6 5 5 5 3 5 2 
5 1 5 -1 5 -1 5 -2 5 -4 5 -4 5 -5 5 -6 
5 -6 4 -8 5 -7 5 -8 5 -8 5 -8 5 -8 5 -8 
5 -7 5 -7 5 -6 5 -5 5 -4 5 -3 5 -2 4 -1 
5 0 5 0 5 1 5 0 5 1 5 1 5 1 5 0 
5 -1 5 -1 5 -2 5 -3 5 -4 4 -5 5 -5 5 -7 
5 -8 5 -9 5 -10 5 -11 5 -12 5 -12 5 -13 5 -12 
5 -11 5 -9 5 -8 4 -3 5 0 5 4 5 8 5 13 
5 15 5 17 5 19 5 20 5 20 5 20 5 19 5 19 
5 18 4 17 5 16 5 15 5 14 5 14 5 12 5 11 
5 11 5 10 5 9 5 8 5 8 5 7 5 6 4 5 
5 5 5 4 5 4 5 3 5 2 5 2 5 2 5 1 
5 0 5 0 5 -1 5 -1 5 -1 4 -2 5 -2 5 -3 
5 -3 5 -4 5 -4 5 -4 5 -5 5 -5 5 -5 5 -6 
5 -6 5 -7 5 -6 4 -7 5 -8 5 -7 5 -8 5 -8 
5 -8 5 -8 5 -9 5 -8 5 -8 5 -9 5 -8 5 -8 
5 -8 4 -7 5 -7 5 -6 5 -6 5 -5 5 -5 5 -3 
5 -3 5 -2 5 -1 5 -1 5 1 5 1 5 1 4 3 
5 3 5 3 5 4 5 3 5 5 5 4 5 4 5 4 
5 4 5 4 5 4 5 4 5 3 4 4 5 3 5 2 
5 3 5 2 5 2 5 1 5 1 5 1 5 0 5 0 
5 0 5 -1 5 -1 4 -2 5 -1 5 -3 5 -2 5 -3 
5 -4 5 -3 5 -4 5 -5 5 -5 5 -5 5 -6 5 -6 
5 -6 4 -7 5 -7 5 -8 5 -7 5 -9 5 -8 5 -9 
5 -10 5 -10 5 -10 2313 5283 300 MP stroke
5 -11 5 -10 5 -12 5 -12 4 -12 5 -12 5 -13 5 -13 
5 -14 5 -14 5 -14 5 -15 5 -15 5 -16 5 -16 5 -16 
5 -17 5 -17 4 -18 5 -18 5 -19 5 -20 5 -20 5 -21 
5 -22 5 -23 5 -24 5 -25 5 -27 5 -28 5 -30 5 -32 
4 -33 5 -35 5 -35 5 -34 5 -29 5 -19 5 -5 5 11 
5 24 5 33 5 37 5 37 5 37 5 36 4 33 5 31 
5 29 5 28 5 26 5 24 5 23 5 21 5 20 5 19 
5 18 5 18 5 16 5 15 4 15 5 14 5 13 5 13 
5 12 5 11 5 11 5 11 5 9 5 10 5 9 5 8 
5 8 5 8 4 8 5 7 5 6 5 6 5 6 5 6 
5 5 5 6 5 4 5 5 5 4 5 4 5 4 5 4 
4 3 5 3 5 3 5 3 5 3 5 2 5 3 5 2 
5 2 5 2 5 2 5 2 5 1 5 2 4 1 5 2 
5 1 5 1 5 2 5 1 5 1 5 1 5 1 5 1 
5 2 5 1 5 1 5 1 4 1 5 1 5 1 5 2 
5 1 5 1 5 1 5 1 5 2 5 1 5 1 5 2 
5 1 5 1 4 2 5 1 5 2 5 1 5 2 5 1 
5 2 5 1 5 1 5 2 5 1 5 2 5 1 5 1 
4 2 5 1 5 1 5 1 5 2 5 1 5 1 5 1 
5 1 5 1 5 1 5 1 5 0 5 1 4 1 5 0 
5 1 5 0 5 1 5 0 5 0 5 0 5 1 5 0 
5 0 5 0 5 -1 5 0 4 0 5 0 5 -1 5 0 
5 -1 5 -1 5 0 5 -1 5 -1 5 -1 5 -1 5 -1 
5 -1 5 -1 4 -2 5 -1 5 -1 5 -2 5 -1 5 -2 
5 -2 5 -1 5 -2 5 -2 5 -2 5 -2 5 -2 5 -2 
4 -2 1323 5217 202 MP stroke
4 -1 5 -3 5 -5 5 -6 5 -8 5 -10 5 -12 5 -13 
5 -16 4 -18 5 -20 5 -22 5 -26 5 -28 5 -32 5 -36 
5 -40 5 -45 5 -51 5 -59 5 -67 5 -76 5 -79 4 -63 
5 -14 5 38 5 58 5 57 5 48 5 40 5 33 5 26 
5 20 5 16 5 11 5 8 5 5 4 2 5 -1 5 -3 
5 -6 5 -8 5 -10 5 -12 5 -13 5 -15 5 -17 5 -17 
5 -19 5 -19 5 -20 4 -20 5 -19 5 -18 5 -17 5 -16 
5 -13 5 -12 5 -10 5 -8 5 -5 5 -4 5 -1 5 1 
5 3 4 5 5 8 5 9 5 11 5 12 5 13 5 13 
5 13 5 13 5 12 5 11 5 9 5 8 5 7 4 5 
5 3 5 0 5 -1 5 -4 5 -7 5 -9 5 -12 5 -16 
5 -19 5 -24 5 -29 5 -35 5 -43 4 -54 5 -68 5 -90 
5 -131 5 -227 2 -184 3790 6134 100 MP stroke
0 63 5 213 5 133 5 96 5 75 5 61 5 50 5 43 
5 36 5 30 5 25 5 22 4 17 5 13 5 11 5 7 
5 3 5 1 5 -2 5 -6 5 -9 5 -12 5 -15 5 -19 
5 -23 5 -27 4 -31 5 -36 5 -42 5 -47 5 -53 5 -57 
5 -60 5 -56 5 -40 5 -15 5 8 5 20 5 20 5 15 
4 10 5 3 5 0 5 1 5 9 5 22 5 38 5 49 
5 56 5 56 5 53 5 50 5 45 5 40 4 36 5 32 
5 28 5 24 5 21 5 17 5 14 5 10 5 7 5 3 
5 0 5 -5 5 -8 5 -12 4 -18 5 -22 5 -27 5 -32 
5 -34 5 -30 5 -15 5 10 5 36 5 53 5 58 5 57 
5 52 5 48 4 43 5 39 5 35 5 31 5 29 5 25 
5 23 5 20 5 18 5 17 5 14 5 12 5 10 5 8 
4 7 5 5 5 4 5 1 4280 4646 101 MP stroke
4 57 5 116 5 89 4 65 5 47 5 34 5 26 5 19 
5 15 5 12 5 12 5 15 5 19 5 24 5 29 5 33 
5 36 4 36 5 36 5 35 5 33 5 31 5 29 5 26 
5 24 5 22 5 19 5 17 5 15 5 12 5 10 5 8 
4 6 5 3 5 1 5 -1 5 -3 5 -7 5 -8 5 -12 
5 -15 5 -18 5 -22 5 -27 5 -31 5 -36 4 -42 5 -48 
5 -51 5 -46 5 -26 5 10 5 42 5 57 5 58 5 54 
5 49 5 43 5 38 5 33 4 30 5 27 5 24 5 21 
5 19 5 16 5 15 5 13 5 12 5 10 5 8 5 7 
5 5 5 5 4 3 5 2 5 0 5 0 5 -2 5 -3 
5 -5 5 -5 5 -7 5 -8 5 -10 5 -11 5 -13 5 -14 
4 -15 5 -17 5 -19 5 -21 5 -23 5 -25 5 -27 5 -29 
5 -31 5 -33 5 -36 5 -37 5 -38 5 -39 4 -39 5 -37 
5 -33 5 -29 5 -25 5 -21 5 -20 5 -20 5 -23 5 -30 
5 -39 5 -54 5 -78 5 -121 3 -182 4779 6134 118 MP stroke
1 2 5 10 5 10 5 10 5 9 5 9 5 9 5 8 
5 9 5 8 5 7 5 8 5 7 5 7 5 7 4 7 
5 7 5 6 5 6 5 6 5 5 5 6 5 5 5 5 
5 5 5 4 5 5 5 4 5 4 4 4 5 3 5 3 
5 3 5 3 5 3 5 3 5 2 5 2 5 2 5 1 
5 1 5 2 5 0 4 1 5 0 5 1 5 -1 5 0 
5 -1 5 -1 5 -1 5 -1 5 -2 5 -3 5 -2 5 -3 
5 -3 4 -4 5 -3 5 -5 5 -4 5 -6 5 -5 5 -6 
5 -7 5 -7 5 -7 5 -8 5 -8 5 -9 5 -10 4 -10 
5 -11 5 -12 5 -11 5 -13 5 -13 5 -13 5 -14 5 -13 
5 -14 5 -12 5 -12 5 -10 5 -8 4 -5 5 -2 5 2 
5 6 5 9 5 12 5 15 5 17 5 18 5 19 5 20 
5 20 5 20 5 19 4 19 5 18 5 18 5 17 5 17 
5 16 5 15 5 15 5 14 5 13 5 13 5 13 5 12 
5 11 4 11 5 10 5 10 5 9 5 9 5 9 5 8 
5 7 5 7 5 7 5 6 5 6 5 6 5 5 4 5 
5 4 5 4 5 3 5 3 5 3 5 2 5 2 5 2 
5 1 5 0 5 1 5 -1 5 0 4 -1 5 -2 5 -2 
5 -2 5 -3 5 -4 5 -4 5 -4 5 -5 5 -6 5 -6 
5 -6 5 -7 5 -8 4 -9 5 -9 5 -9 5 -10 5 -11 
5 -12 5 -11 5 -13 5 -12 5 -13 5 -13 5 -13 5 -13 
5 -11 4 -10 5 -9 5 -6 5 -4 5 -1 5 1 5 5 
5 8 5 10 5 11 5 13 5 14 5 15 5 15 4 14 
5 15 5 14 5 14 5 13 5 13 5 12 5 11 5 10 
5 10 5 9 5 8 5 8 5 7 4 6 5 6 5 5 
5 4 5 3 5 3 5 2 5 2 5 0 5 1 5 -1 
5 -1 5 -2 5 -3 4 -4 5 -4 5 -5 5 -6 5 -6 
5 -7 5 -9 5 -9 5 -9 5 -11 5 -12 5 -12 5 -14 
5 -14 4 -15 5 -16 5 -17 5 -18 5 -18 5 -18 5 -18 
5 -18 5 -16 5 -15 5 -12 5 -9 5 -5 5 -1 4 2 
5 6 5 8 5 10 5 12 5 12 5 12 5 13 5 11 
5 11 5 10 5 10 5 8 5 7 4 7 5 5 5 4 
5 4 5 3 5 2 5 1 5 1 5 0 5 0 5 0 
5 0 5 0 5 0 4 1 5 2 5 2 5 4 5 4 
5 6 5 7 5 8 5 9 5 10 5 10 5 11 5 11 
5 11 4 12 5 11 5 11 5 11 5 10 5 9 5 9 
5 9 5 7 5 7 5 7 5 5 5 5 5 4 4 3 
5 3 5 1 5 1 7740 4955 300 MP stroke
5 0 5 -1 5 -2 5 -3 5 -4 5 -5 5 -6 5 -6 
5 -8 5 -9 4 -10 5 -11 5 -12 5 -14 5 -14 5 -17 
5 -17 5 -19 5 -21 5 -22 5 -23 5 -26 5 -26 5 -28 
4 -28 5 -28 5 -27 5 -24 5 -18 5 -12 5 -3 5 5 
5 12 5 17 5 20 5 21 5 21 5 21 4 19 5 19 
5 18 5 16 5 15 5 15 5 13 5 12 5 12 5 11 
5 10 5 10 5 9 5 9 4 8 5 8 5 7 5 6 
5 6 5 6 5 4 5 4 5 4 5 2 5 2 5 1 
5 0 5 -1 4 -3 5 -3 5 -5 5 -6 5 -8 5 -10 
5 -11 5 -13 5 -16 5 -18 5 -21 5 -25 5 -28 5 -33 
4 -39 5 -46 5 -54 5 -64 5 -74 5 -75 5 -40 5 31 
5 75 5 79 5 71 5 61 5 51 5 44 4 38 5 33 
5 29 5 26 5 22 5 19 5 17 5 14 5 12 5 10 
5 8 5 7 5 4 5 3 5 1 4 -1 5 -2 5 -4 
5 -5 5 -8 5 -9 5 -11 5 -13 5 -14 5 -17 5 -19 
5 -21 5 -24 5 -26 4 -28 5 -32 5 -34 5 -37 5 -40 
5 -42 5 -43 5 -42 5 -37 5 -28 5 -16 5 -4 5 5 
5 9 4 10 5 7 5 3 5 -2 5 -8 5 -16 5 -24 
5 -36 5 -50 5 -71 5 -105 5 -155 5 -104 5 178 4 169 
5 122 5 94 5 75 5 63 5 52 5 46 5 40 5 34 
5 31 5 27 5 23 5 21 5 17 4 16 5 13 5 10 
5 9 5 6 5 4 5 3 5 0 5 -1 5 -4 5 -6 
5 -7 5 -10 5 -11 4 -14 5 -16 5 -18 5 -21 5 -22 
5 -24 5 -26 5 -27 5 -27 5 -25 5 -21 5 -15 5 -8 
5 0 4 8 5 12 5 15 5 17 5 15 5 15 5 12 
5 10 5 8 5 5 5 2 5 0 5 -2 5 -5 4 -8 
5 -10 5 -12 5 -14 5 -15 5 -15 5 -16 5 -14 5 -11 
5 -7 5 -2 5 4 5 8 5 12 4 13 5 14 5 14 
5 13 5 11 5 8 5 6 5 3 5 -1 5 -4 5 -8 
5 -12 5 -18 5 -23 4 -30 5 -39 5 -51 5 -67 5 -93 
5 -140 5 -222 5 6 5 237 5 155 5 108 5 83 5 65 
5 55 4 46 5 39 5 33 5 30 5 25 5 21 5 18 
5 16 5 13 5 10 5 8 5 5 5 3 5 1 4 -1 
5 -4 5 -6 5 -8 5 -11 5 -14 5 -16 5 -20 5 -23 
5 -27 5 -31 5 -36 5 -42 5 -48 4 -54 5 -58 5 -56 
5 -36 5 3 5 38 5 54 5 54 5 50 5 43 5 38 
5 32 5 27 5 23 4 19 5 16 5 12 5 10 5 8 
5 5 5 2 5 0 6266 5012 300 MP stroke
5 -2 5 -4 5 -7 5 -9 5 -11 5 -14 4 -16 5 -19 
5 -22 5 -25 5 -30 5 -33 5 -39 5 -46 5 -53 5 -64 
5 -79 5 -100 5 -126 5 -122 4 28 5 126 5 109 5 83 
5 65 5 52 5 43 5 35 5 30 5 26 5 21 5 19 
5 16 5 14 4 12 5 10 5 9 5 8 5 6 5 6 
5 5 5 5 5 3 5 4 5 3 5 3 5 3 5 2 
4 2 5 2 5 1 5 2 5 0 5 1 5 0 5 0 
5 -1 5 -1 5 -2 5 -2 5 -3 5 -4 4 -4 5 -5 
5 -6 5 -7 5 -7 5 -8 5 -9 5 -9 5 -10 5 -11 
5 -11 5 -12 5 -12 5 -13 4 -13 5 -14 5 -14 5 -13 
5 -14 5 -13 5 -13 5 -12 5 -11 5 -11 5 -9 5 -8 
5 -6 5 -5 4 -3 5 -1 5 0 5 2 5 3 5 5 
5 7 5 7 5 8 5 10 5 10 5 10 5 11 5 12 
4 11 5 12 5 11 5 12 5 12 5 11 5 11 5 11 
5 10 5 11 5 10 5 9 5 9 5 9 4 8 5 7 
5 7 5 6 5 6 5 5 5 5 5 3 5 3 5 3 
5 1 5 1 5 0 5 -1 4 -2 5 -2 5 -4 5 -4 
5 -4 5 -6 5 -6 5 -7 5 -7 5 -7 5 -8 5 -7 
5 -8 5 -7 4 -7 5 -7 5 -5 5 -5 5 -4 5 -3 
5 -2 5 -1 5 -1 5 0 5 0 5 0 5 0 5 -1 
4 -2 5 -2 5 -4 5 -4 5 -6 5 -8 5 -9 5 -11 
5 -13 5 -15 5 -17 5 -20 5 -23 5 -26 4 -30 5 -34 
5 -39 5 -45 5 -52 5 -62 5 -74 5 -91 5 -115 5 -143 
4 -86 5355 6134 186 MP stroke
gr

13.2 w
c9
DD
0 sg
4629 6617 mt 
(DOA Angle [) s
%%IncludeResource: font Helvetica
/Helvetica /ISOLatin1Encoding 156 FMSR

5758 6515 mt 
(o) s
%%IncludeResource: font Helvetica
/Helvetica /ISOLatin1Encoding 204 FMSR

5844 6617 mt 
(]) s
SO
6 w
1 sg
0 851 2342 0 0 -851 6759 1468 4 MP
PP
-2342 0 0 851 2342 0 0 -851 6759 1468 5 MP stroke
4 w
DO
SO
6 w
0 sg
6759 1468 mt 9101 1468 L
6759  617 mt 9101  617 L
6759 1468 mt 6759  617 L
9101 1468 mt 9101  617 L
6759 1468 mt 9101 1468 L
6759 1468 mt 6759  617 L
6759 1468 mt 9101 1468 L
6759  617 mt 9101  617 L
6759 1468 mt 6759  617 L
9101 1468 mt 9101  617 L
7228  845 mt 
(Convex Method) s
gs 6759 617 2343 852 rc
13.2 w
c8
360 0 6831 772 2 MP stroke
gr

13.2 w
c8
0 sg
7228 1115 mt 
(Submodular Method) s
gs 6759 617 2343 852 rc
DA
360 0 6831 1042 2 MP stroke
SO
gr

7228 1385 mt 
(Output SNR Greedy) s
gs 6759 617 2343 852 rc
DD
c9
360 0 6831 1312 2 MP stroke
SO
6 w
gr

6 w
c9

end %%Color Dict

eplot
%%EndObject

epage
end

showpage

%%Trailer
%%EOF
